0.0000013451200
0.0000015395900
0.0000013386500
0.0000015208500
0.0000013247200
0.0000015143200
0.0000013639500
0.0000014910900
0.0000014013500
0.0000014597400
0.0000015682200
0.0000012312800
0.0000015068100
0.0000012500400
0.0000017654700
0.0000015935400
0.0000015287300
0.0000009002970
0.0000019771800
0.0000010911000
0.0000019465400
0.0000010346000
0.0000016908900
0.0000009153130
0.0000027102700
0.0000010009700
0.0000040145000
-0.0000002703650
0.0000038493800
-0.0000025256700
0.0000044400000
-0.0000014265800
0.0000063225000
-0.0000015654000
0.0000046787000
-0.0000036130900
0.0000065049900
-0.0000033254200
0.0000079274200
-0.0000045917700
0.0000071723200
-0.0000023346000
0.0000073923600
-0.0000052925600
0.0000085347500
-0.0000042714900
0.0000097142400
-0.0000053652600
0.0000071881000
-0.0000034363500
0.0000088739700
-0.0000030930000
0.0000085023400
-0.0000021162400
0.0000092953500
-0.0000083530700
-0.0000014605200
0.0000088291800
-0.0000014841300
0.0000091920000
-0.0000027334200
0.0000062929700
-0.0000004641270
0.0000146174000
-0.0000033589400
0.0000051287600
0.0000015434300
0.0000098926400
-0.0000036467900
0.0000141714000
-0.0000109164000
0.0000111830000
-0.0000091394400
0.0000179344000
-0.0000047089700
0.0000108156000
-0.0000048323900
0.0000157724000
-0.0000053814500
0.0000120761000
-0.0000006853310
0.0000109334000
-0.0000003974640
0.0000106898000
-0.0000064083700
0.0000182209000
-0.0000169407000
0.0000255304000
-0.0000209632000
0.0000239973000
-0.0000165901000
0.0000307564000
-0.0000179035000
0.0000260283000
-0.0000212555000
0.0000277837000
-0.0000210411000
0.0000309666000
-0.0000157889000
0.0000302502000
-0.0000277462000
0.0000298602000
-0.0000290227000
0.0000382212000
-0.0000294918000
0.0000331922000
-0.0000237868000
0.0000254470000
-0.0000228983000
0.0000366475000
-0.0000339920000
0.0000281210000
-0.0000451558000
0.0000402918000
-0.0000316507000
0.0000432965000
-0.0000327336000
0.0000476008000
0.0000275171000
-0.0000086321100
0.0000321523000
-0.0000247422000
0.0000298212000
-0.0000242372000
0.0000335380000
-0.0000190713000
0.0000326133000
-0.0000248902000
0.0000409059000
-0.0000261488000
0.0000067398900
-0.0000288011000
0.0000334518000
-0.0000225492000
0.0000313553000
-0.0000226652000
0.0000412281000
-0.0000306995000
0.0000505574000
-0.0000276097000
0.0000383708000
-0.0000011809000
0.0000279653000
-0.0000317331000
0.0000439779000
-0.0000245113000
0.0000366542000
-0.0000250730000
0.0000609875000
-0.0000648811000
0.0000522605000
-0.0000592321000
0.0000516995000
-0.0000550873000
0.0000422575000
-0.0000601013000
0.0000563718000
-0.0000557866000
0.0000538246000
-0.0000335259000
0.0000502733000
-0.0000560262000
0.0000550392000
-0.0000582501000
0.0000547966000
-0.0000540485000
0.0000460022000
-0.0000548276000
0.0000647113000
-0.0000338421000
0.0000869094000
-0.0000531925000
0.0000573566000
-0.0000705037000
0.0000660373000
-0.0000590351000
0.0000845747000
-0.0000609526000
0.0000594346000
0.0000613931000
-0.0000355868000
0.0000381499000
-0.0000602520000
0.0000743543000
-0.0000627719000
0.0000514303000
-0.0000371577000
0.0000942867000
-0.0000687284000
0.0000524415000
-0.0000501527000
0.0000391010000
-0.0000544822000
0.0000758032000
-0.0000861436000
0.0000681670000
-0.0000423074000
0.0000493958000
-0.0000460212000
0.0000839653000
-0.0000534703000
0.0000534421000
-0.0000630435000
0.0000764660000
-0.0000746995000
0.0000529945000
-0.0000718754000
0.0000351444000
-0.0000305714000
0.0000600771000
-0.0000533787000
0.0000941173000
-0.0000776661000
0.0000722695000
-0.0000844311000
0.0000616742000
-0.0000418544000
0.0000813481000
-0.0000523618000
0.0000630249000
-0.0000662822000
0.0000527785000
-0.0000675520000
0.0000840131000
-0.0000583250000
0.0000525293000
-0.0000276238000
0.0000964649000
-0.0000947352000
0.0000455600000
-0.0000819116000
0.0000786602000
-0.0000480409000
0.0000899771000
-0.0000843391000
0.0000998872000
-0.0000850883000
0.0001088290000
-0.0000973626000
0.0000858068000
0.0000911472000
-0.0001244010000
0.0000664321000
-0.0000643103000
0.0000561581000
-0.0000491888000
0.0000630237000
-0.0000824167000
0.0000828201000
-0.0000634902000
0.0000751298000
-0.0000950560000
0.0000580608000
-0.0000453030000
0.0000941570000
-0.0000793261000
0.0000707435000
-0.0000952656000
0.0000446251000
-0.0000635397000
0.0000980035000
-0.0000858545000
0.0000901952000
-0.0000674110000
0.0000880729000
-0.0000737684000
0.0000909737000
-0.0001069100000
0.0000734087000
-0.0000561919000
0.0000562761000
-0.0000950516000
0.0000924519000
-0.0000763591000
0.0000723692000
-0.0001003430000
0.0000746253000
-0.0000634100000
0.0000903201000
-0.0000677758000
0.0001089180000
-0.0000862921000
0.0000628394000
-0.0000861579000
0.0000699306000
-0.0000811479000
0.0001047930000
-0.0000646621000
0.0000814221000
-0.0000779014000
0.0000444725000
-0.0000846088000
0.0000885774000
-0.0000808682000
0.0000854638000
-0.0000801029000
0.0000714264000
-0.0001020860000
0.0001006750000
-0.0000487090000
-0.0000441284000
0.0000446968000
-0.0001150080000
0.0001121270000
-0.0001272420000
0.0000904494000
-0.0000952014000
0.0000765116000
-0.0000951391000
0.0000845879000
-0.0000702864000
0.0001032350000
-0.0000916633000
0.0001219850000
-0.0000682722000
0.0000855109000
-0.0000884575000
0.0000864053000
-0.0001124630000
0.0001194670000
-0.0000789120000
0.0000552404000
-0.0001384360000
0.0001108030000
-0.0000787039000
0.0000456857000
-0.0000405597000
0.0000941609000
-0.0001049170000
0.0001171420000
-0.0001142240000
0.0000902474000
-0.0000454879000
0.0000697124000
-0.0000448233000
0.0000603415000
-0.0000809007000
0.0000714377000
-0.0000431274000
0.0000470861000
-0.0000969951000
0.0000634379000
-0.0000619791000
0.0000811883000
-0.0000931870000
0.0000752810000
-0.0000852128000
0.0000623648000
-0.0000612290000
0.0000741439000
-0.0000804350000
0.0000701766000
-0.0000406886000
0.0000269028000
-0.0000863854000
0.0000702171000
-0.0000675082000
0.0000840460000
-0.0000798263000
0.0000829783000
-0.0001149860000
0.0000496544000
0.0000814438000
-0.0001181600000
0.0000809705000
-0.0001031680000
0.0000473342000
-0.0000778755000
0.0000793622000
-0.0001139010000
0.0000608170000
-0.0000597710000
0.0000964747000
-0.0001031200000
0.0000467647000
-0.0000917117000
0.0000819393000
-0.0000957790000
0.0000482001000
-0.0000734786000
0.0000911048000
-0.0000648821000
0.0000568395000
-0.0001315610000
0.0001163260000
-0.0000888641000
0.0000791501000
-0.0001077700000
0.0001062650000
-0.0001030070000
0.0000673662000
-0.0000898590000
0.0000665303000
-0.0000479379000
0.0000482904000
-0.0000729028000
0.0000713251000
-0.0000899782000
0.0000436113000
-0.0000667164000
0.0000815350000
-0.0001008800000
0.0000887178000
-0.0000810634000
0.0000547570000
-0.0000829055000
0.0000789052000
-0.0000641490000
0.0000777356000
-0.0000634920000
0.0000735939000
-0.0000658169000
0.0000595877000
-0.0000650092000
0.0000746240000
-0.0000694217000
0.0000916712000
-0.0000910639000
0.0000921281000
-0.0000371814000
0.0000695947000
-0.0001052420000
0.0000455863000
0.0077180800000
-0.0001687650000
0.0000077293800
-0.0001608350000
0.0000255620000
-0.0001445360000
-0.0000264728000
-0.0001690970000
-0.0000097665200
-0.0001768910000
0.0000329488000
-0.0001722360000
-0.0000103515000
-0.0001731120000
0.0000005479520
-0.0001512190000
0.0000240704000
-0.0001507070000
0.0000354615000
-0.0001722440000
-0.0000087501300
-0.0001731340000
0.0000549743000
-0.0001598580000
0.0000373497000
-0.0001713580000
-0.0000018717300
-0.0001683490000
0.0000309256000
-0.0001448620000
0.0000004365920
-0.0001839370000
0.0000085622200
-0.0001500810000
0.0000212029000
-0.0001475150000
0.0000188181000
-0.0001210880000
-0.0000117527000
-0.0001333570000
-0.0000100045000
-0.0001375590000
-0.0000062068900
-0.0001347970000
0.0000154732000
-0.0001044510000
-0.0000181690000
-0.0001177560000
-0.0000035626100
-0.0001530420000
0.0000103900000
-0.0001065180000
0.0000007437350
-0.0001449040000
0.0000006350710
-0.0001371770000
-0.0000254429000
-0.0001441430000
-0.0000043608600
-0.0001354530000
-0.0000471640000
0.0000109941000
-0.0001669600000
0.0000022368200
-0.0001560180000
0.0000331812000
-0.0001464710000
0.0000328462000
-0.0001688440000
0.0000059116800
-0.0001658130000
-0.0000617025000
-0.0002924280000
-0.0002138880000
-0.0006621530000
-0.0007457250000
-0.0012802500000
-0.0015524000000
-0.0022707700000
-0.0029069200000
-0.0040819000000
-0.0046069800000
-0.0046393100000
-0.0033760300000
-0.0017284400000
0.0009593500000
0.0044722400000
0.0108619000000
0.0181468000000
0.0227074000000
0.0213692000000
0.0160688000000
0.0119384000000
0.0025522900000
-0.0103435000000
-0.0280604000000
-0.0469009000000
-0.0524118000000
-0.0395406000000
-0.0252622000000
-0.0189274000000
-0.0123119000000
-0.0088463700000
-0.0122356000000
-0.0181757000000
-0.0291803000000
-0.0561662000000
-0.0846546000000
-0.1030200000000
-0.1242990000000
-0.1291810000000
-0.0826496000000
-0.0224478000000
-0.0036080000000
0.0027789700000
0.0515571000000
0.0939704000000
0.0664972000000
0.0231221000000
0.0176119000000
0.0022819300000
-0.0245786000000
-0.0112852000000
0.0081747200000
0.0482129000000
0.0858897000000
0.1196640000000
0.1395430000000
0.1518330000000
0.1195860000000
0.0054644000000
-0.1119210000000
-0.1278210000000
-0.0426687000000
0.0388211000000
0.0013510300000
-0.0803862000000
-0.0956914000000
-0.0592626000000
-0.0356872000000
-0.0211433000000
0.0357128000000
0.0954899000000
0.0854961000000
0.0532093000000
0.0615368000000
0.0737709000000
0.0246317000000
-0.0603266000000
-0.0615525000000
0.0265921000000
0.0617289000000
0.0155754000000
-0.0155692000000
-0.0826320000000
-0.1411800000000
-0.1262280000000
-0.0287617000000
0.0116980000000
-0.0704839000000
-0.0955001000000
0.0079200100000
0.0877412000000
0.0646846000000
0.0291236000000
0.0296897000000
0.0094781100000
-0.0170285000000
-0.0005478730000
0.0052479700000
-0.0368713000000
-0.0396822000000
0.0424923000000
0.1456400000000
0.1433600000000
0.0321375000000
-0.0252759000000
0.0185030000000
0.0527639000000
0.0447480000000
0.0312714000000
0.0166604000000
0.0321815000000
0.0409800000000
0.0179051000000
-0.0096444300000
0.0055891800000
0.0469311000000
0.0948125000000
0.0800219000000
0.0273997000000
-0.0103267000000
-0.0490126000000
-0.0690436000000
-0.0459868000000
-0.0192994000000
-0.0066386500000
0.0080694300000
0.0220902000000
0.0387270000000
0.0111198000000
-0.0637164000000
-0.0957130000000
-0.0484827000000
0.0220670000000
0.0277124000000
-0.0117281000000
0.0032806300000
0.0344908000000
0.0343689000000
0.0402388000000
0.0702301000000
0.0876559000000
0.0701295000000
0.0407621000000
0.0369267000000
0.0610224000000
0.0726208000000
0.0165490000000
-0.0286727000000
-0.0167722000000
-0.0127634000000
-0.0303178000000
-0.0332108000000
-0.0227028000000
-0.0148724000000
-0.0238287000000
-0.0231679000000
0.0075697200000
0.0240564000000
0.0021156800000
-0.0036989000000
0.0395987000000
0.0398328000000
-0.0255054000000
-0.0448384000000
-0.0268225000000
-0.0387184000000
-0.0656320000000
-0.0592045000000
-0.0164827000000
0.0126097000000
0.0046509300000
-0.0083543500000
-0.0063925000000
-0.0024633600000
-0.0009380670000
-0.0158665000000
-0.0353498000000
-0.0549384000000
-0.0435024000000
0.0034841900000
0.0193756000000
0.0033102400000
-0.0082391600000
-0.0103926000000
-0.0161644000000
-0.0188922000000
0.0208952000000
0.0609094000000
0.0425719000000
0.0050144000000
0.0069330400000
0.0243440000000
-0.0007445630000
-0.0317885000000
-0.0058256200000
0.0371121000000
0.0403754000000
-0.0059451700000
-0.0345761000000
-0.0272096000000
-0.0234458000000
-0.0051302300000
0.0059758800000
-0.0019794600000
-0.0191851000000
0.0014679800000
0.0365097000000
0.0190002000000
-0.0137787000000
-0.0155722000000
-0.0202197000000
-0.0269323000000
-0.0179062000000
-0.0005563210000
0.0093542600000
-0.0103899000000
-0.0330372000000
-0.0311264000000
-0.0179453000000
0.0029788600000
0.0180127000000
0.0102203000000
-0.0157842000000
-0.0410194000000
-0.0563779000000
-0.0557715000000
-0.0521220000000
-0.0576950000000
-0.0361883000000
-0.0069473100000
-0.0011226200000
-0.0016542000000
0.0034507600000
0.0281133000000
0.0634100000000
0.0651382000000
0.0365260000000
0.0101843000000
0.0038888000000
-0.0039916300000
-0.0384621000000
-0.0523320000000
-0.0048191900000
0.0346359000000
0.0110437000000
-0.0225002000000
-0.0076628200000
0.0300062000000
0.0299384000000
-0.0059620900000
-0.0324291000000
-0.0346488000000
-0.0070632700000
0.0524078000000
0.0649647000000
0.0205216000000
0.0000574511000
0.0157874000000
0.0220989000000
0.0214974000000
0.0021033500000
-0.0403478000000
-0.0591253000000
-0.0414345000000
-0.0184543000000
-0.0160418000000
-0.0174344000000
0.0001604300000
0.0250109000000
0.0116003000000
-0.0197237000000
-0.0313784000000
-0.0310879000000
-0.0325164000000
-0.0122466000000
0.0340042000000
0.0399233000000
-0.0055825700000
-0.0250495000000
0.0096592200000
0.0092316600000
-0.0113149000000
0.0300777000000
0.0655671000000
0.0229016000000
-0.0268857000000
-0.0263971000000
-0.0231733000000
-0.0420181000000
-0.0437357000000
-0.0015048400000
0.0510176000000
0.0494069000000
0.0085776800000
-0.0152937000000
-0.0205015000000
-0.0178843000000
0.0233579000000
0.0683918000000
0.0780810000000
0.0794873000000
0.0927473000000
0.0920114000000
0.0415413000000
-0.0164386000000
-0.0564590000000
-0.0573761000000
-0.0462509000000
-0.0461830000000
-0.0310576000000
-0.0340699000000
-0.0531754000000
-0.0532383000000
-0.0279555000000
0.0064702900000
-0.0063848300000
-0.0109507000000
0.0281149000000
0.0642814000000
0.0792925000000
0.0164250000000
-0.0944096000000
-0.1242820000000
-0.0783196000000
-0.0319964000000
-0.0278433000000
-0.0469102000000
0.0001771940000
0.0795587000000
0.0869737000000
0.0424040000000
0.0312912000000
0.0643562000000
0.0606184000000
0.0106286000000
-0.0356565000000
-0.0670578000000
-0.0768092000000
-0.0296639000000
0.0506625000000
0.0492412000000
-0.0234444000000
-0.0129651000000
0.0615887000000
0.0341071000000
-0.0689115000000
-0.1075230000000
-0.0453545000000
0.0375565000000
0.0455956000000
-0.0074914800000
-0.0514098000000
-0.0772420000000
-0.0862799000000
-0.0446243000000
0.0131423000000
0.0492339000000
0.0795133000000
0.0830368000000
0.0662597000000
0.0559856000000
0.0254611000000
-0.0077380200000
-0.0330680000000
-0.0096541500000
0.0646824000000
0.0790452000000
0.0338009000000
0.0162636000000
0.0591508000000
0.0929641000000
0.0691474000000
0.0475682000000
0.0376583000000
0.0270050000000
0.0184048000000
-0.0262619000000
-0.0673048000000
-0.0250068000000
0.0347502000000
0.0151451000000
-0.0245819000000
-0.0168222000000
0.0191123000000
0.0117906000000
-0.0688025000000
-0.0865759000000
-0.0060510400000
0.0113936000000
-0.0115764000000
0.0077612200000
0.0866202000000
0.1055950000000
0.0417321000000
0.0134744000000
0.1099970000000
0.1933270000000
0.1716300000000
0.1056610000000
0.0289000000000
-0.0383643000000
-0.0859768000000
-0.1229830000000
-0.1055520000000
-0.0197956000000
0.0846283000000
0.1236500000000
0.0703815000000
-0.0071450800000
-0.0493560000000
-0.0083733300000
0.0809347000000
0.1134030000000
0.0461184000000
-0.0185896000000
-0.0054323900000
0.0038506500000
-0.0016501100000
-0.0161154000000
-0.0352179000000
-0.0465460000000
-0.0523809000000
-0.0496481000000
-0.0226427000000
-0.0073142400000
0.0131080000000
0.0691987000000
0.1291620000000
0.1644130000000
0.1528160000000
0.0597644000000
-0.0353497000000
-0.0298375000000
0.0344598000000
0.0010282000000
-0.0975831000000
-0.0995460000000
-0.0311149000000
0.0115937000000
0.0023616600000
-0.0635525000000
-0.0674677000000
0.0046309300000
0.0136606000000
-0.0415758000000
-0.0628441000000
0.0068200800000
0.0611822000000
0.0101360000000
-0.0440372000000
-0.0415576000000
-0.0291145000000
-0.0181343000000
0.0071093200000
-0.0053567600000
-0.0199907000000
-0.0306381000000
-0.0730559000000
-0.0626793000000
0.0169820000000
0.0569441000000
0.0327163000000
0.0079023500000
0.0150690000000
0.0343988000000
0.0427721000000
0.0344905000000
0.0393449000000
0.0737677000000
0.0943135000000
0.0370111000000
-0.0224272000000
-0.0200207000000
-0.0460825000000
-0.0938181000000
-0.0735953000000
-0.0208578000000
-0.0136491000000
-0.0438959000000
-0.0590548000000
-0.0422696000000
-0.0260641000000
-0.0373176000000
-0.0817154000000
-0.0974938000000
-0.0790927000000
-0.0397350000000
0.0232142000000
0.0410252000000
0.0033931100000
-0.0171348000000
-0.0197801000000
-0.0232988000000
-0.0304859000000
-0.0179894000000
0.0630570000000
0.1368510000000
0.1563760000000
0.1674560000000
0.1598960000000
0.1224300000000
0.0725757000000
0.0065018200000
-0.0647723000000
-0.1083840000000
-0.1327930000000
-0.1702290000000
-0.2025490000000
-0.1899020000000
-0.1549550000000
-0.1345840000000
-0.0907569000000
-0.0544093000000
0.0055916600000
0.0368117000000
0.0477819000000
-0.0048297900000
-0.0737046000000
-0.0756557000000
-0.0402359000000
0.0143346000000
0.0789301000000
0.0933597000000
0.0542894000000
0.0074817600000
-0.0392830000000
-0.0816410000000
-0.0861207000000
-0.0462621000000
-0.0072773500000
-0.0165561000000
-0.0750144000000
-0.1140340000000
-0.0753177000000
-0.0013263300000
0.0267217000000
-0.0241192000000
-0.0605447000000
-0.0166781000000
0.0340128000000
0.0426600000000
0.0431686000000
0.0377502000000
0.0277680000000
0.0095747900000
0.0162187000000
0.0422564000000
0.0773788000000
0.0701805000000
0.0280102000000
0.0013989100000
-0.0342429000000
-0.0615253000000
-0.0366419000000
-0.0191437000000
0.0020829000000
0.0656712000000
0.0972684000000
0.0830203000000
0.0764184000000
0.0554117000000
-0.0065698900000
-0.0487033000000
-0.0474638000000
-0.0576288000000
-0.1060330000000
-0.1494630000000
-0.1699740000000
-0.1685660000000
-0.1597380000000
-0.1697760000000
-0.1770010000000
-0.1133290000000
0.0148787000000
0.0555160000000
0.0503467000000
0.0354591000000
0.0766149000000
0.0638476000000
0.0052437500000
-0.0232521000000
-0.0055837800000
0.0117529000000
0.0084209800000
-0.0044666100000
-0.0233796000000
-0.0500242000000
-0.0796801000000
-0.1091630000000
-0.1576490000000
-0.1714300000000
-0.1358310000000
-0.0804837000000
-0.0251919000000
0.0400014000000
0.0525071000000
0.0016871700000
-0.0524797000000
-0.0566768000000
-0.0118286000000
0.0370258000000
0.0190685000000
-0.0075383500000
0.0285823000000
0.0582576000000
0.0952900000000
0.0898286000000
0.0631350000000
0.0279162000000
0.0131507000000
0.0071465300000
-0.0222620000000
-0.0177871000000
0.0213377000000
0.0231061000000
-0.0232245000000
-0.0598832000000
-0.0668909000000
-0.0687859000000
-0.0656982000000
-0.0670256000000
-0.0754451000000
-0.0652463000000
-0.0044850700000
0.0919689000000
0.1372750000000
0.0927549000000
0.0483002000000
0.0625489000000
0.0829900000000
0.0543107000000
-0.0148822000000
-0.0513469000000
0.0058699400000
0.0507448000000
0.1092930000000
0.1118300000000
0.1320140000000
0.1576320000000
0.1425990000000
0.1087050000000
0.0541496000000
-0.0099891000000
-0.0432480000000
-0.0693665000000
-0.1007230000000
-0.0942933000000
-0.0302962000000
0.0152783000000
-0.0201203000000
-0.0589373000000
-0.0358126000000
0.0004196860000
0.0327570000000
0.0660146000000
0.0633706000000
0.0476189000000
0.0864805000000
0.1202380000000
0.0974217000000
0.0458791000000
-0.0182416000000
-0.0563246000000
-0.0088043900000
0.0579313000000
0.0668634000000
0.0419978000000
-0.0020082800000
-0.0422268000000
-0.0553369000000
-0.0271252000000
0.0130154000000
0.0173908000000
-0.0256558000000
-0.0589974000000
-0.0202597000000
0.0174392000000
-0.0198550000000
-0.0656792000000
-0.0551898000000
-0.0139992000000
0.0301402000000
0.0494990000000
0.0238990000000
-0.0109346000000
-0.0054820200000
0.0338847000000
0.0589264000000
0.0228198000000
-0.0490170000000
-0.0747055000000
-0.0488388000000
-0.0249817000000
-0.0536327000000
-0.1029360000000
-0.1154420000000
-0.0909363000000
-0.0346173000000
-0.0305348000000
-0.0732618000000
-0.0776110000000
-0.0242751000000
0.0085179800000
-0.0131115000000
-0.0347167000000
-0.0353753000000
-0.0265630000000
-0.0132530000000
-0.0139061000000
-0.0369585000000
-0.0532989000000
-0.0640093000000
-0.0761108000000
-0.0702366000000
-0.0575896000000
-0.0478996000000
-0.0113251000000
0.0367497000000
0.0365079000000
-0.0014490800000
0.0032682100000
0.0379910000000
0.0534278000000
0.0442338000000
0.0105746000000
-0.0248452000000
-0.0268330000000
0.0073091800000
0.0340080000000
0.0176510000000
-0.0020974700000
0.0107752000000
0.0334660000000
0.0465519000000
0.0580360000000
0.0685110000000
0.0584339000000
0.0320112000000
0.0186361000000
0.0178004000000
0.0295856000000
0.0553917000000
0.0452022000000
-0.0055918200000
-0.0257665000000
0.0258242000000
0.0789219000000
0.0786943000000
0.0570732000000
0.0439159000000
0.0612452000000
0.1026260000000
0.1035110000000
0.0664700000000
0.0692115000000
0.0858125000000
0.0437249000000
0.0145573000000
-0.0059536400000
0.0156881000000
0.0367694000000
0.0375325000000
0.0045729100000
-0.0054329900000
0.0317823000000
0.0468270000000
0.0298928000000
0.0264440000000
0.0297247000000
0.0192023000000
0.0133659000000
0.0217391000000
0.0233913000000
0.0122953000000
0.0019100100000
-0.0006238320000
-0.0122768000000
-0.0348181000000
-0.0345728000000
-0.0163050000000
-0.0136320000000
-0.0144807000000
-0.0102371000000
-0.0118565000000
-0.0151619000000
-0.0365396000000
-0.0814176000000
-0.0969009000000
-0.0939845000000
-0.0791543000000
-0.0837702000000
-0.0743662000000
-0.0510680000000
-0.0357106000000
-0.0236779000000
-0.0281947000000
-0.0406731000000
-0.0344532000000
-0.0185806000000
-0.0313659000000
-0.0693001000000
-0.0750528000000
-0.0305905000000
0.0034620000000
0.0080815600000
0.0339323000000
0.0643074000000
0.0418136000000
-0.0045217200000
-0.0206678000000
-0.0049931100000
0.0121958000000
0.0052049000000
-0.0097818100000
0.0045419600000
0.0287896000000
0.0262749000000
0.0023142300000
-0.0112812000000
-0.0317463000000
-0.0147768000000
0.0320643000000
0.0581494000000
0.0404474000000
-0.0112702000000
-0.0535573000000
-0.0383496000000
0.0198891000000
0.0432607000000
0.0050705100000
-0.0432736000000
-0.0362630000000
0.0050797400000
0.0087815200000
-0.0188725000000
-0.0422493000000
-0.0238749000000
0.0359975000000
0.0657641000000
0.0329663000000
0.0037601500000
0.0065003400000
0.0071363200000
-0.0081563000000
-0.0190785000000
0.0090192600000
0.0550998000000
0.0557357000000
0.0403805000000
-0.0160254000000
-0.0401449000000
-0.0161653000000
0.0213602000000
0.0162208000000
-0.0178537000000
-0.0191345000000
0.0084393000000
0.0173679000000
0.0086663600000
0.0271847000000
0.0261118000000
-0.0278735000000
-0.0246343000000
-0.0005783610000
-0.0122956000000
-0.0191939000000
-0.0006444800000
0.0131634000000
0.0159751000000
0.0015930100000
-0.0208352000000
-0.0193651000000
0.0094668600000
0.0264102000000
0.0229737000000
0.0212464000000
0.0162252000000
0.0013035300000
-0.0047126000000
0.0064666800000
0.0398576000000
0.0357725000000
0.0097512100000
-0.0000067343900
-0.0047743100000
0.0100307000000
0.0588885000000
0.0933115000000
0.0811306000000
0.0474651000000
0.0268876000000
0.0277207000000
0.0380116000000
0.0230053000000
-0.0163766000000
-0.0322437000000
-0.0200768000000
0.0016366200000
0.0481190000000
0.0751252000000
0.0508859000000
0.0364895000000
0.0408545000000
0.0089356200000
-0.0232550000000
-0.0320752000000
-0.0279320000000
-0.0111929000000
0.0281421000000
0.0577333000000
0.0889185000000
0.0383303000000
-0.0193050000000
0.0090709500000
0.0521776000000
0.0533187000000
0.0496536000000
0.0329243000000
0.0206317000000
0.0379981000000
0.0447381000000
-0.0053353600000
-0.0475663000000
-0.0238542000000
0.0152337000000
0.0379842000000
0.0467754000000
0.0463739000000
0.0403760000000
0.0377144000000
0.0233152000000
-0.0111915000000
-0.0350556000000
-0.0319567000000
-0.0147705000000
-0.0051707700000
-0.0095891000000
0.0031024500000
0.0218653000000
0.0163557000000
0.0048786100000
0.0030607500000
0.0034109200000
0.0023537200000
-0.0146215000000
-0.0479467000000
-0.0531149000000
-0.0314033000000
-0.0323811000000
-0.0361947000000
-0.0257266000000
-0.0256740000000
-0.0340734000000
-0.0354053000000
-0.0313782000000
-0.0324692000000
-0.0354855000000
-0.0363602000000
-0.0334116000000
-0.0067393700000
-0.0067157000000
-0.0447908000000
-0.0576246000000
-0.0218805000000
-0.0171906000000
-0.0350729000000
-0.0417578000000
-0.0327450000000
-0.0113623000000
0.0054715200000
-0.0053917300000
-0.0244418000000
-0.0275535000000
-0.0115553000000
0.0220453000000
0.0449223000000
0.0412686000000
0.0351285000000
0.0455369000000
0.0530894000000
0.0465823000000
0.0358747000000
0.0314309000000
0.0289315000000
0.0133967000000
-0.0049079200000
-0.0078255300000
-0.0045709100000
-0.0015892900000
0.0113349000000
0.0245061000000
0.0274354000000
0.0191637000000
0.0178604000000
0.0415304000000
0.0619097000000
0.0542957000000
0.0422220000000
0.0414002000000
0.0446643000000
0.0375728000000
0.0212061000000
0.0132384000000
0.0001928120000
-0.0069029200000
0.0051806400000
0.0275231000000
0.0311829000000
0.0123990000000
-0.0028385600000
-0.0031376700000
-0.0022007700000
-0.0083239000000
-0.0132713000000
-0.0183518000000
-0.0275985000000
-0.0223155000000
-0.0009962970000
0.0165697000000
0.0322054000000
0.0423452000000
0.0327548000000
0.0121605000000
-0.0069254200000
-0.0164245000000
-0.0160937000000
-0.0134276000000
-0.0084598400000
-0.0018214500000
-0.0026728400000
-0.0066288400000
-0.0069830700000
-0.0088895000000
-0.0082540500000
0.0034999800000
0.0225358000000
0.0260737000000
0.0192443000000
0.0186206000000
0.0178714000000
0.0150742000000
0.0193338000000
0.0303403000000
0.0346836000000
0.0244499000000
0.0083122100000
0.0034030400000
0.0184520000000
0.0346743000000
0.0320712000000
0.0219319000000
0.0222333000000
0.0226270000000
0.0108447000000
0.0013855400000
0.0087836600000
0.0228838000000
0.0213855000000
0.0057984900000
0.0053227900000
0.0217657000000
0.0229131000000
0.0015281400000
-0.0085046400000
-0.0082652900000
0.0129309000000
0.0185743000000
0.0047930800000
-0.0039054000000
-0.0089026700000
-0.0142926000000
-0.0127114000000
-0.0068636800000
0.0025236700000
0.0073791900000
-0.0047068900000
-0.0119211000000
-0.0025907000000
0.0046985000000
0.0058458300000
0.0129152000000
0.0211904000000
0.0125345000000
-0.0020472000000
-0.0035491900000
-0.0034512500000
-0.0176687000000
-0.0281907000000
-0.0143129000000
-0.0007429070000
-0.0040240600000
-0.0110458000000
-0.0088633800000
-0.0012530700000
0.0140405000000
0.0101867000000
0.0007487580000
-0.0020205800000
-0.0071189400000
-0.0038768000000
0.0145038000000
0.0248526000000
0.0091925700000
-0.0119855000000
-0.0097566800000
0.0163630000000
0.0415488000000
0.0404727000000
0.0222014000000
0.0150348000000
0.0185566000000
0.0107377000000
-0.0113680000000
-0.0244869000000
-0.0168196000000
0.0009362160000
0.0116592000000
0.0001049100000
-0.0227091000000
-0.0290609000000
-0.0220401000000
-0.0259372000000
-0.0381822000000
-0.0397525000000
-0.0331518000000
-0.0114667000000
0.0016854000000
-0.0018645300000
-0.0011200000000
-0.0001196290000
-0.0176452000000
-0.0351373000000
-0.0324880000000
-0.0153736000000
-0.0061737400000
-0.0175469000000
-0.0268115000000
-0.0156494000000
-0.0079659000000
-0.0167580000000
-0.0192667000000
-0.0094574000000
-0.0053750400000
-0.0109379000000
-0.0137349000000
-0.0092161200000
0.0030018200000
0.0196716000000
0.0260109000000
0.0125165000000
-0.0012437800000
0.0019831200000
0.0056869900000
-0.0057810400000
-0.0256096000000
-0.0321737000000
-0.0280325000000
-0.0068232000000
0.0056668400000
0.0041285700000
-0.0002138460000
-0.0013708000000
0.0001257080000
-0.0012592400000
-0.0015262200000
-0.0042202300000
-0.0175002000000
-0.0224980000000
-0.0099846000000
-0.0030623100000
-0.0130721000000
-0.0293655000000
-0.0309426000000
-0.0055036500000
0.0176500000000
0.0178478000000
0.0216747000000
0.0306575000000
0.0190559000000
-0.0077677200000
-0.0252263000000
-0.0194690000000
-0.0054613500000
-0.0054579200000
-0.0161846000000
-0.0192814000000
-0.0153358000000
-0.0052747400000
-0.0008102410000
-0.0001310290000
0.0061434200000
0.0140531000000
0.0058137900000
-0.0129704000000
-0.0150429000000
-0.0121859000000
-0.0264343000000
-0.0414868000000
-0.0433184000000
-0.0375879000000
-0.0292723000000
-0.0184133000000
-0.0060313400000
-0.0066433100000
-0.0216781000000
-0.0253183000000
-0.0086959200000
0.0051050000000
0.0057585600000
-0.0022816100000
-0.0084421400000
-0.0104534000000
-0.0210731000000
-0.0386490000000
-0.0428454000000
-0.0378623000000
-0.0277279000000
-0.0325318000000
-0.0394146000000
-0.0310401000000
-0.0171983000000
-0.0048684100000
0.0027703900000
0.0013952500000
0.0000096604100
0.0033351400000
0.0072580300000
0.0111134000000
0.0090404100000
0.0012002300000
0.0049703000000
0.0176001000000
0.0187670000000
0.0067855900000
-0.0005509000000
0.0093452300000
0.0234179000000
0.0259413000000
0.0206035000000
0.0102041000000
0.0022438800000
0.0067268100000
0.0129125000000
0.0107409000000
0.0080329700000
0.0073630500000
-0.0000478028000
-0.0060587600000
-0.0135760000000
-0.0121283000000
-0.0055893600000
0.0048133000000
0.0099545400000
0.0044212500000
0.0009356890000
0.0069111600000
0.0114879000000
0.0085646700000
-0.0007797140000
-0.0118715000000
-0.0091513100000
0.0106529000000
0.0250240000000
0.0204533000000
0.0172576000000
0.0257234000000
0.0233699000000
0.0075955700000
-0.0044015800000
-0.0038294100000
0.0082899300000
0.0160168000000
0.0120903000000
0.0102845000000
0.0114624000000
0.0032913600000
-0.0121605000000
-0.0164863000000
-0.0141102000000
-0.0094543600000
-0.0100957000000
-0.0130317000000
-0.0162502000000
-0.0167093000000
-0.0127627000000
-0.0071876100000
-0.0123743000000
-0.0189907000000
-0.0112396000000
-0.0089621700000
-0.0240762000000
-0.0366995000000
-0.0359283000000
-0.0273991000000
-0.0165044000000
-0.0099838600000
-0.0114088000000
-0.0150320000000
-0.0174377000000
-0.0175482000000
-0.0152826000000
-0.0131841000000
-0.0111430000000
-0.0075880700000
-0.0048526600000
-0.0124715000000
-0.0283072000000
-0.0350349000000
-0.0449349000000
-0.0519835000000
-0.0495106000000
-0.0365105000000
-0.0260243000000
-0.0197061000000
-0.0161737000000
-0.0179016000000
-0.0226548000000
-0.0262586000000
-0.0225894000000
-0.0121700000000
0.0050826700000
0.0246294000000
0.0278909000000
0.0171861000000
0.0112855000000
0.0095627700000
0.0044864000000
-0.0021315600000
-0.0102131000000
-0.0155089000000
-0.0116429000000
-0.0019775400000
0.0096749500000
0.0144635000000
0.0002001960000
-0.0213563000000
-0.0262838000000
-0.0151404000000
-0.0086578200000
-0.0003460350000
0.0023064500000
0.0000680924000
-0.0076464000000
-0.0136589000000
-0.0103648000000
-0.0064593600000
-0.0139194000000
-0.0204487000000
-0.0149430000000
-0.0043838400000
0.0026196800000
0.0002408750000
-0.0057536500000
-0.0008605220000
0.0154065000000
0.0336979000000
0.0481201000000
0.0521706000000
0.0399014000000
0.0168228000000
-0.0019406500000
-0.0066238000000
0.0003378140000
0.0040799800000
-0.0036548800000
-0.0072483400000
0.0059333400000
0.0207043000000
0.0164671000000
0.0086656800000
-0.0041493900000
-0.0021386600000
0.0078714200000
0.0127228000000
0.0149926000000
0.0155599000000
0.0095938300000
0.0067012100000
0.0094906600000
0.0084468800000
0.0040097800000
-0.0024388800000
-0.0051601900000
-0.0014231700000
-0.0036062600000
-0.0124286000000
-0.0127698000000
0.0003246310000
0.0148972000000
0.0153589000000
0.0035101200000
-0.0045155400000
-0.0007572420000
0.0106914000000
0.0178990000000
0.0113550000000
-0.0002712860000
-0.0022184600000
0.0042700000000
0.0058952800000
0.0035504800000
-0.0008966970000
-0.0048121200000
-0.0087045200000
-0.0053184900000
0.0026376400000
0.0042999400000
0.0034997400000
0.0051480400000
0.0034233800000
-0.0009857910000
-0.0061238000000
-0.0080311800000
-0.0047198300000
-0.0028449200000
-0.0051445000000
-0.0054641800000
0.0026897800000
0.0117360000000
0.0109819000000
0.0062009000000
0.0088716900000
0.0186359000000
0.0233516000000
0.0170737000000
0.0086779600000
0.0061630100000
0.0110411000000
0.0186810000000
0.0234586000000
0.0257486000000
0.0348595000000
0.0449162000000
0.0467049000000
0.0394045000000
0.0290094000000
0.0166639000000
0.0084150000000
0.0151952000000
0.0277728000000
0.0313807000000
0.0313084000000
0.0334025000000
0.0312920000000
0.0246767000000
0.0207545000000
0.0250970000000
0.0394038000000
0.0501674000000
0.0438801000000
0.0300848000000
0.0256681000000
0.0280101000000
0.0285971000000
0.0243175000000
0.0133877000000
0.0062833500000
0.0129033000000
0.0185944000000
0.0091585500000
-0.0060807000000
-0.0116929000000
-0.0168567000000
-0.0161509000000
-0.0111553000000
-0.0069447700000
-0.0082801100000
-0.0111713000000
-0.0136982000000
-0.0132090000000
-0.0111956000000
-0.0177106000000
-0.0300493000000
-0.0365244000000
-0.0363030000000
-0.0317249000000
-0.0235291000000
-0.0130723000000
-0.0040027500000
-0.0050876100000
-0.0156445000000
-0.0192831000000
-0.0118852000000
-0.0075203300000
-0.0095702000000
-0.0125360000000
-0.0187138000000
-0.0216074000000
-0.0191075000000
-0.0191562000000
-0.0233403000000
-0.0269897000000
-0.0282553000000
-0.0306339000000
-0.0322078000000
-0.0330837000000
-0.0323674000000
-0.0303750000000
-0.0282520000000
-0.0263473000000
-0.0229528000000
-0.0179919000000
-0.0144924000000
-0.0153415000000
-0.0202814000000
-0.0246344000000
-0.0206994000000
-0.0181309000000
-0.0276103000000
-0.0348517000000
-0.0267070000000
-0.0111805000000
-0.0044844000000
-0.0143458000000
-0.0265907000000
-0.0202778000000
-0.0036490700000
0.0084707300000
0.0127008000000
0.0095390000000
0.0049866400000
0.0035995700000
0.0041129500000
0.0047330800000
0.0078471600000
0.0135979000000
0.0180667000000
0.0159877000000
0.0061698600000
-0.0039090100000
-0.0057258200000
-0.0004114770000
0.0054589200000
0.0068902200000
0.0074999800000
0.0103572000000
0.0116343000000
0.0056345100000
0.0002993350000
0.0060600500000
0.0121187000000
0.0077212100000
0.0029025000000
0.0057200800000
0.0090867500000
0.0076675100000
0.0024034300000
-0.0025788000000
0.0009025490000
0.0112703000000
0.0157843000000
0.0104580000000
0.0027976900000
0.0029960200000
0.0066979900000
0.0149083000000
0.0162550000000
0.0113611000000
0.0087359300000
0.0116861000000
0.0142807000000
0.0105480000000
0.0037054400000
0.0039217500000
0.0111589000000
0.0164468000000
0.0153244000000
0.0071554600000
-0.0025583500000
-0.0075280100000
-0.0090952100000
-0.0082398600000
-0.0051261700000
-0.0039554600000
-0.0039441300000
-0.0015151700000
-0.0010139000000
-0.0064201200000
-0.0126230000000
-0.0118849000000
-0.0055926700000
-0.0008098160000
-0.0030381500000
-0.0132133000000
-0.0188597000000
-0.0219062000000
-0.0084856000000
0.0079283600000
0.0132738000000
0.0106599000000
0.0101136000000
0.0129434000000
0.0102525000000
-0.0021986000000
-0.0159764000000
-0.0176087000000
-0.0068509300000
0.0035801300000
0.0089939200000
0.0109329000000
0.0133255000000
0.0181607000000
0.0181544000000
0.0073673200000
-0.0051694900000
-0.0063882500000
0.0045259900000
0.0148503000000
0.0156597000000
0.0092517600000
0.0034249200000
0.0009896350000
0.0015439300000
0.0045751400000
0.0066632200000
0.0069309200000
0.0048881400000
-0.0001620860000
-0.0001578520000
0.0081554300000
0.0118714000000
0.0074354100000
0.0035299300000
0.0025089800000
0.0041553700000
0.0053966900000
0.0011527600000
-0.0045891800000
-0.0067002800000
-0.0053660100000
-0.0031556600000
0.0008771900000
0.0029541400000
0.0002556760000
0.0027084700000
0.0098364500000
0.0104179000000
0.0065998100000
0.0051086100000
0.0061186000000
0.0079306700000
0.0073618600000
0.0058076200000
0.0055970200000
0.0035879900000
0.0014389500000
-0.0039068900000
-0.0077478900000
-0.0082329300000
-0.0062014700000
-0.0000177763000
0.0030472200000
-0.0036791900000
-0.0109706000000
-0.0101024000000
-0.0054758800000
-0.0032323900000
-0.0008674320000
0.0034708800000
0.0086275500000
0.0112155000000
0.0060959800000
-0.0023175700000
-0.0055180100000
-0.0064699000000
-0.0072644400000
-0.0046316600000
-0.0051861400000
-0.0118078000000
-0.0165514000000
-0.0154730000000
-0.0089651200000
-0.0025007100000
-0.0005025120000
0.0027289000000
0.0068202200000
0.0061711600000
0.0006423710000
-0.0007728250000
0.0038876500000
0.0056382200000
0.0029733000000
0.0019926200000
0.0066577700000
0.0112329000000
0.0068588500000
-0.0016084700000
-0.0036978400000
-0.0039495600000
-0.0084493000000
-0.0132578000000
-0.0133156000000
-0.0086425000000
-0.0043085000000
-0.0052646800000
-0.0085848200000
-0.0100062000000
-0.0097249300000
-0.0070631300000
-0.0005197320000
0.0047201900000
0.0033137400000
-0.0034501400000
-0.0062635900000
-0.0027864300000
-0.0024333100000
-0.0041432800000
-0.0075058500000
-0.0075459800000
-0.0070196700000
-0.0086519000000
-0.0093613800000
-0.0080338000000
-0.0053092400000
-0.0030376600000
-0.0017319900000
-0.0006420350000
-0.0013343700000
-0.0049675200000
-0.0119816000000
-0.0184963000000
-0.0172603000000
-0.0103423000000
-0.0045259400000
-0.0010489900000
0.0014463400000
0.0044580100000
0.0058588300000
0.0014732400000
-0.0018145800000
0.0016356300000
0.0049608400000
0.0049112200000
0.0039132500000
0.0018698700000
0.0002855100000
0.0004417610000
0.0025918600000
0.0084634400000
0.0155371000000
0.0180922000000
0.0178887000000
0.0166239000000
0.0143448000000
0.0163537000000
0.0215309000000
0.0230079000000
0.0208086000000
0.0174637000000
0.0173345000000
0.0236312000000
0.0279089000000
0.0247452000000
0.0220237000000
0.0232076000000
0.0230500000000
0.0179034000000
0.0101093000000
0.0053743900000
0.0041762600000
0.0053839000000
0.0041259700000
0.0014348500000
0.0019360400000
0.0009368010000
-0.0032988100000
-0.0062746800000
-0.0068771100000
-0.0066589300000
-0.0057889800000
-0.0073835700000
-0.0101113000000
-0.0121845000000
-0.0115258000000
-0.0057491500000
-0.0008183140000
-0.0013235400000
-0.0030073800000
-0.0053279000000
-0.0075808100000
-0.0093811500000
-0.0141671000000
-0.0196617000000
-0.0228046000000
-0.0246652000000
-0.0239385000000
-0.0206724000000
-0.0144590000000
-0.0076125800000
-0.0048192000000
-0.0058326100000
-0.0043349000000
0.0019448300000
0.0053592500000
0.0020870100000
-0.0013925000000
-0.0027109700000
-0.0057352300000
-0.0081443300000
-0.0126157000000
-0.0130348000000
-0.0107749000000
-0.0091348900000
-0.0069930500000
-0.0048288800000
-0.0033230100000
-0.0035458800000
-0.0073601800000
-0.0101094000000
-0.0093202400000
-0.0097260900000
-0.0112765000000
-0.0105918000000
-0.0058915100000
-0.0003795090000
0.0004205170000
-0.0014424800000
-0.0009708110000
0.0010391500000
0.0014510600000
-0.0004625620000
-0.0011957200000
0.0010335500000
0.0047013300000
0.0059762400000
0.0026416200000
-0.0038457800000
-0.0103313000000
-0.0116242000000
-0.0108916000000
-0.0112067000000
-0.0109957000000
-0.0065524700000
-0.0017592100000
-0.0001540560000
0.0013089800000
0.0031241900000
0.0012627800000
-0.0022530700000
-0.0024644100000
0.0022870400000
0.0067837200000
0.0062254100000
0.0056344100000
0.0063694200000
0.0023577600000
-0.0050214800000
-0.0065046400000
-0.0033944500000
-0.0007323240000
0.0030772600000
0.0060121100000
0.0065889300000
0.0033705000000
-0.0002294520000
-0.0034913600000
-0.0108341000000
-0.0153083000000
-0.0145209000000
-0.0115868000000
-0.0092430400000
-0.0052324800000
-0.0014749200000
0.0035454300000
0.0100482000000
0.0122057000000
0.0097688000000
0.0066717900000
0.0063470600000
0.0084040300000
0.0087331200000
0.0073708700000
0.0060923200000
0.0043455300000
0.0007070850000
-0.0036393800000
-0.0025478800000
0.0037229600000
0.0065742900000
0.0066881700000
0.0084938600000
0.0089198200000
0.0049427500000
0.0018785500000
0.0003971630000
-0.0022591000000
-0.0008299070000
0.0008278290000
-0.0015542900000
-0.0012226500000
0.0039697400000
0.0070345200000
0.0049354400000
0.0005498320000
-0.0015608800000
0.0010273400000
0.0013597600000
-0.0003321710000
0.0007666850000
0.0004472970000
-0.0020901800000
-0.0045674200000
-0.0070314900000
-0.0093795600000
-0.0113289000000
-0.0111162000000
-0.0064654700000
-0.0015117600000
-0.0014625400000
-0.0010098700000
0.0018211900000
-0.0007245480000
-0.0054740400000
-0.0052104300000
-0.0015744100000
0.0024330400000
0.0012130100000
-0.0036912200000
-0.0032067600000
-0.0022741100000
-0.0051971700000
-0.0099612300000
-0.0080355800000
-0.0038933500000
-0.0039648000000
-0.0046267800000
-0.0024899800000
0.0021370500000
0.0061280700000
0.0079202300000
0.0088876000000
0.0089799600000
0.0087097200000
0.0085007100000
0.0067593500000
0.0051775300000
0.0053818500000
0.0058260400000
0.0045935700000
0.0023470500000
0.0018796700000
0.0022034200000
-0.0013485400000
-0.0046611500000
-0.0038292500000
-0.0037801200000
-0.0053835400000
-0.0070131300000
-0.0070650700000
-0.0049827300000
-0.0035150300000
-0.0012688800000
0.0001147950000
0.0017478400000
0.0034923800000
0.0053803100000
0.0069375400000
0.0066540300000
0.0053160000000
0.0026382000000
-0.0017656800000
-0.0041945200000
-0.0028923400000
-0.0020320400000
-0.0055194300000
-0.0119340000000
-0.0133134000000
-0.0092612300000
-0.0073921800000
-0.0072638500000
-0.0064775900000
-0.0069897600000
-0.0090166000000
-0.0095144800000
-0.0066992700000
-0.0059423200000
-0.0116722000000
-0.0136090000000
-0.0081134400000
-0.0063623600000
-0.0076414200000
-0.0104392000000
-0.0116393000000
-0.0101229000000
-0.0076797900000
-0.0067880800000
-0.0044622700000
-0.0016157100000
-0.0020521800000
-0.0045156300000
-0.0067142400000
-0.0068701600000
-0.0069560700000
-0.0064401600000
-0.0028857300000
-0.0005963050000
-0.0020619500000
-0.0031771200000
-0.0025439400000
-0.0003573060000
0.0003396150000
-0.0010608000000
0.0001147200000
0.0035225600000
0.0052343100000
0.0037569100000
0.0016285800000
0.0031551000000
0.0078228100000
0.0106934000000
0.0165218000000
0.0072755300000
0.0079878700000
0.0117109000000
0.0133886000000
0.0114581000000
0.0087247300000
0.0093753900000
0.0118974000000
0.0111808000000
0.0102181000000
0.0108152000000
0.0084641100000
0.0066928000000
0.0090940500000
0.0108800000000
0.0110164000000
0.0105704000000
0.0117513000000
0.0129459000000
0.0109574000000
0.0079466900000
0.0051234600000
0.0028907100000
0.0037568100000
0.0059542000000
0.0050021000000
0.0027638200000
0.0021486000000
0.0021887400000
0.0003358700000
-0.0011443200000
-0.0026327100000
-0.0019571600000
-0.0012772300000
0.0007827540000
0.0018495400000
0.0011797800000
-0.0007068750000
-0.0034190300000
-0.0039793500000
-0.0019312900000
0.0001891680000
0.0001470370000
-0.0020934500000
-0.0050744900000
-0.0088581200000
-0.0116000000000
-0.0110344000000
-0.0086775000000
-0.0057301800000
-0.0046027000000
-0.0057368000000
-0.0065489500000
-0.0083540100000
-0.0093989200000
-0.0065367000000
-0.0026945800000
0.0002212390000
0.0017127700000
0.0016162400000
0.0014575900000
0.0007445440000
-0.0001072490000
-0.0001973940000
-0.0003929000000
-0.0005792960000
0.0001122710000
-0.0006043540000
-0.0033521000000
-0.0061793500000
-0.0061217100000
-0.0030121200000
0.0001747760000
0.0019235200000
0.0015855400000
0.0012065800000
0.0021698700000
0.0014326000000
-0.0015359200000
-0.0025069300000
-0.0020427300000
-0.0017857100000
-0.0010549900000
-0.0023201200000
-0.0056201800000
-0.0076739300000
-0.0074176500000
-0.0046486500000
-0.0007771560000
0.0015180700000
0.0020038400000
0.0026444700000
0.0028616900000
0.0024692700000
0.0022972300000
0.0025593800000
0.0030319200000
0.0047893400000
0.0078161900000
0.0082270400000
0.0061761200000
0.0047162700000
0.0028642400000
0.0014342000000
0.0005645860000
-0.0004217380000
0.0007569330000
0.0036073100000
0.0048332800000
0.0056067600000
0.0076707000000
0.0087378000000
0.0094721600000
0.0098533000000
0.0076994000000
0.0041660700000
0.0019299700000
0.0017617700000
0.0005234390000
-0.0029062500000
-0.0048377300000
-0.0047458900000
-0.0033282700000
-0.0010305500000
0.0007209100000
0.0023736700000
0.0055207500000
0.0063641800000
0.0030130700000
0.0009872590000
0.0012084900000
0.0014585300000
0.0018882500000
0.0018551700000
0.0014108100000
0.0006259450000
0.0011280500000
0.0015827700000
-0.0001402040000
-0.0009600160000
0.0014572000000
0.0044043300000
0.0055856300000
0.0060789400000
0.0065840800000
0.0058911400000
0.0043107100000
0.0034035600000
0.0036308800000
0.0038412100000
0.0019257100000
0.0000728927000
-0.0030340000000
-0.0039496400000
-0.0031664800000
-0.0015214400000
-0.0006395190000
-0.0017906900000
-0.0033709100000
-0.0039672500000
-0.0051641200000
-0.0047092500000
-0.0012451400000
0.0013569500000
0.0007024640000
-0.0023733300000
-0.0056299100000
-0.0067212400000
-0.0052186900000
-0.0034274000000
-0.0020453700000
0.0003855030000
0.0029294900000
0.0032763900000
0.0030546200000
0.0033539100000
0.0036103300000
0.0046055500000
0.0050107300000
0.0055952700000
0.0062505900000
0.0041800400000
0.0022693700000
-0.0002893040000
0.0003273870000
0.0028547800000
0.0042932100000
0.0035609400000
0.0021226200000
0.0022162500000
0.0034921700000
0.0044052700000
0.0047297000000
0.0045875700000
0.0049418600000
0.0057788600000
0.0055307400000
0.0049520200000
0.0042694200000
0.0032073600000
0.0028847200000
0.0033309600000
0.0042102800000
0.0054099900000
0.0045344800000
0.0018188000000
0.0009406930000
0.0026391000000
0.0041513800000
0.0040548300000
0.0045424300000
0.0053080900000
0.0034456200000
0.0017526300000
-0.0002857470000
-0.0008978220000
-0.0032634100000
-0.0056403000000
-0.0053368900000
-0.0041027400000
-0.0038134900000
-0.0049978200000
-0.0055584000000
-0.0033439300000
-0.0007612230000
-0.0006876310000
-0.0021592100000
-0.0038441300000
-0.0047005100000
-0.0038692200000
-0.0030801300000
-0.0020450900000
-0.0010558200000
-0.0016749400000
-0.0038224200000
-0.0062706300000
-0.0069145100000
-0.0056841100000
-0.0044756600000
-0.0046461500000
-0.0047274900000
-0.0044497200000
-0.0046916700000
-0.0047803900000
-0.0050425300000
-0.0052123300000
-0.0042632600000
-0.0023133100000
-0.0002014950000
0.0016191100000
0.0028031900000
0.0040122400000
0.0059494000000
0.0066092800000
0.0055777000000
0.0041921200000
0.0035185900000
0.0038232100000
0.0034460000000
0.0014269300000
0.0007451690000
0.0019263800000
0.0038248300000
0.0064137000000
0.0084197500000
0.0092900400000
0.0095553500000
0.0091259000000
0.0088668900000
0.0094011700000
0.0086722400000
0.0071577100000
0.0070989800000
0.0070828900000
0.0067901800000
0.0053167700000
0.0024961100000
0.0008339060000
0.0025481600000
0.0042267800000
0.0034498500000
0.0007586830000
-0.0025699700000
-0.0044498200000
-0.0041685500000
-0.0032740000000
-0.0029584800000
-0.0033914400000
-0.0038144500000
-0.0036468100000
-0.0043135500000
-0.0064426000000
-0.0081533700000
-0.0085704000000
-0.0100817000000
-0.0126691000000
-0.0135247000000
-0.0110772000000
-0.0079101600000
-0.0074922400000
-0.0085658500000
-0.0089808500000
-0.0079486900000
-0.0061179300000
-0.0063872600000
-0.0080442300000
-0.0088234600000
-0.0088566900000
-0.0081585300000
-0.0075562400000
-0.0083426100000
-0.0098938200000
-0.0113874000000
-0.0117976000000
-0.0102581000000
-0.0079488100000
-0.0054384800000
-0.0033963600000
-0.0029885400000
-0.0030246300000
-0.0022526300000
-0.0025656800000
-0.0038217100000
-0.0044495000000
-0.0037214500000
-0.0008896780000
0.0022136600000
0.0029947200000
0.0018066000000
0.0004150320000
-0.0011035200000
-0.0016042200000
-0.0001720070000
0.0011109700000
0.0006100900000
0.0001157330000
0.0015177500000
0.0028464500000
0.0028745300000
0.0026995000000
0.0035312900000
0.0042774600000
0.0045689500000
0.0053176100000
0.0074318900000
0.0091362100000
0.0078258200000
0.0056122500000
0.0057521700000
0.0067232600000
0.0070562000000
0.0077307500000
0.0082772100000
0.0076922400000
0.0054899500000
0.0038212200000
0.0040273700000
0.0036202400000
0.0013452200000
0.0004448410000
0.0014274600000
0.0021540600000
0.0024330000000
0.0028628600000
0.0047708600000
0.0074070000000
0.0078897100000
0.0075651000000
0.0083862000000
0.0089900200000
0.0096458200000
0.0084410900000
0.0062339600000
0.0046955700000
0.0043374700000
0.0047052500000
0.0046029400000
0.0053701900000
0.0076632000000
0.0091546600000
0.0084376800000
0.0073548400000
0.0067370700000
0.0055214100000
0.0048523800000
0.0052554900000
0.0044096400000
0.0028562400000
0.0024805900000
0.0025484300000
0.0017547900000
0.0004365160000
0.0008899760000
0.0025871600000
0.0026746300000
0.0015489500000
0.0015707400000
0.0028055500000
0.0020857700000
0.0011290700000
-0.0005502840000
-0.0015927400000
-0.0023807300000
-0.0027528800000
-0.0022397000000
-0.0014391200000
-0.0019840600000
-0.0040255700000
-0.0050518400000
-0.0038205600000
-0.0020580400000
-0.0013167900000
-0.0005826690000
0.0022227400000
0.0051808500000
0.0053273900000
0.0031541100000
0.0010057600000
-0.0003372900000
-0.0001492640000
0.0007048790000
0.0003255060000
-0.0006231720000
-0.0003379310000
0.0004263590000
-0.0002028660000
-0.0007425120000
-0.0004606490000
-0.0010998700000
-0.0016963300000
-0.0022426100000
-0.0018463900000
-0.0006378330000
0.0002814890000
-0.0006188780000
-0.0024136800000
-0.0031534800000
-0.0030082300000
-0.0030117900000
-0.0030857100000
-0.0030917800000
-0.0025789900000
-0.0017397000000
-0.0020443600000
-0.0032373900000
-0.0029814100000
-0.0020493300000
-0.0023150000000
-0.0031352000000
-0.0042234700000
-0.0044545200000
-0.0042819900000
-0.0049811800000
-0.0055548900000
-0.0055058100000
-0.0064807400000
-0.0085229700000
-0.0098024200000
-0.0092770400000
-0.0077740000000
-0.0083560500000
-0.0093857800000
-0.0102255000000
-0.0075158500000
-0.0044242100000
-0.0036574600000
-0.0033256800000
-0.0009019040000
0.0015069400000
0.0017723600000
0.0008291090000
-0.0000080619800
-0.0003575620000
-0.0005604000000
-0.0019183500000
-0.0055594700000
-0.0070245300000
-0.0044991400000
-0.0026939400000
-0.0022691900000
-0.0019043300000
-0.0018842600000
-0.0013965900000
-0.0001954150000
0.0002050440000
0.0012185300000
0.0032976000000
0.0042049000000
0.0023664600000
-0.0012796000000
-0.0017439500000
-0.0001915990000
-0.0007266120000
-0.0031597100000
-0.0032650500000
-0.0018501600000
-0.0015034500000
-0.0016658900000
-0.0011526100000
0.0008313950000
0.0019380700000
0.0006012270000
-0.0011195700000
-0.0007669320000
0.0017355700000
0.0027735900000
0.0010992300000
-0.0006246280000
0.0000068870300
0.0032817400000
0.0054812400000
0.0048819800000
0.0034460100000
0.0034925400000
0.0055878600000
0.0066994800000
0.0048475300000
0.0011294300000
-0.0015108000000
-0.0023887900000
-0.0039066900000
-0.0055128100000
-0.0057808300000
-0.0050173000000
-0.0028350700000
-0.0005230130000
-0.0001906700000
-0.0009049700000
-0.0010924100000
-0.0001650250000
0.0006763380000
0.0009073460000
0.0006892770000
0.0000457935000
-0.0002990340000
-0.0010769500000
-0.0035447100000
-0.0051936400000
-0.0043033800000
-0.0017516400000
0.0007481140000
0.0024249700000
0.0041151900000
0.0053331700000
0.0048328000000
0.0028884100000
0.0011326700000
0.0016798700000
0.0032426300000
0.0033209400000
0.0021787600000
0.0021586100000
0.0036439000000
0.0040932500000
0.0037829600000
0.0020027400000
0.0009522720000
0.0028001600000
0.0047421300000
0.0037404100000
0.0017797300000
0.0009770250000
0.0004858850000
-0.0004122070000
-0.0004716000000
0.0011801200000
0.0022775600000
0.0020736900000
0.0029448100000
0.0038181800000
0.0028063600000
0.0016333900000
0.0019156300000
0.0034900900000
0.0037146300000
0.0017346300000
0.0007878720000
0.0014564000000
0.0024115700000
0.0019363400000
-0.0012170900000
-0.0037759500000
-0.0030694300000
-0.0024917100000
-0.0025481000000
-0.0034941700000
-0.0031913800000
-0.0020226200000
-0.0021713000000
-0.0032448000000
-0.0034149400000
-0.0021973200000
-0.0009848320000
-0.0005290140000
-0.0006029120000
-0.0016893200000
-0.0027897900000
-0.0031232600000
-0.0031800400000
-0.0043776200000
-0.0062214700000
-0.0070100600000
-0.0057216800000
-0.0027606200000
-0.0009110270000
-0.0017024900000
-0.0021708700000
-0.0016328100000
-0.0013757000000
-0.0005871590000
0.0012626000000
0.0035048800000
0.0030274300000
0.0017267100000
0.0006497560000
0.0031335700000
0.0040831400000
0.0023885100000
0.0008818380000
0.0002458420000
0.0010318100000
0.0020311000000
0.0018578600000
0.0013958300000
0.0005922970000
-0.0004754320000
0.0000737361000
0.0021092600000
0.0028710000000
0.0014032900000
-0.0002190520000
-0.0007489640000
-0.0003122040000
-0.0003874000000
-0.0007108310000
0.0008296000000
0.0027910200000
0.0020620200000
-0.0000191579000
-0.0007593890000
0.0007165580000
0.0030449400000
0.0032671200000
0.0016269600000
0.0010341000000
0.0010695400000
0.0024096200000
0.0033639200000
0.0025606500000
0.0027287200000
0.0046270700000
0.0057533400000
0.0051178700000
0.0046503800000
0.0053773700000
0.0063030800000
0.0055624000000
0.0032653100000
0.0017762700000
0.0023927900000
0.0038888300000
0.0028069500000
0.0018036900000
0.0042800900000
0.0068800800000
0.0069997900000
0.0044954500000
0.0025650400000
0.0030512500000
0.0018716100000
-0.0001398410000
0.0002690470000
0.0016522100000
0.0027738500000
0.0027958300000
0.0012068600000
0.0000136818000
0.0007890340000
0.0019850500000
0.0024067000000
0.0008434890000
-0.0017265800000
-0.0026972600000
-0.0030017400000
-0.0042726700000
-0.0045923500000
-0.0034154300000
-0.0028345800000
-0.0028566200000
-0.0031409700000
-0.0025650000000
-0.0011581200000
-0.0016531000000
-0.0031415000000
-0.0031312300000
-0.0026265600000
-0.0032932900000
-0.0049854100000
-0.0064965200000
-0.0069524700000
-0.0069324400000
-0.0072490700000
-0.0069454100000
-0.0056162800000
-0.0050129600000
-0.0046082500000
-0.0045443900000
-0.0036492300000
-0.0025986200000
-0.0031708900000
-0.0043260900000
-0.0042273400000
-0.0040584700000
-0.0050822300000
-0.0064261300000
-0.0061210100000
-0.0039283800000
-0.0022985000000
-0.0025127000000
-0.0020469000000
-0.0010755900000
-0.0018746300000
-0.0031080000000
-0.0028287000000
-0.0018783600000
-0.0022298200000
-0.0034927500000
-0.0046018900000
-0.0055049700000
-0.0062496100000
-0.0052111700000
-0.0030410000000
-0.0024801400000
-0.0035958700000
-0.0043196400000
-0.0044138000000
-0.0047988000000
-0.0055492600000
-0.0055813900000
-0.0043125600000
-0.0022483100000
-0.0009084570000
-0.0004666110000
0.0000776174000
0.0004735600000
0.0002913550000
0.0000551038000
0.0001582200000
-0.0000514163000
-0.0000639791000
0.0003597080000
0.0005753460000
0.0012587300000
0.0020801100000
0.0033910300000
0.0045020200000
0.0045962700000
0.0053826100000
0.0074660700000
0.0091420300000
0.0102246000000
0.0095720600000
0.0077729400000
0.0072192400000
0.0074646500000
0.0075765600000
0.0073692600000
0.0063200200000
0.0062237900000
0.0080102100000
0.0091386000000
0.0090498500000
0.0084405600000
0.0078218600000
0.0081385300000
0.0082530200000
0.0082723600000
0.0098838200000
0.0108760000000
0.0103385000000
0.0101432000000
0.0102712000000
0.0105857000000
0.0113603000000
0.0128189000000
0.0140619000000
0.0140924000000
0.0130398000000
0.0118399000000
0.0113127000000
0.0117939000000
0.0123350000000
0.0115308000000
0.0090934100000
0.0072811400000
0.0066879500000
0.0063711200000
0.0053756700000
0.0058699600000
0.0076385800000
0.0082554300000
0.0084254700000
0.0083623000000
0.0076672600000
0.0069251200000
0.0065609700000
0.0066650300000
0.0064347900000
0.0054296900000
0.0050706200000
0.0049708600000
0.0043979300000
0.0041502500000
0.0046293400000
0.0051061600000
0.0052788400000
0.0053210600000
0.0056096000000
0.0055009600000
0.0050983000000
0.0043197600000
0.0033963300000
0.0022814600000
0.0010516200000
-0.0006916670000
-0.0024393800000
-0.0039743300000
-0.0045190600000
-0.0052456400000
-0.0056087700000
-0.0055195000000
-0.0050997900000
-0.0049702400000
-0.0052484200000
-0.0056657700000
-0.0061201900000
-0.0060559300000
-0.0058667800000
-0.0065411000000
-0.0075256600000
-0.0074852300000
-0.0066620400000
-0.0060330600000
-0.0056521700000
-0.0055111900000
-0.0050689200000
-0.0050517200000
-0.0062503900000
-0.0076071400000
-0.0081523400000
-0.0089280400000
-0.0095880500000
-0.0093275500000
-0.0090155700000
-0.0086296900000
-0.0081081600000
-0.0083563000000
-0.0087070300000
-0.0095979000000
-0.0100109000000
-0.0102001000000
-0.0101703000000
-0.0098415300000
-0.0101417000000
-0.0105929000000
-0.0113743000000
-0.0127740000000
-0.0128601000000
-0.0115139000000
-0.0098660000000
-0.0081726300000
-0.0070548900000
-0.0067095800000
-0.0061648900000
-0.0053500400000
-0.0044836200000
-0.0036984100000
-0.0032586900000
-0.0034806800000
-0.0036388700000
-0.0035069700000
-0.0032458600000
-0.0030115000000
-0.0033148000000
-0.0035772000000
-0.0037121200000
-0.0039870600000
-0.0036002400000
-0.0033774400000
-0.0042147000000
-0.0055841800000
-0.0059149300000
-0.0049973700000
-0.0030938300000
-0.0020513700000
-0.0012303000000
0.0003877830000
0.0015279500000
0.0017241500000
0.0008516950000
-0.0006677510000
-0.0012889400000
-0.0006848450000
-0.0003416850000
-0.0009540750000
-0.0017203100000
-0.0018747600000
-0.0018519400000
-0.0020720800000
-0.0020005100000
-0.0011347600000
-0.0000315189000
0.0005535390000
0.0004614850000
0.0002673660000
0.0006088230000
0.0003966490000
-0.0009280480000
-0.0013354800000
-0.0016238200000
-0.0014034000000
-0.0011585800000
-0.0000166788000
0.0016017800000
0.0026084500000
0.0026217600000
0.0025026600000
0.0025532100000
0.0025507900000
0.0027799300000
0.0028381300000
0.0024997000000
0.0022666500000
0.0024457600000
0.0030257600000
0.0033782400000
0.0037009900000
0.0045713500000
0.0054460400000
0.0056585700000
0.0055969200000
0.0055509300000
0.0047189300000
0.0039999900000
0.0043804500000
0.0049988000000
0.0055420300000
0.0058225500000
0.0057595500000
0.0047403000000
0.0036703200000
0.0040835700000
0.0051320700000
0.0056954100000
0.0052696400000
0.0043275800000
0.0041385300000
0.0038204400000
0.0032498500000
0.0031929000000
0.0028355300000
0.0025679000000
0.0027432300000
0.0024513000000
0.0019821300000
0.0020867500000
0.0025360400000
0.0023757200000
0.0016978500000
0.0017860800000
0.0018693800000
0.0016098600000
0.0014982400000
0.0012481500000
0.0013315400000
0.0015583000000
0.0014059200000
0.0011832200000
0.0007609730000
0.0004812550000
0.0001744140000
-0.0002499570000
-0.0009693320000
-0.0013504300000
-0.0011558300000
-0.0009426680000
-0.0008419750000
-0.0009175010000
-0.0009360950000
-0.0009350900000
-0.0012791100000
-0.0014310600000
-0.0009693510000
-0.0001457530000
0.0003308530000
0.0001347600000
-0.0007734350000
-0.0016178400000
-0.0017901100000
-0.0022481100000
-0.0027695300000
-0.0016950600000
0.0003313620000
0.0013385900000
0.0004110380000
-0.0000926815000
0.0013065300000
0.0026067700000
0.0026006600000
0.0023685700000
0.0024002700000
0.0021631800000
0.0012938900000
0.0005294040000
0.0000471078000
-0.0000001939480
0.0003215500000
0.0004319800000
0.0007147230000
0.0008207210000
0.0007224740000
0.0012490300000
0.0016788700000
0.0018489900000
0.0021467100000
0.0024630400000
0.0027062800000
0.0025285900000
0.0018127200000
0.0011858500000
0.0005322690000
0.0002240430000
-0.0000951278000
-0.0009506170000
-0.0009887630000
-0.0007970520000
-0.0013115100000
-0.0015909500000
-0.0016634900000
-0.0021736200000
-0.0021724800000
-0.0019541400000
-0.0022476900000
-0.0030003300000
-0.0037372700000
-0.0044073400000
-0.0040891300000
-0.0038100500000
-0.0037087900000
-0.0031459200000
-0.0029377400000
-0.0037243400000
-0.0044847300000
-0.0047988500000
-0.0049781400000
-0.0047511700000
-0.0040967500000
-0.0036782000000
-0.0038985600000
-0.0044570400000
-0.0043135800000
-0.0036326900000
-0.0027217000000
-0.0019566400000
-0.0017246100000
-0.0017918100000
-0.0013603300000
-0.0009142010000
-0.0010346100000
-0.0015087000000
-0.0017285700000
-0.0016202300000
-0.0015787800000
-0.0022398400000
-0.0032587100000
-0.0029134600000
-0.0023974400000
-0.0030165300000
-0.0035623900000
-0.0036072100000
-0.0033452800000
-0.0035242300000
-0.0038683600000
-0.0037123000000
-0.0028687700000
-0.0017224300000
-0.0014024900000
-0.0012672800000
-0.0014759600000
-0.0014265400000
-0.0002683250000
0.0009934280000
0.0014153300000
0.0013590400000
0.0014486300000
0.0014653400000
0.0011771600000
0.0003456230000
-0.0004637950000
-0.0005473700000
-0.0001481580000
0.0000428034000
0.0000128980000
-0.0007046860000
-0.0019554700000
-0.0026483600000
-0.0022987100000
-0.0021398100000
-0.0027241700000
-0.0030138800000
-0.0021213300000
-0.0007352020000
0.0006699980000
0.0020653400000
0.0021448800000
0.0007282720000
0.0002536260000
0.0018763000000
0.0030250200000
0.0021278400000
0.0010983500000
0.0011279000000
0.0017146600000
0.0026898100000
0.0045483200000
0.0055136100000
0.0032349100000
0.0005400870000
0.0020965800000
0.0050982800000
0.0042240300000
0.0015501000000
0.0014281000000
0.0038460900000
0.0063659100000
0.0062644600000
0.0057523600000
0.0073145700000
0.0087870900000
0.0084092900000
0.0089848400000
0.0108103000000
0.0106560000000
0.0091518600000
0.0087477700000
0.0085758300000
0.0085095300000
0.0086204600000
0.0077206200000
0.0064086800000
0.0058287300000
0.0064323700000
0.0079213800000
0.0089995900000
0.0085227300000
0.0064549800000
0.0047165200000
0.0047690700000
0.0051834500000
0.0049832900000
0.0043185800000
0.0037156600000
0.0038691200000
0.0041995400000
0.0032363500000
0.0018587200000
0.0015446200000
0.0012004200000
0.0003338150000
-0.0002658920000
-0.0007219330000
-0.0016230100000
-0.0021947900000
-0.0025864400000
-0.0030399800000
-0.0027594900000
-0.0026348700000
-0.0024884900000
-0.0019851800000
-0.0024966200000
-0.0041364300000
-0.0052937700000
-0.0044206200000
-0.0033701800000
-0.0037954300000
-0.0055682800000
-0.0066017200000
-0.0058944600000
-0.0047222000000
-0.0048488100000
-0.0059619500000
-0.0073159100000
-0.0082449900000
-0.0076804200000
-0.0067920200000
-0.0068956500000
-0.0066959400000
-0.0067323700000
-0.0071054000000
-0.0080620900000
-0.0081365200000
-0.0064885900000
-0.0033862600000
-0.0013518300000
-0.0022906300000
-0.0042899700000
-0.0049343900000
-0.0034793600000
-0.0004219340000
0.0000743189000
-0.0035703600000
-0.0066281200000
-0.0059165900000
-0.0039477200000
-0.0031331400000
-0.0028331400000
-0.0020247100000
-0.0000856593000
-0.0001492810000
-0.0036455100000
-0.0031956100000
0.0018247600000
0.0026783700000
-0.0007381240000
-0.0020482300000
0.0010009400000
0.0029854100000
0.0006268510000
-0.0007970500000
-0.0011058500000
0.0010744200000
0.0008107350000
-0.0013441000000
-0.0002940530000
0.0013653400000
-0.0011371300000
-0.0033608000000
-0.0017448100000
0.0001973040000
0.0000280747000
-0.0023917200000
-0.0042345500000
-0.0028396700000
-0.0013167300000
-0.0017819400000
-0.0021665600000
-0.0025141300000
-0.0029256900000
-0.0019496200000
-0.0016060900000
-0.0032059600000
-0.0043603700000
-0.0031663100000
-0.0011580100000
-0.0008076680000
-0.0019279500000
-0.0024485500000
-0.0028538900000
-0.0037127700000
-0.0033543500000
-0.0010851200000
0.0000678286000
-0.0005491880000
-0.0011433300000
-0.0013302700000
-0.0013815400000
-0.0019101900000
-0.0031074500000
-0.0032801100000
-0.0031247900000
-0.0035186600000
-0.0023959100000
0.0000345956000
0.0015211600000
0.0012084400000
0.0005439120000
0.0006067800000
0.0008421280000
0.0005783770000
-0.0003858910000
-0.0001919250000
0.0018364400000
0.0038577300000
0.0039784600000
0.0029444600000
0.0032594100000
0.0044021100000
0.0049840600000
0.0043432100000
0.0034185700000
0.0020530500000
0.0031490300000
0.0045626700000
0.0049272000000
0.0051372400000
0.0046624600000
0.0043262600000
0.0040605000000
0.0047840800000
0.0070781800000
0.0070034800000
0.0046420900000
0.0043885000000
0.0062369100000
0.0066333000000
0.0050186600000
0.0031799200000
0.0028332200000
0.0040258500000
0.0048247000000
0.0045488200000
0.0038415800000
0.0037546600000
0.0036442300000
0.0028088800000
0.0023687000000
0.0024905800000
0.0027671400000
0.0028691000000
0.0024178600000
0.0021109200000
0.0020515500000
0.0023968400000
0.0027675800000
0.0025532200000
0.0016045400000
0.0004643200000
0.0000115040000
0.0004467910000
0.0009147830000
-0.0006009020000
-0.0027769000000
-0.0027170200000
-0.0014599100000
-0.0013590500000
-0.0026996800000
-0.0031181700000
-0.0021835500000
-0.0017168900000
-0.0015006600000
-0.0009525420000
-0.0009618350000
-0.0010033300000
0.0001075890000
0.0006461470000
0.0000529904000
-0.0004251740000
-0.0004405770000
-0.0005786460000
-0.0017812200000
-0.0023974100000
-0.0023199500000
-0.0019220100000
-0.0034704300000
-0.0052115100000
-0.0049879500000
-0.0041797700000
-0.0037766800000
-0.0033791500000
-0.0035983300000
-0.0043083600000
-0.0037998900000
-0.0017793000000
-0.0012474700000
-0.0027695000000
-0.0035957700000
-0.0027716600000
-0.0010819400000
-0.0014672400000
-0.0036790000000
-0.0033348800000
-0.0018164900000
-0.0011945500000
-0.0011225100000
-0.0018204000000
-0.0016376500000
-0.0015831300000
-0.0024830300000
-0.0025790400000
-0.0024769800000
-0.0025178000000
-0.0023000500000
-0.0018851300000
-0.0020360900000
-0.0010269000000
0.0001546250000
0.0000254044000
-0.0000627830000
0.0001321140000
0.0001378490000
0.0003459260000
0.0005682560000
0.0005694150000
-0.0003656740000
-0.0016981400000
-0.0010710200000
0.0007580160000
0.0022933400000
0.0033284900000
0.0033262600000
0.0014145000000
-0.0008006780000
-0.0003743150000
0.0016775700000
0.0018500200000
0.0003881020000
-0.0001153200000
0.0006718270000
0.0005247720000
0.0005002280000
0.0028382100000
0.0039046300000
0.0032156100000
0.0000182331000
-0.0003144380000
0.0030689400000
0.0041284800000
0.0016624600000
0.0012589300000
0.0037959400000
0.0043306400000
0.0011855000000
-0.0014365800000
-0.0008261670000
0.0004470020000
0.0002284310000
0.0001396460000
0.0008095350000
0.0001914970000
-0.0024758200000
-0.0034874100000
-0.0021882800000
-0.0016242500000
-0.0010927600000
-0.0000719871000
0.0009602560000
0.0005464030000
-0.0011246400000
-0.0021007100000
-0.0020526800000
-0.0018035400000
-0.0014749700000
-0.0012263900000
-0.0028044000000
-0.0031840700000
-0.0011537700000
-0.0005628520000
-0.0017666500000
-0.0024901100000
-0.0009357550000
0.0007401340000
0.0000410070000
-0.0003084810000
0.0007258900000
0.0012774200000
0.0010473000000
0.0007039640000
0.0003174420000
-0.0003888880000
-0.0006719620000
-0.0005672920000
-0.0005056090000
0.0006127590000
0.0027733600000
0.0026486700000
-0.0010741500000
-0.0031107100000
-0.0010129400000
0.0007804870000
-0.0011153100000
-0.0040572900000
-0.0032695600000
-0.0020753600000
-0.0016699300000
-0.0026781400000
-0.0015491100000
0.0006535050000
0.0009362410000
-0.0013145000000
-0.0028736300000
-0.0016883300000
-0.0013016900000
-0.0019784600000
-0.0015361700000
-0.0004913630000
0.0005167440000
0.0008006560000
0.0008133450000
0.0017075400000
0.0025532400000
0.0018428600000
0.0016690300000
0.0032879300000
0.0035802400000
0.0033194700000
0.0044247300000
0.0059124300000
0.0048089200000
0.0015620700000
0.0001295860000
0.0007141980000
0.0009417570000
0.0004202030000
-0.0015882500000
-0.0028554100000
-0.0018521200000
0.0001895480000
-0.0000340827000
-0.0011869900000
-0.0002165310000
0.0014415300000
0.0017285700000
0.0008767370000
0.0005280050000
0.0013637500000
0.0022379400000
0.0017400600000
0.0014155700000
0.0033244100000
0.0057033100000
0.0059289000000
0.0046090200000
0.0029955700000
0.0020288500000
0.0017503800000
0.0009988330000
0.0010365300000
0.0023631700000
0.0030009700000
0.0022150700000
0.0015407000000
0.0016731200000
0.0023476000000
0.0028840000000
0.0038334800000
0.0039096900000
0.0043831200000
0.0058311100000
0.0061052800000
0.0042279600000
0.0031795700000
0.0038857400000
0.0033687900000
0.0018753400000
0.0029079400000
0.0046612900000
0.0042521400000
0.0020568400000
0.0007296080000
0.0021310300000
0.0035411400000
0.0024965400000
0.0008097820000
0.0008338400000
0.0020502300000
0.0019108600000
0.0010175500000
0.0012389200000
0.0014107800000
0.0010687000000
0.0003061650000
-0.0010572700000
-0.0033759300000
-0.0046085900000
-0.0057338400000
-0.0056804500000
-0.0063959700000
-0.0068887400000
-0.0059626700000
-0.0045735800000
-0.0052298100000
-0.0066194900000
-0.0050619200000
-0.0030292800000
-0.0033382700000
-0.0042140500000
-0.0045844400000
-0.0047033800000
-0.0053431700000
-0.0066158700000
-0.0067609000000
-0.0060170100000
-0.0056567600000
-0.0052415000000
-0.0047601600000
-0.0043065000000
-0.0026398900000
-0.0009743080000
-0.0012711000000
-0.0025401400000
-0.0029234800000
-0.0017798200000
-0.0009476180000
-0.0016968400000
-0.0022903100000
-0.0031720200000
-0.0045886900000
-0.0058431900000
-0.0051589000000
-0.0041583500000
-0.0040000300000
-0.0041592000000
-0.0038041500000
-0.0026332500000
-0.0016810800000
-0.0019912900000
-0.0022914900000
-0.0022097800000
-0.0032576200000
-0.0048145000000
-0.0045747400000
-0.0026286300000
-0.0010724300000
-0.0007728940000
-0.0011785500000
-0.0010851000000
-0.0009080290000
-0.0015952100000
-0.0014904700000
-0.0006692860000
-0.0005685260000
-0.0003887830000
-0.0003624240000
-0.0002758580000
0.0005499210000
0.0005227470000
-0.0005621540000
-0.0008611290000
0.0000458563000
0.0010292800000
0.0006378820000
0.0001400820000
-0.0000054671100
0.0004966290000
0.0016386000000
0.0015631300000
-0.0003829630000
-0.0019073700000
-0.0016730000000
-0.0006384270000
-0.0001383170000
-0.0005832870000
-0.0003967290000
0.0012172600000
0.0019400900000
0.0022279700000
0.0025271700000
0.0022182100000
0.0016649400000
0.0011074300000
0.0012995500000
0.0020884600000
0.0023177600000
0.0021080600000
0.0017047900000
0.0018951700000
0.0028541600000
0.0035645500000
0.0036171700000
0.0031892900000
0.0020433600000
0.0007663890000
0.0003967080000
0.0016505200000
0.0036214500000
0.0047685100000
0.0052490400000
0.0061976200000
0.0074787900000
0.0080654800000
0.0082617200000
0.0083441800000
0.0069911800000
0.0051616400000
0.0041217900000
0.0044380400000
0.0057760000000
0.0058074200000
0.0049670900000
0.0044149800000
0.0042927600000
0.0038487200000
0.0036197700000
0.0031884700000
0.0017351600000
0.0005871180000
0.0006000070000
0.0010701200000
0.0011504900000
0.0011982900000
0.0013252500000
0.0011953200000
0.0002600820000
-0.0003423570000
-0.0005594790000
-0.0012741500000
-0.0021988800000
-0.0027266300000
-0.0023783000000
-0.0018074700000
-0.0019065400000
-0.0031715600000
-0.0043104000000
-0.0044352500000
-0.0050105500000
-0.0060172100000
-0.0055059600000
-0.0042943000000
-0.0045056500000
-0.0064230900000
-0.0075051800000
-0.0066799100000
-0.0063082100000
-0.0071511900000
-0.0073155900000
-0.0058560500000
-0.0047611200000
-0.0053245900000
-0.0060105100000
-0.0061785900000
-0.0062724600000
-0.0058183700000
-0.0061007400000
-0.0071285100000
-0.0078039700000
-0.0070504400000
-0.0062333300000
-0.0065822400000
-0.0071479100000
-0.0071036600000
-0.0070251200000
-0.0069517400000
-0.0067922700000
-0.0066839300000
-0.0066467900000
-0.0062141400000
-0.0053503600000
-0.0049951400000
-0.0051291300000
-0.0050671900000
-0.0049372400000
-0.0046098500000
-0.0040015800000
-0.0039446400000
-0.0036961200000
-0.0031121400000
-0.0024431900000
-0.0018121700000
-0.0016351400000
-0.0016226300000
-0.0015793800000
-0.0018261400000
-0.0015853900000
-0.0001268940000
0.0004063750000
-0.0006793480000
-0.0011352800000
-0.0001384020000
0.0011478000000
0.0019083500000
0.0021888000000
0.0027179400000
0.0037063500000
0.0037009000000
0.0036702500000
0.0044270900000
0.0048569800000
0.0046366000000
0.0041422800000
0.0040560300000
0.0044200900000
0.0050824200000
0.0054308700000
0.0054216700000
0.0052352000000
0.0053625600000
0.0058645500000
0.0060072700000
0.0063331600000
0.0060660300000
0.0055988600000
0.0053637700000
0.0067411600000
0.0079781000000
0.0077334600000
0.0074650700000
0.0077810700000
0.0081714100000
0.0080395600000
0.0070185300000
0.0067732300000
0.0070345800000
0.0066527300000
0.0064984100000
0.0057532500000
0.0043101300000
0.0043435100000
0.0054798600000
0.0060705400000
0.0056836700000
0.0051786100000
0.0053972000000
0.0053659400000
0.0048253700000
0.0043155800000
0.0038657600000
0.0030074900000
0.0020446400000
0.0021156600000
0.0033721800000
0.0037333900000
0.0033191900000
0.0029409200000
0.0034286000000
0.0033966000000
0.0029936300000
0.0027725000000
0.0025534500000
0.0021709600000
0.0015867800000
0.0015868000000
0.0016973800000
0.0016896800000
0.0014952500000
0.0006234520000
0.0002410920000
0.0003130750000
-0.0002474660000
-0.0003924510000
-0.0004974930000
-0.0013095000000
-0.0021217500000
-0.0026400000000
-0.0028476200000
-0.0028439600000
-0.0024451300000
-0.0018327400000
-0.0017017000000
-0.0023187800000
-0.0027324800000
-0.0024856800000
-0.0023929200000
-0.0024671800000
-0.0031786200000
-0.0036095800000
-0.0031104600000
-0.0029055400000
-0.0031229500000
-0.0032453400000
-0.0034460700000
-0.0032798400000
-0.0028881300000
-0.0028891600000
-0.0028659100000
-0.0028967500000
-0.0030980800000
-0.0031887500000
-0.0034218000000
-0.0035744200000
-0.0038919700000
-0.0040887500000
-0.0035483600000
-0.0030187700000
-0.0026325100000
-0.0024732800000
-0.0027479800000
-0.0024269200000
-0.0019114000000
-0.0022953500000
-0.0024312600000
-0.0019625200000
-0.0017632200000
-0.0015748300000
-0.0019108000000
-0.0018381900000
-0.0016183600000
-0.0020470000000
-0.0022844800000
-0.0018976400000
-0.0016758500000
-0.0021453900000
-0.0024250300000
-0.0017735600000
-0.0015012200000
-0.0017774900000
-0.0013252600000
-0.0006435710000
-0.0006048710000
-0.0007477490000
-0.0009775020000
-0.0019190200000
-0.0025114500000
-0.0020204300000
-0.0016033200000
-0.0023060000000
-0.0039098100000
-0.0040662100000
-0.0025613200000
-0.0019843300000
-0.0027576900000
-0.0035734400000
-0.0037622000000
-0.0032796200000
-0.0021223400000
-0.0018279000000
-0.0016594300000
-0.0008060910000
-0.0000122034000
-0.0003518700000
-0.0007658860000
0.0000439719000
0.0006132590000
0.0005528200000
0.0009661730000
0.0019289800000
0.0021502800000
0.0011792600000
0.0009160390000
0.0016730900000
0.0017509700000
0.0017835600000
0.0020416400000
0.0019162800000
0.0020770000000
0.0023259400000
0.0018524600000
0.0011220700000
0.0008557080000
0.0009469720000
0.0005937490000
0.0004626690000
0.0011028100000
0.0018746400000
0.0032729400000
0.0025223400000
0.0015082600000
0.0031037600000
0.0063456000000
0.0085521800000
0.0080653200000
0.0063577200000
0.0055099700000
0.0042900900000
0.0020504300000
-0.0012546300000
-0.0035796400000
-0.0039477100000
-0.0031832900000
-0.0009418600000
-0.0006322460000
-0.0041100000000
-0.0066273700000
-0.0034979100000
0.0008670700000
0.0023331500000
0.0036828400000
0.0050523600000
0.0052659700000
0.0046405700000
0.0034217200000
-0.0003977690000
-0.0034908300000
-0.0032971200000
-0.0013366000000
-0.0018182300000
-0.0048470200000
-0.0057067900000
-0.0053281500000
-0.0050213700000
-0.0034733500000
-0.0003044250000
0.0015005300000
0.0016100700000
0.0033531200000
0.0062168700000
0.0056703700000
0.0008966360000
-0.0005177600000
0.0011883700000
-0.0005580870000
-0.0042187900000
-0.0055091000000
-0.0042131000000
-0.0008177750000
0.0032782000000
0.0054521600000
0.0033861500000
0.0005528560000
0.0028604300000
0.0046455200000
0.0006296920000
-0.0037409000000
-0.0036904500000
-0.0021441800000
0.0005260780000
0.0000712398000
-0.0011148800000
0.0000591137000
0.0004838310000
-0.0012512400000
-0.0016391300000
-0.0019006900000
-0.0019183900000
0.0002105460000
0.0006508300000
0.0007277580000
0.0036286200000
0.0040626600000
0.0013857900000
0.0011426400000
0.0010976500000
-0.0015094600000
-0.0034953600000
-0.0026868100000
-0.0020818100000
-0.0039855700000
-0.0046454200000
-0.0014880300000
0.0010078200000
-0.0003878680000
-0.0028700100000
-0.0028070300000
-0.0008020660000
-0.0006976220000
-0.0037613000000
-0.0071951600000
-0.0078113600000
-0.0068505200000
-0.0051184100000
-0.0042818000000
-0.0039506500000
-0.0027318900000
-0.0023670600000
-0.0016968200000
0.0004765270000
0.0009552370000
-0.0002961090000
-0.0032024800000
-0.0049525400000
-0.0030314500000
-0.0007584580000
0.0003127850000
0.0006537680000
-0.0010845600000
-0.0036583700000
-0.0039729600000
-0.0036082600000
-0.0023418800000
0.0004633210000
0.0014028400000
0.0007654940000
0.0008113740000
0.0008232730000
0.0007806670000
0.0003213790000
-0.0018136600000
-0.0029453500000
-0.0010924500000
0.0010882700000
0.0012930000000
-0.0000174573000
-0.0013819200000
-0.0005159700000
0.0013701300000
0.0006427630000
-0.0001794000000
0.0004135780000
0.0007241420000
0.0010899400000
0.0013080300000
0.0013332000000
0.0002628600000
-0.0022413800000
-0.0024863500000
0.0003822950000
0.0020244000000
0.0017218300000
0.0020724000000
0.0039155600000
0.0047940400000
0.0023689400000
-0.0000509216000
0.0001084580000
-0.0008587450000
-0.0041119500000
-0.0049088100000
-0.0022320100000
0.0014665900000
0.0004305610000
-0.0016312600000
-0.0000091882800
0.0034532800000
0.0060106100000
0.0074281500000
0.0081750800000
0.0071847400000
0.0050262500000
0.0032367000000
-0.0007452650000
-0.0043523500000
-0.0033009200000
-0.0013159600000
-0.0020043200000
-0.0020695400000
0.0005317010000
0.0007385820000
-0.0028580200000
-0.0041971800000
-0.0008569770000
0.0016902100000
0.0001497910000
-0.0011950100000
-0.0000718533000
0.0007804380000
-0.0005811260000
-0.0018917800000
-0.0037642400000
-0.0021166400000
0.0023906000000
0.0054180300000
0.0052294500000
0.0035329200000
0.0026174100000
0.0029636000000
0.0042961400000
0.0065330600000
0.0051852000000
-0.0007030740000
-0.0037132600000
0.0004489690000
0.0043900400000
0.0004021270000
-0.0061782600000
-0.0055379200000
-0.0005075150000
-0.0007129330000
-0.0019404100000
0.0022195800000
0.0036118000000
-0.0002976920000
-0.0021707000000
-0.0004229390000
-0.0000137259000
-0.0029328200000
-0.0031858800000
-0.0007817350000
0.0037719000000
0.0022131200000
0.0019752400000
0.0053969500000
0.0048364100000
0.0029306000000
0.0046277900000
0.0057649700000
0.0032201500000
0.0012323300000
0.0008444120000
-0.0001426070000
-0.0026778300000
-0.0036044500000
-0.0012037600000
-0.0011282000000
-0.0028969500000
-0.0013735400000
0.0009362660000
-0.0003015860000
-0.0006466830000
0.0022130900000
0.0034007800000
0.0006894590000
-0.0009382810000
0.0013122500000
0.0033351400000
0.0029239800000
0.0014386800000
0.0001632710000
-0.0005159190000
-0.0014225200000
-0.0000451761000
0.0025034100000
0.0024267300000
0.0003813810000
0.0003143790000
0.0014125900000
0.0008928140000
0.0012751200000
0.0050608100000
0.0079905100000
0.0067003100000
0.0043336600000
0.0035836200000
0.0039857500000
0.0047848800000
0.0058074500000
0.0055190000000
0.0035311900000
0.0016076100000
0.0019842400000
0.0030228900000
0.0022850200000
0.0007377620000
0.0006550110000
0.0021380200000
0.0038032000000
0.0053236600000
0.0057731300000
0.0055373200000
0.0054968300000
0.0050900000000
0.0030815400000
0.0021983700000
0.0022796200000
0.0023215100000
0.0032812900000
0.0033616800000
0.0035745700000
0.0051341900000
0.0049470200000
0.0039759800000
0.0036910800000
0.0013624900000
-0.0011516900000
-0.0022712700000
-0.0045633300000
-0.0063063800000
-0.0049135300000
-0.0031952300000
-0.0020245900000
-0.0013915100000
-0.0000960422000
0.0021306200000
0.0034596000000
0.0040260800000
0.0033933100000
-0.0001178310000
-0.0040857700000
-0.0065205500000
-0.0072476500000
-0.0083266200000
-0.0084407100000
-0.0075988400000
-0.0057417500000
-0.0031918300000
-0.0006296060000
0.0016938100000
0.0023334700000
0.0025867300000
0.0031729200000
0.0017712400000
-0.0001361660000
-0.0009470710000
-0.0024313400000
-0.0055192800000
-0.0076707700000
-0.0073399000000
-0.0065111300000
-0.0069886400000
-0.0070362100000
-0.0055357600000
-0.0029048700000
-0.0009389670000
-0.0002914790000
0.0000823209000
0.0006708810000
0.0016584000000
0.0008482250000
-0.0011581300000
-0.0018000700000
-0.0019517400000
-0.0027739800000
-0.0032201300000
-0.0039808600000
-0.0044974600000
-0.0045691500000
-0.0049823700000
-0.0040876800000
-0.0021853100000
-0.0006799240000
0.0002884390000
0.0011872900000
0.0011784200000
0.0001442450000
0.0008707220000
0.0027341200000
0.0033865300000
0.0038796800000
0.0037379300000
0.0028507400000
0.0009066400000
-0.0024112600000
-0.0038024400000
-0.0037080000000
-0.0047216500000
-0.0049050700000
-0.0039013100000
-0.0021718400000
0.0001868540000
0.0012228400000
0.0007748380000
0.0002616980000
0.0003538150000
0.0009342980000
0.0016217600000
0.0016649100000
0.0006984510000
-0.0012276800000
-0.0024082900000
-0.0021046900000
-0.0009749300000
-0.0002916700000
-0.0009584330000
-0.0018782100000
-0.0006252390000
0.0014814900000
0.0018761800000
0.0013681300000
0.0007348500000
0.0013969500000
0.0017320400000
-0.0001773580000
-0.0011962400000
0.0006409320000
0.0020995100000
0.0003753580000
-0.0014586100000
-0.0008267990000
0.0003081200000
0.0008865810000
0.0018918200000
0.0030009100000
0.0033108600000
0.0031058400000
0.0022388400000
0.0022729200000
0.0024440900000
0.0017482200000
0.0013339600000
0.0019787100000
0.0034778300000
0.0048294700000
0.0057745200000
0.0062244400000
0.0051767700000
0.0038030400000
0.0037239600000
0.0041920600000
0.0030520100000
0.0009058380000
0.0001530550000
-0.0005666130000
-0.0025925800000
-0.0031751100000
-0.0010557700000
0.0004930190000
0.0002622890000
0.0009614520000
0.0024868800000
0.0025834200000
0.0012549500000
-0.0008941470000
-0.0019268200000
-0.0029335600000
-0.0022991500000
0.0000172973000
0.0000496174000
-0.0037742600000
-0.0031161300000
0.0003167900000
-0.0001433840000
-0.0011264900000
-0.0028127600000
-0.0044833800000
-0.0027499600000
-0.0017383000000
-0.0021917800000
-0.0016865800000
-0.0025132200000
-0.0020961800000
0.0001153910000
-0.0007704650000
-0.0018127500000
0.0015140700000
0.0032252100000
0.0014276000000
0.0007384880000
0.0011994100000
0.0013999400000
0.0011698700000
0.0005881690000
0.0011609000000
0.0020747000000
0.0016764100000
0.0001499590000
0.0000145565000
-0.0005755230000
-0.0014576100000
-0.0006075420000
0.0000983802000
-0.0008224160000
-0.0011547800000
0.0004367630000
0.0005495390000
0.0003387950000
0.0011558000000
0.0015571600000
0.0017345500000
0.0009580030000
-0.0005164610000
0.0000088195200
0.0020324200000
0.0019705600000
-0.0001805220000
-0.0003311910000
0.0008117090000
0.0001023240000
-0.0018546500000
-0.0018967200000
-0.0002061080000
0.0005330220000
0.0015351100000
0.0023090500000
0.0020359700000
0.0008828260000
-0.0002194880000
-0.0004746040000
0.0006932400000
0.0003271950000
0.0000767755000
0.0010005700000
0.0002256780000
-0.0008127800000
-0.0009165750000
-0.0005331140000
-0.0003692620000
-0.0005742650000
0.0001016540000
0.0001249040000
-0.0009668790000
-0.0013473700000
-0.0008394300000
-0.0001183940000
-0.0013674200000
-0.0025597000000
-0.0018799600000
-0.0011208900000
-0.0009253570000
-0.0005727980000
0.0000699583000
-0.0003652130000
-0.0010905000000
-0.0007919650000
-0.0006564060000
-0.0009121770000
-0.0011263300000
0.0002281410000
0.0014650800000
0.0013444800000
0.0005065940000
0.0006377650000
0.0018328400000
0.0024934100000
0.0023588700000
0.0029231900000
0.0037865900000
0.0038469100000
0.0027806700000
0.0007499190000
-0.0009417580000
-0.0006341340000
0.0009981210000
0.0008381520000
-0.0005344490000
0.0003903200000
0.0024022800000
0.0016413900000
-0.0007976850000
-0.0018780500000
-0.0015221300000
-0.0015789000000
-0.0025625800000
-0.0022624400000
-0.0007200140000
-0.0004455060000
-0.0008542900000
-0.0010951900000
-0.0006158450000
0.0008314910000
0.0014966100000
0.0000923630000
-0.0009242850000
-0.0001089100000
0.0007521180000
-0.0007738270000
-0.0024998600000
-0.0014992500000
0.0004091730000
-0.0002332200000
-0.0023997400000
-0.0030708500000
-0.0018268000000
-0.0007903820000
-0.0016002100000
-0.0024578900000
-0.0018894900000
-0.0011824400000
-0.0008178280000
-0.0008509030000
-0.0012205400000
-0.0007334370000
-0.0001456450000
-0.0023520400000
-0.0047243900000
-0.0046622600000
-0.0027693000000
-0.0015362400000
-0.0014035100000
-0.0007752350000
-0.0001626400000
0.0004506870000
0.0005101430000
0.0002420030000
-0.0006396450000
-0.0009720280000
0.0004515560000
0.0019992700000
0.0018806100000
0.0001476940000
-0.0006321040000
0.0005837890000
0.0014358900000
0.0015320100000
0.0012255100000
0.0001469560000
-0.0004067920000
0.0002703380000
-0.0002716720000
-0.0018423800000
-0.0012523700000
0.0010800800000
0.0014796900000
0.0007306660000
0.0012506600000
0.0016539300000
0.0012687500000
0.0000044227700
0.0009251360000
0.0015837200000
0.0001736300000
-0.0006239030000
-0.0003319700000
-0.0011999800000
-0.0024391000000
-0.0020437900000
-0.0013843400000
-0.0015720700000
-0.0011889600000
-0.0003572200000
-0.0000480232000
-0.0009190650000
-0.0019895400000
-0.0021193900000
-0.0022105400000
-0.0014061700000
-0.0005662870000
-0.0012050000000
-0.0001183790000
0.0018007100000
0.0015107500000
0.0003745230000
0.0005696980000
0.0014436200000
0.0022043600000
0.0011581100000
0.0004859320000
0.0002499660000
0.0006882580000
0.0008977750000
0.0005218520000
-0.0008560810000
-0.0009005590000
0.0005575360000
0.0011621600000
-0.0001233190000
-0.0013134700000
-0.0003777270000
0.0004647680000
-0.0001846060000
-0.0016344400000
-0.0017290100000
0.0002961100000
0.0010803600000
-0.0008050710000
-0.0025991700000
-0.0018223400000
0.0007986970000
0.0017590700000
-0.0006831850000
-0.0026051000000
-0.0016570200000
-0.0000949532000
-0.0004443090000
-0.0019268300000
-0.0016732400000
-0.0008634080000
-0.0009081010000
-0.0009987280000
-0.0007064320000
-0.0020778200000
-0.0036826900000
-0.0027957500000
-0.0013382400000
-0.0013308500000
-0.0021036700000
-0.0021299700000
-0.0016759000000
-0.0019414500000
-0.0027278700000
-0.0023917400000
-0.0012005600000
-0.0012728600000
-0.0013935800000
-0.0009100000000
-0.0004505470000
0.0001971060000
0.0001050130000
-0.0008219740000
-0.0007366300000
0.0006356390000
0.0012902200000
0.0010464600000
0.0009193290000
0.0006518490000
0.0001653100000
-0.0004532230000
-0.0007518880000
-0.0008496090000
-0.0003151280000
0.0000439975000
0.0007689610000
0.0009568850000
-0.0000673699000
0.0003434140000
0.0015071700000
0.0013916100000
0.0010652900000
0.0015746000000
0.0027166400000
0.0029845900000
0.0023721600000
0.0027701900000
0.0033906500000
0.0026236600000
0.0021155600000
0.0026975500000
0.0035271000000
0.0036546900000
0.0035169000000
0.0033062700000
0.0026382500000
0.0026597800000
0.0032888100000
0.0035530400000
0.0025561500000
0.0017603100000
0.0027668200000
0.0031982100000
0.0028043300000
0.0016379000000
0.0003437710000
-0.0004964100000
-0.0001600840000
0.0004050660000
0.0001207250000
0.0004595430000
0.0014389600000
0.0011681300000
-0.0001366930000
-0.0004265280000
0.0009174910000
0.0019247800000
0.0011657000000
0.0003998380000
0.0003243420000
0.0004571520000
0.0002505410000
0.0000671217000
0.0001676170000
0.0005693690000
0.0010128900000
0.0009370430000
0.0007254850000
0.0011570600000
0.0015941600000
0.0007824680000
0.0001672730000
0.0003774260000
0.0004478460000
0.0001870200000
-0.0004245440000
-0.0009433910000
-0.0010411600000
-0.0011235900000
-0.0009017370000
-0.0003826420000
0.0000611364000
0.0001986610000
-0.0006160130000
-0.0012568300000
-0.0002498440000
0.0007009550000
0.0004739400000
0.0004387700000
0.0009554610000
0.0013529100000
0.0015765100000
0.0010456700000
0.0005910260000
0.0013732500000
0.0019273000000
0.0011982200000
0.0007505910000
0.0009722070000
0.0010393600000
0.0006511470000
0.0003359430000
0.0004512820000
0.0015031800000
0.0019782500000
0.0017707400000
0.0008877150000
0.0008680680000
0.0010804400000
0.0012565700000
0.0009652020000
0.0004878550000
0.0012254300000
0.0019504200000
0.0012566200000
0.0005693910000
0.0009455560000
0.0017287000000
0.0014937600000
0.0007729480000
0.0011104200000
0.0016901200000
0.0015637900000
0.0012281300000
0.0005455360000
0.0003933830000
0.0000556091000
-0.0006855710000
-0.0006879120000
-0.0007140590000
-0.0008317970000
-0.0005788450000
-0.0002298540000
-0.0004214650000
-0.0006227140000
-0.0005328860000
0.0003234370000
0.0006881550000
0.0004324460000
0.0003075570000
0.0004077940000
0.0005367560000
0.0002593470000
-0.0004897400000
-0.0008125390000
-0.0005912620000
-0.0004220770000
-0.0004514820000
-0.0007184640000
-0.0011459500000
-0.0008870670000
-0.0004904320000
-0.0006515660000
-0.0007588240000
-0.0008564640000
-0.0011238100000
-0.0010218200000
-0.0008380350000
-0.0011057700000
-0.0011140300000
-0.0012670200000
-0.0014509200000
-0.0015082700000
-0.0019765000000
-0.0020259700000
-0.0017715500000
-0.0017575200000
-0.0023469300000
-0.0024631000000
-0.0023219500000
-0.0023177300000
-0.0017841500000
-0.0012500700000
-0.0012715300000
-0.0010439600000
-0.0008763790000
-0.0011671600000
-0.0010360600000
-0.0009164350000
-0.0010480300000
-0.0007703560000
-0.0005221500000
-0.0009689060000
-0.0014966900000
-0.0012646500000
-0.0003307630000
-0.0002155070000
-0.0011264800000
-0.0013183200000
-0.0010511600000
-0.0011813600000
-0.0009221250000
-0.0004235090000
-0.0006888240000
-0.0009494560000
-0.0008578660000
-0.0002820160000
0.0005034530000
0.0007585680000
0.0003927020000
0.0001660080000
-0.0002526740000
-0.0003227670000
0.0001418780000
0.0001272600000
0.0000217296000
0.0000437000000
-0.0001876480000
-0.0001059660000
0.0003252280000
0.0001447760000
0.0001279910000
0.0008065420000
0.0009215600000
0.0004757910000
0.0005185700000
0.0002400170000
-0.0002298500000
0.0000248054000
0.0002747140000
0.0005797070000
0.0005107620000
0.0000582154000
0.0004160710000
0.0008674410000
0.0006108590000
0.0004718770000
0.0005357880000
0.0005299780000
0.0004883540000
0.0006181150000
0.0002390820000
-0.0000318987000
-0.0000123872000
-0.0001143230000
0.0000037984700
0.0002990270000
0.0006042660000
0.0004603930000
0.0001254040000
0.0004384210000
0.0006037350000
0.0001671780000
-0.0000774143000
0.0000902946000
0.0003240190000
0.0001584590000
-0.0000344856000
-0.0000660422000
-0.0002437330000
-0.0003720580000
-0.0002674470000
-0.0002851380000
-0.0004583700000
-0.0003360150000
-0.0001339170000
-0.0001773340000
-0.0004112110000
-0.0003679080000
-0.0003159970000
-0.0003786130000
-0.0004951940000
-0.0006426330000
-0.0003229850000
0.0000785014000
-0.0000742140000
-0.0002610260000
-0.0002479260000
-0.0002463090000
-0.0000624012000
0.0000167191000
-0.0002268790000
-0.0002467050000
-0.0001479940000
-0.0002324070000
-0.0002375300000
-0.0001638810000
-0.0001625300000
-0.0000652246000
-0.0000162362000
-0.0000866271000
-0.0000389582000
-0.0000597204000
-0.0001260250000
-0.0000240399000
0.0001033120000
0.0001706930000
0.0001803900000
0.0001259800000
0.0000684897000
0.0001430290000
0.0002107850000
0.0001174110000
0.0000086077700
0.0000577658000
0.0001618760000
0.0001937470000
0.0002251670000
0.0001858270000
0.0001973430000
0.0002409180000
0.0001767090000
0.0001147510000
0.0000229712000
0.0000014718500
0.0001337300000
0.0002572900000
0.0002967670000
0.0002448850000
0.0000970671000
-0.0000075472500
-0.0000318482000
-0.0000474083000
-0.0000662375000
-0.0000466858000
-0.0000146882000
-0.0000797840000
-0.0001173220000
-0.0001169730000
-0.0000530581000
-0.0000201396000
-0.0000295202000
-0.0000441716000
-0.0000735142000
-0.0001967030000
-0.0002801440000
-0.0002507170000
-0.0001831510000
-0.0000959584000
-0.0000787899000
-0.0001356030000
-0.0001710450000
-0.0001367270000
-0.0000781025000
-0.0000549205000
-0.0000431648000
-0.0000379173000
-0.0000594945000
-0.0000894851000
-0.0000997380000
-0.0001470400000
-0.0002035940000
-0.0001710400000
-0.0000722833000
-0.0000080202900
-0.0000056924100
-0.0000173032000
-0.0000382129000
-0.0000433131000
-0.0000429688000
-0.0000522287000
-0.0000524995000
-0.0000486851000
-0.0000821921000
-0.0001086510000
-0.0000757257000
-0.0000672637000
-0.0000933209000
-0.0000841524000
-0.0000682096000
-0.0000660806000
-0.0000619666000
-0.0000539283000
-0.0000675161000
-0.0000983357000
-0.0001053230000
-0.0000605009000
-0.0000322588000
-0.0000461366000
-0.0000547536000
-0.0000564965000
-0.0000508045000
-0.0000406569000
-0.0000492046000
-0.0000611276000
-0.0000594933000
-0.0000481979000
-0.0000403779000
-0.0000382820000
-0.0000399670000
-0.0000469048000
-0.0000515656000
-0.0000501389000
-0.0000533859000
-0.0000466573000
-0.0000352541000
-0.0000346012000
-0.0000425526000
-0.0000521144000
-0.0000488133000
-0.0000431857000
-0.0000468614000
-0.0000473064000
-0.0000423705000
-0.0000432021000
-0.0000466471000
-0.0000443717000
-0.0000395175000
-0.0000371252000
-0.0000371515000
-0.0000363440000
-0.0000378052000
-0.0000406291000
-0.0000397275000
-0.0000382529000
-0.0000389942000
-0.0000377797000
-0.0000360071000
-0.0000366520000
-0.0000375249000
-0.0000380599000
-0.0000391335000
-0.0000401775000
-0.0000405124000
-0.0000394889000
-0.0000378810000
-0.0000372807000
-0.0000373206000
-0.0000366402000
-0.0000353914000
-0.0000353472000
-0.0000360408000
-0.0000361044000
-0.0000354494000
-0.0000348009000
-0.0000343307000
-0.0000337244000
-0.0000329002000
-0.0000321212000
-0.0000316489000
-0.0000312063000
-0.0000305921000
-0.0000299249000
-0.0000292371000
-0.0000285522000
-0.0000277658000
-0.0000269329000
-0.0000261250000
-0.0000252917000
-0.0000244600000
-0.0000236630000
-0.0000228622000
-0.0000220442000
-0.0000212345000
-0.0000204194000
-0.0000195944000
-0.0000187663000
-0.0000179309000
-0.0000170859000
-0.0000162392000
-0.0000153929000
-0.0000145453000
-0.0000136962000
-0.0000128457000
-0.0000119941000
-0.0000111411000
-0.0000102871000
-0.0000094322000
-0.0000085764400
-0.0000077197200
-0.0000068621000
