0.0000002338330
0.0000002990330
0.0000005158350
0.0000006677850
0.0000004908470
-0.0000003778320
-0.0000012727100
-0.0000011008500
-0.0000016385100
-0.0000044791400
-0.0000062820600
-0.0000063095300
-0.0000035456300
-0.0000019169200
-0.0000059701600
-0.0000072458600
-0.0000029874500
0.0000023049200
0.0000127802000
0.0000190515000
0.0000054200300
-0.0000120223000
-0.0000179901000
-0.0000142199000
-0.0000134185000
-0.0000098898300
0.0000073983200
0.0000203754000
0.0000114911000
-0.0000142205000
-0.0000394960000
-0.0000289784000
-0.0000093365700
0.0000007050550
-0.0000211761000
-0.0000870715000
-0.0001437400000
-0.0000847692000
0.0000109302000
0.0000349863000
0.0000310570000
0.0000360020000
0.0000437541000
0.0000957002000
0.0000953343000
-0.0000368045000
-0.0001553390000
-0.0001680650000
-0.0000836827000
-0.0000222617000
-0.0000746437000
-0.0000998216000
-0.0000419528000
0.0000096568100
-0.0000185692000
-0.0001050270000
-0.0000855611000
-0.0000250206000
0.0000572085000
0.0001273500000
-0.0000265135000
-0.0002353010000
-0.0001320640000
0.0000582358000
-0.0000537645000
-0.0001214750000
0.0000357457000
0.0000961441000
-0.0000440299000
-0.0001281650000
-0.0000582244000
-0.0000279536000
-0.0001579740000
-0.0002345820000
-0.0002791630000
-0.0003753330000
-0.0003703680000
-0.0001472030000
-0.0000966851000
-0.0001373520000
0.0001746880000
0.0003779830000
0.0000548039000
-0.0001170280000
-0.0000217306000
-0.0002079420000
-0.0001769890000
0.0001138030000
0.0002627440000
0.0001247410000
-0.0002007660000
-0.0004369710000
-0.0003592750000
-0.0002989850000
-0.0003036400000
-0.0001942620000
-0.0001070910000
-0.0000656954000
0.0001072320000
0.0004483740000
0.0003548350000
-0.0001041860000
-0.0003800750000
-0.0000269453000
0.0002913760000
-0.0000360473000
-0.0004566770000
-0.0001124730000
0.0002477890000
0.0000214726000
0.0001432870000
0.0003789460000
0.0002604820000
0.0001424310000
0.0000968989000
0.0000826725000
0.0000854725000
-0.0001690730000
-0.0000780652000
0.0003623710000
0.0000393684000
-0.0007091610000
-0.0006580530000
-0.0002559340000
-0.0006948470000
-0.0013220800000
-0.0012946100000
-0.0005368750000
0.0001749210000
0.0003346770000
0.0003716560000
0.0003624280000
-0.0000564341000
-0.0000850050000
0.0001938140000
-0.0001726120000
-0.0004313470000
-0.0004191160000
-0.0003290120000
-0.0005284250000
-0.0008017860000
-0.0004752800000
0.0001204000000
0.0002140880000
-0.0003089230000
-0.0003809060000
0.0002392430000
0.0007263000000
0.0012480600000
0.0015628900000
0.0006546530000
-0.0006420830000
-0.0004853840000
0.0003757990000
0.0001821270000
-0.0005337410000
-0.0010997700000
-0.0009102350000
0.0001117320000
0.0008585090000
0.0006999520000
0.0004393090000
0.0003907060000
-0.0002450050000
-0.0010471900000
-0.0011156600000
-0.0008996430000
-0.0008347130000
-0.0004080850000
0.0000201626000
-0.0000721238000
0.0001601000000
0.0004062360000
0.0003222760000
-0.0001919320000
-0.0005114570000
-0.0006378390000
-0.0005730610000
-0.0001233450000
0.0003614370000
0.0007501540000
0.0007999350000
0.0004155150000
0.0005010860000
0.0005436800000
-0.0003287780000
-0.0010511800000
-0.0004293200000
0.0001185800000
-0.0002495750000
-0.0003155940000
-0.0002638690000
0.0000702945000
0.0012468900000
0.0017442900000
0.0001830480000
-0.0010933500000
-0.0004820560000
-0.0001232270000
-0.0010509100000
-0.0015383900000
-0.0007510590000
-0.0000827017000
0.0005479250000
0.0013410800000
0.0008081910000
-0.0001144540000
-0.0002785430000
-0.0002840830000
-0.0003751190000
-0.0006464340000
-0.0003678290000
-0.0000330829000
0.0003322850000
0.0005113810000
0.0002673800000
0.0002667240000
0.0001207670000
-0.0005742100000
-0.0009948960000
-0.0005456100000
-0.0001728370000
0.0000938148000
0.0007071650000
0.0011424000000
0.0009636600000
0.0007012580000
0.0006425500000
0.0006754360000
0.0002380790000
-0.0008153050000
-0.0018229900000
-0.0020120000000
-0.0020123800000
-0.0015380200000
-0.0002298700000
0.0006141060000
0.0003585140000
0.0005066850000
0.0009480510000
0.0008375870000
0.0006551680000
0.0010284200000
0.0011621800000
0.0005531310000
-0.0002770070000
-0.0004982750000
-0.0005801320000
-0.0002678430000
0.0003717110000
0.0009197690000
0.0016167800000
0.0019093900000
0.0014812700000
0.0003298470000
-0.0004180870000
-0.0007001740000
-0.0014235000000
-0.0027532700000
-0.0034232500000
-0.0027960100000
-0.0022468800000
-0.0025162800000
-0.0017615400000
-0.0009241970000
-0.0007580570000
0.0003143930000
0.0022049100000
0.0029285800000
0.0024158200000
0.0025998000000
0.0029471800000
0.0030275200000
0.0035837100000
0.0030536600000
-0.0001941920000
-0.0033188000000
-0.0042266800000
-0.0046064900000
-0.0044363400000
-0.0031259900000
-0.0011286400000
0.0006570980000
0.0015576500000
0.0011836500000
-0.0002308030000
-0.0016604200000
-0.0028033700000
-0.0028713400000
-0.0026045900000
-0.0037401600000
-0.0053659100000
-0.0053391900000
-0.0039011400000
-0.0024325000000
-0.0014677300000
-0.0019266000000
-0.0027940800000
-0.0018969100000
0.0001049810000
0.0016079900000
0.0032759800000
0.0057044300000
0.0066632300000
0.0042727900000
-0.0005723560000
-0.0046927300000
-0.0061220400000
-0.0046265200000
-0.0013264000000
0.0009304270000
0.0003342000000
-0.0023934600000
-0.0040377000000
-0.0041561300000
-0.0049381600000
-0.0054953900000
-0.0046275000000
-0.0031891000000
-0.0022881400000
-0.0019966400000
-0.0019076400000
-0.0018366100000
-0.0004971030000
0.0027704400000
0.0061744900000
0.0054915600000
0.0017703000000
-0.0003013370000
0.0005618120000
0.0025222800000
0.0037942000000
0.0031989000000
0.0006383910000
-0.0019546800000
-0.0028540100000
-0.0027315400000
-0.0021892000000
-0.0004096430000
0.0018554400000
0.0030220000000
0.0007323880000
-0.0041711400000
-0.0080778200000
-0.0083816100000
-0.0066953800000
-0.0055606500000
-0.0047999500000
-0.0037791500000
-0.0015706200000
0.0027422100000
0.0081090800000
0.0114498000000
0.0101771000000
0.0072258600000
0.0059723100000
0.0051365000000
0.0041600400000
0.0034912800000
0.0034314400000
0.0034526900000
0.0017985500000
-0.0016709500000
-0.0039445800000
-0.0045809200000
-0.0054882900000
-0.0058727000000
-0.0028546900000
0.0029342200000
0.0085998600000
0.0116741000000
0.0113778000000
0.0086889800000
0.0036624700000
-0.0025830000000
-0.0066630300000
-0.0074519100000
-0.0062946300000
-0.0041222700000
-0.0027490000000
-0.0025013300000
-0.0007972060000
0.0056774800000
0.0163597000000
0.0264568000000
0.0299329000000
0.0241657000000
0.0113848000000
-0.0024721400000
-0.0120576000000
-0.0163872000000
-0.0156305000000
-0.0107991000000
-0.0059143800000
-0.0029005900000
-0.0005989630000
0.0025793800000
0.0055993400000
0.0078825800000
0.0086916500000
0.0062537400000
0.0010507000000
-0.0037423100000
-0.0060401200000
-0.0063406700000
-0.0057667100000
-0.0039150700000
-0.0014283300000
0.0011380100000
0.0045721400000
0.0098915600000
0.0171632000000
0.0239038000000
0.0268712000000
0.0226531000000
0.0112160000000
-0.0017145100000
-0.0105449000000
-0.0170880000000
-0.0227006000000
-0.0236440000000
-0.0178561000000
-0.0089384700000
-0.0013610400000
0.0020322400000
0.0022141100000
0.0026330800000
0.0051060900000
0.0107342000000
0.0166155000000
0.0181411000000
0.0157584000000
0.0140227000000
0.0141120000000
0.0159793000000
0.0184154000000
0.0179215000000
0.0110747000000
-0.0016152700000
-0.0164017000000
-0.0285593000000
-0.0339179000000
-0.0313001000000
-0.0223985000000
-0.0088823400000
0.0087591900000
0.0277192000000
0.0431078000000
0.0513115000000
0.0536770000000
0.0523239000000
0.0470256000000
0.0367889000000
0.0215459000000
0.0039757700000
-0.0127925000000
-0.0290568000000
-0.0441741000000
-0.0560145000000
-0.0626296000000
-0.0621997000000
-0.0542106000000
-0.0409191000000
-0.0271339000000
-0.0178065000000
-0.0129089000000
-0.0075318000000
0.0044196700000
0.0240432000000
0.0468674000000
0.0686537000000
0.0876192000000
0.1022840000000
0.1091540000000
0.1059840000000
0.0943951000000
0.0780490000000
0.0612136000000
0.0484637000000
0.0406438000000
0.0355515000000
0.0347965000000
0.0424312000000
0.0543834000000
0.0588819000000
0.0473382000000
0.0230184000000
-0.0024290800000
-0.0191670000000
-0.0247259000000
-0.0227066000000
-0.0185862000000
-0.0171935000000
-0.0220172000000
-0.0294637000000
-0.0318178000000
-0.0236539000000
-0.0036696200000
0.0219759000000
0.0410289000000
0.0471589000000
0.0436996000000
0.0373952000000
0.0296446000000
0.0156295000000
-0.0091603100000
-0.0442424000000
-0.0824330000000
-0.1120670000000
-0.1224450000000
-0.1106030000000
-0.0845060000000
-0.0598360000000
-0.0491451000000
-0.0526005000000
-0.0616968000000
-0.0673582000000
-0.0648368000000
-0.0578216000000
-0.0539063000000
-0.0521161000000
-0.0431492000000
-0.0227043000000
0.0046551000000
0.0281938000000
0.0410304000000
0.0448497000000
0.0443296000000
0.0426049000000
0.0423037000000
0.0443936000000
0.0460228000000
0.0405047000000
0.0231196000000
-0.0030869900000
-0.0276299000000
-0.0418582000000
-0.0481382000000
-0.0550353000000
-0.0655982000000
-0.0739051000000
-0.0715359000000
-0.0541842000000
-0.0260157000000
0.0024567300000
0.0231045000000
0.0324623000000
0.0284364000000
0.0095907000000
-0.0196323000000
-0.0509378000000
-0.0766552000000
-0.0893820000000
-0.0859230000000
-0.0704113000000
-0.0520141000000
-0.0379824000000
-0.0305754000000
-0.0262771000000
-0.0202569000000
-0.0132553000000
-0.0113520000000
-0.0180441000000
-0.0308593000000
-0.0448360000000
-0.0569862000000
-0.0691753000000
-0.0831729000000
-0.0946153000000
-0.0966145000000
-0.0859432000000
-0.0679843000000
-0.0532030000000
-0.0464053000000
-0.0459614000000
-0.0491176000000
-0.0533053000000
-0.0546009000000
-0.0490898000000
-0.0350015000000
-0.0156203000000
0.0016834400000
0.0087407600000
0.0028546500000
-0.0160694000000
-0.0467187000000
-0.0823813000000
-0.1156230000000
-0.1417030000000
-0.1553400000000
-0.1518450000000
-0.1309110000000
-0.0954160000000
-0.0504378000000
-0.0020093700000
0.0467028000000
0.0925061000000
0.1311710000000
0.1620940000000
0.1843100000000
0.1956860000000
0.1981730000000
0.1945890000000
0.1844680000000
0.1704910000000
0.1604320000000
0.1590960000000
0.1651590000000
0.1713760000000
0.1639080000000
0.1311610000000
0.0764793000000
0.0152916000000
-0.0379069000000
-0.0751472000000
-0.0938345000000
-0.0951179000000
-0.0842010000000
-0.0682436000000
-0.0556236000000
-0.0500906000000
-0.0469305000000
-0.0394878000000
-0.0263826000000
-0.0073433500000
0.0165498000000
0.0416116000000
0.0635745000000
0.0802610000000
0.0933242000000
0.1055090000000
0.1185190000000
0.1303130000000
0.1357650000000
0.1295120000000
0.1107670000000
0.0876127000000
0.0691056000000
0.0576364000000
0.0522423000000
0.0495003000000
0.0430403000000
0.0280514000000
0.0048797100000
-0.0238006000000
-0.0521256000000
-0.0711813000000
-0.0768186000000
-0.0705013000000
-0.0559816000000
-0.0385965000000
-0.0215785000000
-0.0039641200000
0.0165187000000
0.0416858000000
0.0685104000000
0.0890740000000
0.0974453000000
0.0893393000000
0.0618230000000
0.0207143000000
-0.0199483000000
-0.0480253000000
-0.0596463000000
-0.0573885000000
-0.0469841000000
-0.0329687000000
-0.0148682000000
0.0070837400000
0.0277769000000
0.0439792000000
0.0574577000000
0.0724121000000
0.0927600000000
0.1172050000000
0.1376890000000
0.1471550000000
0.1466460000000
0.1374660000000
0.1175970000000
0.0921763000000
0.0706952000000
0.0578400000000
0.0542128000000
0.0569481000000
0.0611775000000
0.0639215000000
0.0662282000000
0.0721709000000
0.0797387000000
0.0825641000000
0.0795204000000
0.0749536000000
0.0747943000000
0.0826916000000
0.0957365000000
0.1055720000000
0.1091950000000
0.1111530000000
0.1122900000000
0.1057510000000
0.0785646000000
0.0182050000000
-0.0758174000000
-0.1890360000000
-0.3024860000000
-0.3992650000000
-0.4661980000000
-0.4990860000000
-0.5027490000000
-0.4826150000000
-0.4409040000000
-0.3831760000000
-0.3198960000000
-0.2613510000000
-0.2123100000000
-0.1678100000000
-0.1137160000000
-0.0446968000000
0.0240372000000
0.0721148000000
0.0962404000000
0.1069510000000
0.1108350000000
0.1069330000000
0.0955224000000
0.0793748000000
0.0645339000000
0.0579806000000
0.0635686000000
0.0850393000000
0.1217890000000
0.1636410000000
0.1938630000000
0.1998660000000
0.1815050000000
0.1489720000000
0.1160840000000
0.0949831000000
0.0900145000000
0.0975326000000
0.1102800000000
0.1203810000000
0.1227630000000
0.1150640000000
0.0960524000000
0.0716346000000
0.0525267000000
0.0410796000000
0.0305716000000
0.0142193000000
-0.0111907000000
-0.0459551000000
-0.0881792000000
-0.1333480000000
-0.1755880000000
-0.2088010000000
-0.2295940000000
-0.2388110000000
-0.2396870000000
-0.2381490000000
-0.2393900000000
-0.2402220000000
-0.2326550000000
-0.2115760000000
-0.1736050000000
-0.1206990000000
-0.0644715000000
-0.0182070000000
0.0140023000000
0.0339770000000
0.0431187000000
0.0416084000000
0.0306265000000
0.0161742000000
0.0063910300000
0.0029717300000
0.0035143000000
0.0086423100000
0.0200480000000
0.0375273000000
0.0600544000000
0.0814100000000
0.0912153000000
0.0775014000000
0.0348637000000
-0.0272847000000
-0.0873675000000
-0.1303410000000
-0.1587330000000
-0.1837530000000
-0.2099380000000
-0.2322210000000
-0.2432590000000
-0.2411640000000
-0.2321860000000
-0.2245500000000
-0.2219810000000
-0.2231240000000
-0.2209960000000
-0.2065120000000
-0.1714300000000
-0.1128290000000
-0.0437899000000
0.0134618000000
0.0515832000000
0.0819095000000
0.1142060000000
0.1504830000000
0.1915260000000
0.2339470000000
0.2703020000000
0.2925520000000
0.2952060000000
0.2795750000000
0.2550900000000
0.2348210000000
0.2263850000000
0.2292880000000
0.2373940000000
0.2457640000000
0.2520810000000
0.2545810000000
0.2551410000000
0.2567790000000
0.2582420000000
0.2568930000000
0.2515710000000
0.2400330000000
0.2159020000000
0.1747000000000
0.1194650000000
0.0594946000000
0.0003284770000
-0.0577802000000
-0.1109930000000
-0.1535450000000
-0.1858100000000
-0.2129680000000
-0.2369540000000
-0.2546090000000
-0.2594400000000
-0.2482170000000
-0.2254480000000
-0.2014890000000
-0.1849630000000
-0.1780070000000
-0.1813050000000
-0.1966640000000
-0.2217640000000
-0.2441500000000
-0.2504230000000
-0.2347340000000
-0.2048270000000
-0.1725240000000
-0.1443760000000
-0.1228310000000
-0.1034540000000
-0.0819484000000
-0.0568018000000
-0.0305932000000
-0.0093984600000
0.0080660600000
0.0277993000000
0.0501496000000
0.0767022000000
0.1134330000000
0.1588960000000
0.2025220000000
0.2333370000000
0.2471680000000
0.2498180000000
0.2500010000000
0.2469070000000
0.2338530000000
0.2101410000000
0.1800160000000
0.1450600000000
0.1054660000000
0.0654492000000
0.0299584000000
0.0009580080000
-0.0212927000000
-0.0356722000000
-0.0375171000000
-0.0230943000000
0.0034911200000
0.0328353000000
0.0556366000000
0.0658786000000
0.0647294000000
0.0576369000000
0.0459340000000
0.0272103000000
0.0056008700000
-0.0120309000000
-0.0215198000000
-0.0221582000000
-0.0145196000000
0.0007570770000
0.0232280000000
0.0495508000000
0.0714609000000
0.0817206000000
0.0790660000000
0.0677166000000
0.0488155000000
0.0195106000000
-0.0196714000000
-0.0624282000000
-0.1006590000000
-0.1321230000000
-0.1581980000000
-0.1800110000000
-0.1993750000000
-0.2119030000000
-0.2078560000000
-0.1858530000000
-0.1557430000000
-0.1216340000000
-0.0793374000000
-0.0309731000000
0.0140260000000
0.0477592000000
0.0645723000000
0.0641631000000
0.0506659000000
0.0258479000000
-0.0124337000000
-0.0649172000000
-0.1254790000000
-0.1814140000000
-0.2222020000000
-0.2461040000000
-0.2547190000000
-0.2480270000000
-0.2294370000000
-0.2057250000000
-0.1813660000000
-0.1555260000000
-0.1218330000000
-0.0758263000000
-0.0237098000000
0.0207908000000
0.0511670000000
0.0734379000000
0.1005040000000
0.1397840000000
0.1846280000000
0.2221120000000
0.2496810000000
0.2736590000000
0.2979000000000
0.3188910000000
0.3262490000000
0.3131190000000
0.2865480000000
0.2581080000000
0.2302700000000
0.2004000000000
0.1699360000000
0.1392520000000
0.1068160000000
0.0729712000000
0.0373404000000
-0.0003481650000
-0.0371611000000
-0.0707918000000
-0.0961098000000
-0.1067040000000
-0.1030250000000
-0.0929781000000
-0.0863827000000
-0.0900161000000
-0.1023180000000
-0.1137790000000
-0.1162430000000
-0.1077300000000
-0.0869405000000
-0.0553489000000
-0.0216079000000
0.0014914300000
0.0045697200000
-0.0104570000000
-0.0314435000000
-0.0520113000000
-0.0761194000000
-0.1051750000000
-0.1313200000000
-0.1429300000000
-0.1285060000000
-0.0865882000000
-0.0307413000000
0.0235658000000
0.0682754000000
0.1021930000000
0.1248320000000
0.1364710000000
0.1379170000000
0.1311310000000
0.1172160000000
0.0953856000000
0.0668852000000
0.0371075000000
0.0124522000000
-0.0003924370000
0.0009462530000
0.0137213000000
0.0352614000000
0.0637658000000
0.0968650000000
0.1307160000000
0.1629740000000
0.1923120000000
0.2169910000000
0.2372580000000
0.2526550000000
0.2605870000000
0.2553560000000
0.2264130000000
0.1657180000000
0.0742931000000
-0.0351503000000
-0.1382290000000
-0.2122600000000
-0.2510780000000
-0.2655640000000
-0.2689950000000
-0.2654400000000
-0.2507240000000
-0.2206610000000
-0.1754160000000
-0.1218960000000
-0.0737912000000
-0.0397733000000
-0.0151647000000
0.0094543600000
0.0402784000000
0.0750095000000
0.1008370000000
0.1094750000000
0.1045700000000
0.0950481000000
0.0866132000000
0.0800275000000
0.0737316000000
0.0661146000000
0.0533996000000
0.0311434000000
0.0002034670000
-0.0306972000000
-0.0523447000000
-0.0651205000000
-0.0754757000000
-0.0895902000000
-0.1066810000000
-0.1215890000000
-0.1306390000000
-0.1323080000000
-0.1259820000000
-0.1116050000000
-0.0891164000000
-0.0613086000000
-0.0334216000000
-0.0081225300000
0.0149089000000
0.0339888000000
0.0437644000000
0.0378042000000
0.0140341000000
-0.0199660000000
-0.0539500000000
-0.0828618000000
-0.1054960000000
-0.1251990000000
-0.1447120000000
-0.1640280000000
-0.1820740000000
-0.1967740000000
-0.2043230000000
-0.2009110000000
-0.1829130000000
-0.1483590000000
-0.1031660000000
-0.0577693000000
-0.0181980000000
0.0146530000000
0.0413638000000
0.0617965000000
0.0763926000000
0.0839292000000
0.0815391000000
0.0691416000000
0.0541962000000
0.0473799000000
0.0553456000000
0.0766930000000
0.1021810000000
0.1211980000000
0.1297370000000
0.1338260000000
0.1417240000000
0.1563690000000
0.1745270000000
0.1899070000000
0.1975930000000
0.1965710000000
0.1917540000000
0.1876020000000
0.1813240000000
0.1708220000000
0.1568800000000
0.1405080000000
0.1236390000000
0.1097960000000
0.1019200000000
0.0995046000000
0.0985542000000
0.0956444000000
0.0896291000000
0.0808128000000
0.0653361000000
0.0375582000000
0.0007577400000
-0.0368732000000
-0.0693744000000
-0.0942391000000
-0.1153280000000
-0.1379310000000
-0.1625220000000
-0.1860190000000
-0.2070960000000
-0.2241870000000
-0.2292650000000
-0.2068680000000
-0.1527710000000
-0.0891554000000
-0.0466932000000
-0.0383197000000
-0.0516109000000
-0.0625554000000
-0.0554197000000
-0.0328123000000
-0.0060532500000
0.0169135000000
0.0327849000000
0.0420254000000
0.0459603000000
0.0460666000000
0.0471104000000
0.0570414000000
0.0736251000000
0.0846322000000
0.0845578000000
0.0760340000000
0.0631642000000
0.0493819000000
0.0358366000000
0.0214389000000
0.0073769000000
-0.0005201190000
0.0002288120000
0.0054521800000
0.0080362700000
0.0068976000000
0.0088463000000
0.0209906000000
0.0444956000000
0.0764890000000
0.1090720000000
0.1349480000000
0.1499040000000
0.1511730000000
0.1409920000000
0.1276110000000
0.1200910000000
0.1197780000000
0.1224120000000
0.1201750000000
0.1087090000000
0.0949923000000
0.0895185000000
0.0943867000000
0.1045340000000
0.1117380000000
0.1105200000000
0.1025470000000
0.0928447000000
0.0836033000000
0.0718522000000
0.0539653000000
0.0292070000000
0.0033810200000
-0.0153287000000
-0.0253394000000
-0.0303396000000
-0.0368022000000
-0.0508233000000
-0.0714195000000
-0.0932634000000
-0.1112460000000
-0.1222120000000
-0.1273450000000
-0.1315900000000
-0.1361680000000
-0.1360680000000
-0.1287710000000
-0.1169480000000
-0.1037690000000
-0.0935472000000
-0.0891772000000
-0.0876365000000
-0.0828069000000
-0.0705236000000
-0.0514837000000
-0.0324469000000
-0.0202384000000
-0.0173567000000
-0.0239998000000
-0.0353099000000
-0.0448779000000
-0.0494683000000
-0.0511075000000
-0.0518752000000
-0.0542217000000
-0.0599404000000
-0.0675854000000
-0.0734231000000
-0.0744190000000
-0.0703465000000
-0.0628317000000
-0.0555029000000
-0.0506721000000
-0.0487096000000
-0.0492138000000
-0.0516666000000
-0.0554995000000
-0.0600032000000
-0.0631005000000
-0.0638940000000
-0.0624261000000
-0.0585641000000
-0.0523975000000
-0.0467139000000
-0.0439654000000
-0.0410689000000
-0.0336649000000
-0.0199024000000
0.0010139800000
0.0262246000000
0.0508101000000
0.0715371000000
0.0855733000000
0.0927658000000
0.0964221000000
0.1009570000000
0.1075570000000
0.1124230000000
0.1070990000000
0.0874089000000
0.0597751000000
0.0354070000000
0.0220090000000
0.0194212000000
0.0205094000000
0.0173005000000
0.0059665100000
-0.0114144000000
-0.0290740000000
-0.0464569000000
-0.0680584000000
-0.0920046000000
-0.1102300000000
-0.1157150000000
-0.1068670000000
-0.0882954000000
-0.0684644000000
-0.0515431000000
-0.0366165000000
-0.0210990000000
-0.0032030400000
0.0133753000000
0.0246474000000
0.0300986000000
0.0286449000000
0.0202860000000
0.0068370400000
-0.0090118700000
-0.0207454000000
-0.0209690000000
-0.0086240800000
0.0084844000000
0.0194526000000
0.0217020000000
0.0203711000000
0.0212242000000
0.0231466000000
0.0193746000000
0.0024243300000
-0.0244126000000
-0.0454161000000
-0.0484721000000
-0.0348304000000
-0.0170921000000
-0.0074189500000
-0.0076128500000
-0.0109873000000
-0.0108375000000
-0.0037850400000
0.0059066300000
0.0101554000000
0.0062878600000
-0.0033214500000
-0.0151577000000
-0.0255301000000
-0.0329519000000
-0.0396147000000
-0.0483130000000
-0.0578418000000
-0.0647586000000
-0.0661281000000
-0.0624012000000
-0.0550231000000
-0.0435841000000
-0.0298970000000
-0.0185319000000
-0.0116337000000
-0.0075940700000
-0.0035030200000
-0.0011864000000
-0.0035598200000
-0.0077080900000
-0.0082125300000
-0.0017709600000
0.0094679700000
0.0220696000000
0.0334964000000
0.0419420000000
0.0449377000000
0.0414384000000
0.0351817000000
0.0290055000000
0.0213469000000
0.0110913000000
-0.0017288400000
-0.0158512000000
-0.0276029000000
-0.0344407000000
-0.0364333000000
-0.0390728000000
-0.0465133000000
-0.0553885000000
-0.0607578000000
-0.0619698000000
-0.0624147000000
-0.0641026000000
-0.0649345000000
-0.0624573000000
-0.0586125000000
-0.0562068000000
-0.0557095000000
-0.0568359000000
-0.0555455000000
-0.0470186000000
-0.0320913000000
-0.0160904000000
-0.0029313500000
0.0061535000000
0.0132150000000
0.0193231000000
0.0245686000000
0.0302573000000
0.0370680000000
0.0404208000000
0.0355888000000
0.0253039000000
0.0154306000000
0.0111340000000
0.0141698000000
0.0192422000000
0.0220466000000
0.0239630000000
0.0275855000000
0.0334107000000
0.0400728000000
0.0451401000000
0.0468881000000
0.0443431000000
0.0370023000000
0.0267098000000
0.0171989000000
0.0104685000000
0.0070409000000
0.0072061300000
0.0088743200000
0.0101606000000
0.0106160000000
0.0099466500000
0.0100916000000
0.0129902000000
0.0183204000000
0.0239257000000
0.0278712000000
0.0291005000000
0.0279127000000
0.0259991000000
0.0239949000000
0.0238094000000
0.0287105000000
0.0366494000000
0.0433293000000
0.0471217000000
0.0494325000000
0.0519886000000
0.0552992000000
0.0587880000000
0.0617888000000
0.0637263000000
0.0621942000000
0.0542404000000
0.0404181000000
0.0224825000000
0.0038962500000
-0.0114072000000
-0.0238334000000
-0.0346245000000
-0.0423291000000
-0.0455681000000
-0.0450824000000
-0.0430782000000
-0.0386992000000
-0.0309468000000
-0.0220314000000
-0.0155510000000
-0.0142801000000
-0.0191403000000
-0.0298748000000
-0.0443807000000
-0.0589556000000
-0.0722005000000
-0.0824929000000
-0.0860746000000
-0.0820377000000
-0.0742727000000
-0.0673301000000
-0.0630623000000
-0.0603054000000
-0.0583363000000
-0.0587011000000
-0.0633411000000
-0.0711358000000
-0.0807845000000
-0.0899417000000
-0.0940819000000
-0.0924711000000
-0.0888173000000
-0.0837558000000
-0.0765034000000
-0.0695142000000
-0.0640528000000
-0.0584743000000
-0.0514354000000
-0.0436692000000
-0.0362994000000
-0.0296866000000
-0.0235265000000
-0.0189391000000
-0.0159783000000
-0.0111752000000
-0.0036209600000
0.0053887400000
0.0153694000000
0.0253044000000
0.0346899000000
0.0439684000000
0.0526591000000
0.0576889000000
0.0571730000000
0.0528179000000
0.0472862000000
0.0423814000000
0.0363010000000
0.0266809000000
0.0155073000000
0.0071633200000
0.0040018000000
0.0056846400000
0.0112953000000
0.0199131000000
0.0291350000000
0.0366752000000
0.0426309000000
0.0467141000000
0.0477098000000
0.0461735000000
0.0433639000000
0.0394128000000
0.0359939000000
0.0350184000000
0.0366568000000
0.0399814000000
0.0439075000000
0.0467541000000
0.0473658000000
0.0429397000000
0.0317579000000
0.0175481000000
0.0051646800000
-0.0043263200000
-0.0117642000000
-0.0169808000000
-0.0193205000000
-0.0177873000000
-0.0122131000000
-0.0031158200000
0.0087966100000
0.0205204000000
0.0279846000000
0.0299868000000
0.0272101000000
0.0211850000000
0.0146941000000
0.0091376000000
0.0045474600000
0.0001351890000
-0.0036405500000
-0.0046250700000
-0.0026593000000
-0.0012552200000
-0.0020908700000
-0.0021671600000
0.0003942160000
0.0047407800000
0.0087054000000
0.0095156400000
0.0067710600000
0.0015251700000
-0.0046528100000
-0.0097537200000
-0.0131968000000
-0.0151331000000
-0.0134106000000
-0.0061131000000
0.0048129200000
0.0154116000000
0.0265454000000
0.0411590000000
0.0588366000000
0.0768013000000
0.0914260000000
0.1026900000000
0.1124820000000
0.1204940000000
0.1275780000000
0.1335920000000
0.1373450000000
0.1376820000000
0.1324590000000
0.1185040000000
0.0952079000000
0.0661507000000
0.0369513000000
0.0109514000000
-0.0109145000000
-0.0289261000000
-0.0431923000000
-0.0550192000000
-0.0663850000000
-0.0754329000000
-0.0781465000000
-0.0725604000000
-0.0585953000000
-0.0406287000000
-0.0238748000000
-0.0121637000000
-0.0066508400000
-0.0028593900000
0.0032696100000
0.0086559700000
0.0070304000000
-0.0034154900000
-0.0184465000000
-0.0323394000000
-0.0423614000000
-0.0490054000000
-0.0516089000000
-0.0510636000000
-0.0470338000000
-0.0382027000000
-0.0254505000000
-0.0106108000000
0.0028232100000
0.0132614000000
0.0229079000000
0.0317910000000
0.0372729000000
0.0369968000000
0.0291252000000
0.0148631000000
-0.0022654600000
-0.0170463000000
-0.0266833000000
-0.0342075000000
-0.0436132000000
-0.0538020000000
-0.0593220000000
-0.0558273000000
-0.0436080000000
-0.0277320000000
-0.0147976000000
-0.0091188200000
-0.0102531000000
-0.0137924000000
-0.0142330000000
-0.0098630900000
-0.0014029400000
0.0108415000000
0.0256301000000
0.0392045000000
0.0494184000000
0.0584906000000
0.0687103000000
0.0794407000000
0.0894750000000
0.0953120000000
0.0942541000000
0.0868850000000
0.0758268000000
0.0651883000000
0.0576239000000
0.0538313000000
0.0544919000000
0.0591463000000
0.0633822000000
0.0614564000000
0.0511800000000
0.0354493000000
0.0192106000000
0.0055926000000
-0.0043055500000
-0.0109706000000
-0.0163194000000
-0.0210269000000
-0.0233241000000
-0.0218781000000
-0.0173525000000
-0.0107637000000
-0.0034953900000
0.0024653800000
0.0072721000000
0.0101825000000
0.0086382400000
0.0027730500000
-0.0045036800000
-0.0113150000000
-0.0178604000000
-0.0246776000000
-0.0329778000000
-0.0421399000000
-0.0503948000000
-0.0574671000000
-0.0635148000000
-0.0668777000000
-0.0676478000000
-0.0651533000000
-0.0575828000000
-0.0467981000000
-0.0355807000000
-0.0250652000000
-0.0155244000000
-0.0062698300000
0.0032226900000
0.0116443000000
0.0173571000000
0.0183550000000
0.0156239000000
0.0110206000000
0.0051530900000
-0.0020174600000
-0.0115879000000
-0.0232378000000
-0.0353878000000
-0.0464687000000
-0.0555406000000
-0.0623907000000
-0.0646909000000
-0.0585013000000
-0.0441272000000
-0.0260542000000
-0.0092307200000
0.0041267800000
0.0138128000000
0.0211035000000
0.0259853000000
0.0254698000000
0.0190866000000
0.0106896000000
0.0036658600000
0.0027352800000
0.0101003000000
0.0231837000000
0.0379002000000
0.0506435000000
0.0566307000000
0.0546833000000
0.0478345000000
0.0392313000000
0.0315233000000
0.0258396000000
0.0209855000000
0.0155559000000
0.0092401000000
0.0014195200000
-0.0071119200000
-0.0150959000000
-0.0210181000000
-0.0230668000000
-0.0219824000000
-0.0213169000000
-0.0243308000000
-0.0316359000000
-0.0437848000000
-0.0598563000000
-0.0752935000000
-0.0854259000000
-0.0876927000000
-0.0838589000000
-0.0785418000000
-0.0738771000000
-0.0700818000000
-0.0663390000000
-0.0611795000000
-0.0552046000000
-0.0500533000000
-0.0463278000000
-0.0432515000000
-0.0388802000000
-0.0305793000000
-0.0179102000000
-0.0034049400000
0.0102139000000
0.0218067000000
0.0323896000000
0.0447033000000
0.0585182000000
0.0718566000000
0.0819070000000
0.0852111000000
0.0815877000000
0.0735429000000
0.0641868000000
0.0554717000000
0.0473652000000
0.0368402000000
0.0219522000000
0.0046673500000
-0.0120626000000
-0.0260136000000
-0.0354029000000
-0.0409504000000
-0.0437684000000
-0.0429837000000
-0.0379331000000
-0.0281796000000
-0.0141698000000
0.0019237800000
0.0174183000000
0.0295639000000
0.0373308000000
0.0388329000000
0.0337404000000
0.0253605000000
0.0160590000000
0.0040152500000
-0.0112467000000
-0.0256509000000
-0.0339755000000
-0.0342175000000
-0.0271912000000
-0.0153336000000
-0.0005400820000
0.0162798000000
0.0337119000000
0.0513710000000
0.0669540000000
0.0787648000000
0.0877170000000
0.0934767000000
0.0944428000000
0.0881113000000
0.0749770000000
0.0597590000000
0.0465130000000
0.0357033000000
0.0250870000000
0.0132975000000
0.0012388600000
-0.0084314700000
-0.0147305000000
-0.0198586000000
-0.0246196000000
-0.0284457000000
-0.0306547000000
-0.0297892000000
-0.0247265000000
-0.0141332000000
0.0022708100000
0.0213013000000
0.0395068000000
0.0540875000000
0.0645136000000
0.0722643000000
0.0779603000000
0.0800886000000
0.0766976000000
0.0679846000000
0.0563761000000
0.0432411000000
0.0282800000000
0.0119022000000
-0.0045329400000
-0.0218927000000
-0.0400286000000
-0.0549116000000
-0.0635668000000
-0.0662529000000
-0.0642042000000
-0.0579688000000
-0.0491772000000
-0.0404718000000
-0.0318977000000
-0.0224477000000
-0.0135665000000
-0.0045774600000
0.0050057600000
0.0153380000000
0.0260412000000
0.0334037000000
0.0346340000000
0.0300433000000
0.0204975000000
0.0075211800000
-0.0062044900000
-0.0185326000000
-0.0271438000000
-0.0324906000000
-0.0383617000000
-0.0462245000000
-0.0522999000000
-0.0530220000000
-0.0479737000000
-0.0397334000000
-0.0319200000000
-0.0254835000000
-0.0200498000000
-0.0156357000000
-0.0128316000000
-0.0119788000000
-0.0127324000000
-0.0142182000000
-0.0168524000000
-0.0196286000000
-0.0208157000000
-0.0207810000000
-0.0203350000000
-0.0195528000000
-0.0201820000000
-0.0217745000000
-0.0227404000000
-0.0238778000000
-0.0261301000000
-0.0282650000000
-0.0288158000000
-0.0275197000000
-0.0243246000000
-0.0198273000000
-0.0147467000000
-0.0085899900000
-0.0026244100000
0.0020986100000
0.0069440500000
0.0124293000000
0.0172819000000
0.0208932000000
0.0229997000000
0.0251009000000
0.0288471000000
0.0323775000000
0.0338264000000
0.0333448000000
0.0312699000000
0.0274910000000
0.0225061000000
0.0139248000000
-0.0006567910000
-0.0178747000000
-0.0334948000000
-0.0462012000000
-0.0549775000000
-0.0614877000000
-0.0672450000000
-0.0708958000000
-0.0715728000000
-0.0698968000000
-0.0667565000000
-0.0622038000000
-0.0562879000000
-0.0488117000000
-0.0399215000000
-0.0308465000000
-0.0220009000000
-0.0127294000000
-0.0022961400000
0.0103240000000
0.0238101000000
0.0340638000000
0.0398174000000
0.0411689000000
0.0380441000000
0.0314481000000
0.0241244000000
0.0182790000000
0.0144889000000
0.0120731000000
0.0085440000000
0.0034410500000
-0.0006954400000
0.0003007420000
0.0078667300000
0.0191137000000
0.0302895000000
0.0396459000000
0.0471876000000
0.0503011000000
0.0479077000000
0.0423096000000
0.0348011000000
0.0265302000000
0.0195246000000
0.0137236000000
0.0095913400000
0.0091774700000
0.0112932000000
0.0141423000000
0.0178915000000
0.0221571000000
0.0257409000000
0.0301519000000
0.0351640000000
0.0376768000000
0.0379352000000
0.0386756000000
0.0413990000000
0.0464966000000
0.0521575000000
0.0579959000000
0.0653030000000
0.0737335000000
0.0830472000000
0.0914994000000
0.0962539000000
0.0956459000000
0.0905040000000
0.0812867000000
0.0659226000000
0.0431797000000
0.0141163000000
-0.0174666000000
-0.0458441000000
-0.0679845000000
-0.0817840000000
-0.0856151000000
-0.0814727000000
-0.0734092000000
-0.0640971000000
-0.0533734000000
-0.0409954000000
-0.0261365000000
-0.0101779000000
0.0026064800000
0.0106196000000
0.0145049000000
0.0151588000000
0.0143911000000
0.0126252000000
0.0094535400000
0.0044058900000
-0.0033442200000
-0.0131196000000
-0.0226682000000
-0.0307958000000
-0.0372317000000
-0.0416326000000
-0.0460666000000
-0.0518074000000
-0.0554151000000
-0.0552683000000
-0.0522663000000
-0.0468702000000
-0.0413961000000
-0.0355822000000
-0.0271759000000
-0.0170799000000
-0.0075670900000
0.0004473020000
0.0068368300000
0.0122787000000
0.0163136000000
0.0178806000000
0.0168685000000
0.0138066000000
0.0086235300000
0.0029217500000
-0.0016605400000
-0.0066705200000
-0.0130520000000
-0.0201189000000
-0.0260218000000
-0.0289272000000
-0.0290225000000
-0.0271019000000
-0.0244672000000
-0.0223781000000
-0.0208002000000
-0.0182726000000
-0.0138880000000
-0.0084767100000
-0.0037005900000
0.0004444280000
0.0041490100000
0.0064136700000
0.0054991600000
0.0032179700000
0.0018420600000
0.0006429230000
0.0000791929000
-0.0000088375600
0.0003024220000
0.0005525540000
-0.0010547100000
-0.0046577700000
-0.0101276000000
-0.0176565000000
-0.0274465000000
-0.0385755000000
-0.0481330000000
-0.0527113000000
-0.0508425000000
-0.0443294000000
-0.0358420000000
-0.0265170000000
-0.0168420000000
-0.0066720100000
0.0021828700000
0.0082217200000
0.0120393000000
0.0129786000000
0.0112748000000
0.0077793000000
0.0029998800000
-0.0006833410000
-0.0015057600000
-0.0000987433000
0.0020292800000
0.0023501600000
0.0015804600000
0.0023027100000
0.0024640200000
0.0004641370000
-0.0023581400000
-0.0046531800000
-0.0056848200000
-0.0066245900000
-0.0094757500000
-0.0126024000000
-0.0132185000000
-0.0110455000000
-0.0058873600000
0.0015633200000
0.0090809300000
0.0161835000000
0.0229858000000
0.0287680000000
0.0328130000000
0.0331488000000
0.0298168000000
0.0257790000000
0.0212003000000
0.0151231000000
0.0076648900000
-0.0015093900000
-0.0099500700000
-0.0152966000000
-0.0174924000000
-0.0179731000000
-0.0180458000000
-0.0182071000000
-0.0177969000000
-0.0167980000000
-0.0154945000000
-0.0138095000000
-0.0132947000000
-0.0140690000000
-0.0137088000000
-0.0118583000000
-0.0092960300000
-0.0063702100000
-0.0032739400000
-0.0006676090000
0.0001449430000
0.0000408725000
0.0017183300000
0.0055938000000
0.0075134500000
0.0050233100000
-0.0003179410000
-0.0061303200000
-0.0099094600000
-0.0100938000000
-0.0074598500000
-0.0031001300000
0.0019208500000
0.0084936600000
0.0176852000000
0.0267957000000
0.0343040000000
0.0406192000000
0.0449748000000
0.0462673000000
0.0454945000000
0.0425642000000
0.0378259000000
0.0334167000000
0.0284357000000
0.0222167000000
0.0141019000000
0.0034817800000
-0.0072996400000
-0.0160177000000
-0.0234456000000
-0.0287855000000
-0.0307270000000
-0.0291600000000
-0.0241180000000
-0.0159369000000
-0.0057480100000
0.0057674300000
0.0184911000000
0.0306328000000
0.0410187000000
0.0492220000000
0.0546595000000
0.0573034000000
0.0582825000000
0.0556006000000
0.0493248000000
0.0432171000000
0.0393125000000
0.0363398000000
0.0325396000000
0.0264776000000
0.0193233000000
0.0135338000000
0.0088194100000
0.0048646600000
0.0036891100000
0.0045550200000
0.0060831800000
0.0091813400000
0.0113647000000
0.0106903000000
0.0078207700000
0.0034289100000
-0.0015600000000
-0.0067450600000
-0.0114716000000
-0.0151113000000
-0.0171305000000
-0.0181112000000
-0.0178581000000
-0.0147317000000
-0.0108919000000
-0.0089727100000
-0.0071740400000
-0.0058800900000
-0.0059213700000
-0.0055208100000
-0.0050768100000
-0.0052510400000
-0.0051004600000
-0.0043811300000
-0.0032377300000
-0.0016868000000
-0.0002849620000
0.0006860180000
0.0007525350000
-0.0004390240000
-0.0008417290000
0.0004535310000
0.0009863600000
0.0002423370000
-0.0002686750000
-0.0007679430000
-0.0016005600000
-0.0039819700000
-0.0082598800000
-0.0138167000000
-0.0194860000000
-0.0237088000000
-0.0259614000000
-0.0274893000000
-0.0296696000000
-0.0312973000000
-0.0315334000000
-0.0312046000000
-0.0299223000000
-0.0273813000000
-0.0246803000000
-0.0212271000000
-0.0173858000000
-0.0152402000000
-0.0155419000000
-0.0182928000000
-0.0233221000000
-0.0297783000000
-0.0353795000000
-0.0371517000000
-0.0340842000000
-0.0293885000000
-0.0244371000000
-0.0191466000000
-0.0141241000000
-0.0094274000000
-0.0051124500000
-0.0033790800000
-0.0040547200000
-0.0051553700000
-0.0075625000000
-0.0126017000000
-0.0207004000000
-0.0297151000000
-0.0373641000000
-0.0422945000000
-0.0445228000000
-0.0439871000000
-0.0416663000000
-0.0379026000000
-0.0318608000000
-0.0246323000000
-0.0181547000000
-0.0127971000000
-0.0088033400000
-0.0059230300000
-0.0024594000000
0.0004307770000
0.0012891000000
0.0012321500000
0.0009920370000
0.0007452990000
0.0007099430000
0.0008431480000
0.0014001600000
0.0038035200000
0.0077694500000
0.0111054000000
0.0140348000000
0.0165429000000
0.0180054000000
0.0188142000000
0.0182371000000
0.0163277000000
0.0134669000000
0.0098564300000
0.0068590800000
0.0037747700000
0.0005210360000
-0.0017412100000
-0.0040141500000
-0.0060155900000
-0.0064733900000
-0.0051506200000
-0.0029821800000
0.0000419616000
0.0044156500000
0.0100002000000
0.0155539000000
0.0193308000000
0.0206539000000
0.0204182000000
0.0186584000000
0.0171506000000
0.0162619000000
0.0147379000000
0.0140240000000
0.0151918000000
0.0188995000000
0.0248533000000
0.0308375000000
0.0351871000000
0.0373220000000
0.0373010000000
0.0357770000000
0.0333059000000
0.0298780000000
0.0258304000000
0.0233733000000
0.0222200000000
0.0210220000000
0.0208164000000
0.0216639000000
0.0239993000000
0.0267340000000
0.0280635000000
0.0282956000000
0.0263473000000
0.0220077000000
0.0156539000000
0.0083203700000
0.0032354600000
-0.0003108540000
-0.0029572100000
-0.0035440300000
-0.0022027400000
0.0005576940000
0.0035174100000
0.0041796400000
0.0028372700000
0.0021682500000
0.0025367000000
0.0032092100000
0.0042050100000
0.0051148100000
0.0061286700000
0.0079812500000
0.0096743300000
0.0107874000000
0.0108742000000
0.0090727600000
0.0069354200000
0.0037114600000
-0.0007254620000
-0.0056951000000
-0.0109672000000
-0.0153771000000
-0.0171365000000
-0.0165970000000
-0.0154618000000
-0.0144326000000
-0.0143851000000
-0.0145115000000
-0.0118979000000
-0.0066783000000
-0.0020426800000
0.0016488500000
0.0032754500000
0.0023310200000
0.0008535510000
0.0003670550000
0.0000724312000
-0.0007631770000
-0.0028811100000
-0.0052809000000
-0.0059190300000
-0.0050026100000
-0.0041129000000
-0.0022708400000
0.0015174900000
0.0049913100000
0.0067478800000
0.0055759900000
0.0018133900000
-0.0028116600000
-0.0067703300000
-0.0102370000000
-0.0136321000000
-0.0153437000000
-0.0143407000000
-0.0111941000000
-0.0061858900000
-0.0008761430000
0.0035494200000
0.0073566700000
0.0101274000000
0.0114937000000
0.0107205000000
0.0071098400000
0.0018246500000
-0.0038936000000
-0.0101660000000
-0.0165949000000
-0.0206888000000
-0.0214297000000
-0.0201902000000
-0.0168241000000
-0.0130962000000
-0.0108313000000
-0.0092878400000
-0.0079910200000
-0.0068730100000
-0.0058789200000
-0.0051205800000
-0.0045192400000
-0.0036701600000
-0.0033166300000
-0.0037037000000
-0.0038512500000
-0.0036274800000
-0.0048844400000
-0.0068140400000
-0.0084571500000
-0.0103231000000
-0.0123623000000
-0.0151691000000
-0.0172036000000
-0.0165060000000
-0.0129059000000
-0.0090178800000
-0.0065922200000
-0.0062813900000
-0.0083279500000
-0.0121003000000
-0.0152508000000
-0.0164970000000
-0.0155279000000
-0.0136531000000
-0.0115586000000
-0.0095790700000
-0.0101564000000
-0.0127746000000
-0.0151867000000
-0.0151438000000
-0.0132988000000
-0.0115094000000
-0.0104914000000
-0.0095856900000
-0.0070418700000
-0.0038568300000
-0.0013732100000
0.0024428800000
0.0067545700000
0.0080328500000
0.0065953800000
0.0042222400000
0.0011317700000
-0.0021250300000
-0.0034257200000
-0.0030933700000
-0.0020268600000
-0.0005368010000
0.0007138970000
0.0017992200000
0.0035112500000
0.0050086500000
0.0062311500000
0.0080296000000
0.0099598000000
0.0119322000000
0.0142706000000
0.0164076000000
0.0172061000000
0.0167100000000
0.0152813000000
0.0119245000000
0.0062441300000
-0.0008820840000
-0.0082297900000
-0.0140096000000
-0.0171209000000
-0.0187864000000
-0.0204868000000
-0.0209254000000
-0.0176175000000
-0.0112935000000
-0.0045884000000
0.0007948550000
0.0050582500000
0.0084501700000
0.0110912000000
0.0136493000000
0.0151842000000
0.0148180000000
0.0131814000000
0.0115815000000
0.0126204000000
0.0155214000000
0.0171479000000
0.0176261000000
0.0186982000000
0.0213550000000
0.0244358000000
0.0269680000000
0.0286151000000
0.0293593000000
0.0281922000000
0.0255118000000
0.0228414000000
0.0213350000000
0.0206974000000
0.0213289000000
0.0226482000000
0.0235383000000
0.0239183000000
0.0233191000000
0.0217663000000
0.0180244000000
0.0113997000000
0.0041171900000
-0.0009523530000
-0.0040499200000
-0.0060841100000
-0.0066270300000
-0.0061978200000
-0.0049421000000
-0.0036326400000
-0.0033358100000
-0.0027204000000
-0.0011419900000
0.0000239985000
-0.0002447680000
-0.0019806000000
-0.0038579400000
-0.0053503800000
-0.0069491900000
-0.0071558300000
-0.0064622700000
-0.0074488300000
-0.0093505400000
-0.0103879000000
-0.0098057800000
-0.0089941000000
-0.0096474700000
-0.0114207000000
-0.0124997000000
-0.0122576000000
-0.0113596000000
-0.0094345000000
-0.0065752400000
-0.0043377700000
-0.0021759800000
0.0000691111000
0.0021224400000
0.0038664000000
0.0043809100000
0.0043827000000
0.0036339200000
0.0021152800000
0.0011640400000
0.0007937630000
0.0004561980000
-0.0003110850000
-0.0019226300000
-0.0031160300000
-0.0028174300000
-0.0023853600000
-0.0025495800000
-0.0022201900000
-0.0013202500000
-0.0006105650000
0.0007356360000
0.0029796800000
0.0054270400000
0.0071841700000
0.0076319700000
0.0072859700000
0.0066743700000
0.0057823300000
0.0049129000000
0.0039607300000
0.0049951000000
0.0067643800000
0.0062884100000
0.0055021300000
0.0069199600000
0.0090933700000
0.0094206200000
0.0074415900000
0.0049135700000
0.0030288300000
0.0018284600000
-0.0002274220000
-0.0028122900000
-0.0049603100000
-0.0066700000000
-0.0072517800000
-0.0074503300000
-0.0086101400000
-0.0104588000000
-0.0119596000000
-0.0136025000000
-0.0171270000000
-0.0210442000000
-0.0234122000000
-0.0242802000000
-0.0241870000000
-0.0235441000000
-0.0221176000000
-0.0202779000000
-0.0192401000000
-0.0177331000000
-0.0152818000000
-0.0136097000000
-0.0125335000000
-0.0106520000000
-0.0103294000000
-0.0121507000000
-0.0137635000000
-0.0144744000000
-0.0146290000000
-0.0133764000000
-0.0114866000000
-0.0098325900000
-0.0071397700000
-0.0035830000000
-0.0002983190000
0.0029286300000
0.0069279800000
0.0110282000000
0.0139532000000
0.0157081000000
0.0154710000000
0.0117772000000
0.0059195600000
-0.0003674330000
-0.0057069200000
-0.0101372000000
-0.0137369000000
-0.0151875000000
-0.0136717000000
-0.0112977000000
-0.0102556000000
-0.0090185900000
-0.0060002200000
-0.0032490900000
-0.0024711200000
-0.0030123600000
-0.0034423600000
-0.0032726300000
-0.0029340800000
-0.0027758200000
-0.0025209400000
-0.0010820600000
0.0024777300000
0.0075782800000
0.0117023000000
0.0128513000000
0.0116824000000
0.0098793000000
0.0086699400000
0.0089704400000
0.0101062000000
0.0115931000000
0.0135089000000
0.0153466000000
0.0171415000000
0.0182975000000
0.0186359000000
0.0188802000000
0.0184919000000
0.0161562000000
0.0126492000000
0.0103994000000
0.0105300000000
0.0123502000000
0.0142353000000
0.0150147000000
0.0158466000000
0.0167221000000
0.0169243000000
0.0173486000000
0.0166891000000
0.0135826000000
0.0104162000000
0.0090880100000
0.0076735900000
0.0049860800000
0.0029812300000
0.0026881000000
0.0031749900000
0.0042005500000
0.0055258000000
0.0072807000000
0.0086204100000
0.0095652900000
0.0119346000000
0.0145102000000
0.0148970000000
0.0137459000000
0.0125377000000
0.0106502000000
0.0077627100000
0.0047586200000
0.0024736100000
0.0011120700000
0.0012206600000
0.0023818800000
0.0040033600000
0.0049554000000
0.0050520900000
0.0060383500000
0.0067793500000
0.0053966700000
0.0039089100000
0.0042738000000
0.0041071700000
0.0012617900000
-0.0026064500000
-0.0051809200000
-0.0063045800000
-0.0066864400000
-0.0071431300000
-0.0076003300000
-0.0086115000000
-0.0093015400000
-0.0084262100000
-0.0079419300000
-0.0093840200000
-0.0101623000000
-0.0091923800000
-0.0088161400000
-0.0103488000000
-0.0116199000000
-0.0118967000000
-0.0111837000000
-0.0100326000000
-0.0092698000000
-0.0086482500000
-0.0092770700000
-0.0101345000000
-0.0091054900000
-0.0076991200000
-0.0076526300000
-0.0074159200000
-0.0060014100000
-0.0036106300000
-0.0019196100000
-0.0027908700000
-0.0050503400000
-0.0063171100000
-0.0069435500000
-0.0085853500000
-0.0102354000000
-0.0104847000000
-0.0096125500000
-0.0083339400000
-0.0078374100000
-0.0076913500000
-0.0065363000000
-0.0038441600000
0.0007868820000
0.0047341200000
0.0061442400000
0.0069442700000
0.0081099900000
0.0074069300000
0.0040240900000
0.0007110010000
-0.0008625510000
-0.0014070000000
-0.0028536600000
-0.0056817400000
-0.0073144600000
-0.0063297100000
-0.0049585700000
-0.0029296400000
-0.0001037660000
0.0019377800000
0.0033524900000
0.0042451500000
0.0046452900000
0.0041713500000
0.0028830600000
0.0019236300000
0.0018376800000
0.0020708800000
0.0023276800000
0.0030167200000
0.0031251800000
0.0023307800000
0.0023547600000
0.0029964600000
0.0034798400000
0.0031995000000
0.0019719900000
0.0008424700000
-0.0007735240000
-0.0041201800000
-0.0076610200000
-0.0093025300000
-0.0093134500000
-0.0089973900000
-0.0087183400000
-0.0078805000000
-0.0061243000000
-0.0038083400000
-0.0015364300000
0.0008299620000
0.0016777100000
0.0011078800000
0.0007425320000
0.0000528490000
-0.0013364000000
-0.0018241100000
-0.0014274600000
-0.0007733040000
-0.0006198570000
-0.0016340900000
-0.0025337000000
-0.0027730600000
-0.0033611900000
-0.0053684000000
-0.0066757100000
-0.0057320900000
-0.0029280200000
0.0003987810000
0.0030185200000
0.0051085700000
0.0074440200000
0.0095555000000
0.0110813000000
0.0105966000000
0.0070020900000
0.0027664000000
-0.0014387700000
-0.0059021500000
-0.0103276000000
-0.0132203000000
-0.0126493000000
-0.0100400000000
-0.0073793900000
-0.0059689400000
-0.0054781800000
-0.0038969000000
-0.0010178800000
0.0014399600000
0.0020470500000
0.0013476700000
0.0009136470000
0.0020227700000
0.0039747500000
0.0058634500000
0.0083455500000
0.0119803000000
0.0149840000000
0.0169417000000
0.0176568000000
0.0167172000000
0.0157046000000
0.0151649000000
0.0139815000000
0.0122977000000
0.0107751000000
0.0091062800000
0.0076787800000
0.0069020200000
0.0060733100000
0.0045782000000
0.0032682900000
0.0018289000000
0.0007968610000
0.0001159470000
-0.0008583280000
-0.0008053670000
0.0011840900000
0.0040470200000
0.0065825300000
0.0091183300000
0.0107563000000
0.0114022000000
0.0119376000000
0.0112060000000
0.0089461300000
0.0071522700000
0.0071022500000
0.0082797100000
0.0089934200000
0.0087682200000
0.0083690000000
0.0087553000000
0.0090275600000
0.0074998200000
0.0043016900000
0.0010272400000
-0.0020726900000
-0.0044902000000
-0.0062834300000
-0.0078137500000
-0.0077705500000
-0.0063486000000
-0.0050434300000
-0.0045803100000
-0.0042638000000
-0.0042694800000
-0.0041756700000
-0.0037177800000
-0.0041962900000
-0.0056200200000
-0.0065385500000
-0.0069792900000
-0.0073893600000
-0.0087284400000
-0.0110973000000
-0.0128806000000
-0.0130244000000
-0.0128811000000
-0.0145453000000
-0.0167034000000
-0.0179273000000
-0.0179109000000
-0.0163569000000
-0.0129860000000
-0.0095905300000
-0.0069696300000
-0.0046338200000
-0.0014512600000
0.0013572400000
0.0024756200000
0.0038221000000
0.0068118000000
0.0097447400000
0.0104512000000
0.0092271300000
0.0071008500000
0.0046348700000
0.0010925600000
-0.0036830000000
-0.0078681200000
-0.0093669000000
-0.0082969400000
-0.0059261900000
-0.0030333300000
-0.0005373810000
0.0013850100000
0.0028942000000
0.0030348400000
0.0016602900000
0.0000656348000
-0.0009382430000
-0.0010007700000
-0.0009938150000
-0.0021494200000
-0.0031219200000
-0.0035076400000
-0.0038545000000
-0.0045648200000
-0.0063527500000
-0.0088375400000
-0.0100435000000
-0.0086009000000
-0.0056291300000
-0.0031432900000
-0.0013106900000
-0.0000494518000
0.0019918400000
0.0060260600000
0.0099464200000
0.0114072000000
0.0103271000000
0.0081310500000
0.0064463100000
0.0047133400000
0.0028770000000
0.0013411800000
-0.0000761022000
-0.0019266300000
-0.0032774700000
-0.0042245100000
-0.0063740100000
-0.0090025200000
-0.0103064000000
-0.0101112000000
-0.0094685500000
-0.0086350700000
-0.0065237000000
-0.0025299100000
0.0014220500000
0.0032653500000
0.0043358400000
0.0062822200000
0.0077230800000
0.0070810400000
0.0045539600000
0.0003036180000
-0.0039055300000
-0.0060794800000
-0.0066184500000
-0.0059919300000
-0.0052039400000
-0.0052225200000
-0.0050540400000
-0.0045143100000
-0.0036320800000
-0.0019511200000
-0.0007220710000
-0.0007073240000
-0.0022187900000
-0.0039905300000
-0.0041574600000
-0.0028043700000
-0.0016825000000
-0.0014436600000
-0.0011823800000
-0.0006813880000
0.0003857660000
0.0017732100000
0.0024500400000
0.0026941100000
0.0030953300000
0.0041469300000
0.0060574100000
0.0078951400000
0.0093374000000
0.0104716000000
0.0111826000000
0.0116957000000
0.0112589000000
0.0098437400000
0.0086501900000
0.0084098800000
0.0085840400000
0.0087700000000
0.0084131000000
0.0077746600000
0.0074682900000
0.0066369100000
0.0050718400000
0.0035325200000
0.0013853400000
-0.0010384600000
-0.0027190100000
-0.0040739000000
-0.0050361800000
-0.0050633000000
-0.0039274700000
-0.0020388600000
-0.0006405270000
-0.0005969160000
-0.0011098200000
-0.0010967300000
-0.0011284200000
-0.0023290100000
-0.0040496500000
-0.0044205400000
-0.0027118400000
-0.0002547080000
0.0016205200000
0.0031007500000
0.0036498100000
0.0036853800000
0.0031672900000
0.0011202500000
-0.0022785000000
-0.0057664400000
-0.0082030500000
-0.0090945500000
-0.0097225500000
-0.0104748000000
-0.0106713000000
-0.0101691000000
-0.0092827800000
-0.0090846700000
-0.0091291800000
-0.0075727600000
-0.0050173800000
-0.0036225200000
-0.0031520600000
-0.0022454300000
-0.0018306300000
-0.0018157300000
-0.0016625600000
-0.0012417500000
-0.0008055190000
-0.0015038300000
-0.0027119400000
-0.0025220500000
-0.0026469200000
-0.0036076300000
-0.0036200700000
-0.0033115400000
-0.0030481700000
-0.0018188300000
-0.0003280810000
0.0008479830000
0.0026263900000
0.0038087500000
0.0038525700000
0.0043968200000
0.0051558000000
0.0048831500000
0.0035761400000
0.0014465300000
-0.0006450680000
-0.0011148200000
-0.0003274870000
0.0003467130000
0.0009427950000
0.0017418100000
0.0029459300000
0.0052032900000
0.0074308700000
0.0085181700000
0.0093352600000
0.0099235400000
0.0093548100000
0.0084174800000
0.0059947500000
0.0025592600000
0.0004067150000
-0.0004291760000
-0.0003302550000
-0.0000043568600
0.0004528940000
0.0006679410000
0.0008720750000
0.0012302700000
0.0013996000000
0.0013351000000
0.0010804500000
0.0004184710000
-0.0001635890000
-0.0000675334000
-0.0001131860000
-0.0012781600000
-0.0030421200000
-0.0050604000000
-0.0069435700000
-0.0077787700000
-0.0082181700000
-0.0082207100000
-0.0064392700000
-0.0040249300000
-0.0020925800000
-0.0001880990000
0.0015822400000
0.0032530500000
0.0047854800000
0.0050928100000
0.0043842700000
0.0036269000000
0.0026934900000
0.0017542400000
0.0011801300000
0.0010238900000
0.0019342100000
0.0045072600000
0.0061796500000
0.0066380300000
0.0067781500000
0.0056995100000
0.0036944000000
0.0014768900000
-0.0004868850000
-0.0032166900000
-0.0055852400000
-0.0055615600000
-0.0044395800000
-0.0032738600000
-0.0020775900000
-0.0008687600000
0.0012500300000
0.0035353100000
0.0037670000000
0.0025729100000
0.0028847600000
0.0033520300000
0.0019251200000
-0.0001000010000
-0.0018351200000
-0.0026775300000
-0.0022104200000
-0.0024065500000
-0.0029389800000
-0.0028520000000
-0.0028822700000
-0.0031896600000
-0.0038050600000
-0.0045621900000
-0.0048448500000
-0.0044695500000
-0.0042168700000
-0.0042252600000
-0.0036475300000
-0.0024639300000
-0.0006279350000
0.0024453400000
0.0049869100000
0.0065877100000
0.0083067900000
0.0096437800000
0.0099883000000
0.0099314800000
0.0096861900000
0.0078171600000
0.0053230400000
0.0027817400000
0.0005968490000
-0.0007024040000
-0.0011058600000
-0.0008500920000
-0.0001654810000
0.0002175720000
0.0006586380000
0.0022173500000
0.0038132300000
0.0048267700000
0.0057460000000
0.0068191700000
0.0072396700000
0.0074430500000
0.0070276200000
0.0047845700000
0.0023909200000
0.0004608820000
-0.0008062520000
-0.0013731300000
-0.0026602300000
-0.0054220300000
-0.0087660100000
-0.0110881000000
-0.0115477000000
-0.0104921000000
-0.0096174700000
-0.0093843400000
-0.0096286900000
-0.0100222000000
-0.0100701000000
-0.0093579800000
-0.0091471100000
-0.0092243500000
-0.0079075300000
-0.0069148400000
-0.0075588400000
-0.0086083600000
-0.0081464300000
-0.0063917400000
-0.0047292400000
-0.0035633500000
-0.0025049000000
-0.0018930100000
-0.0007662280000
0.0014687700000
0.0034461300000
0.0047480400000
0.0052084900000
0.0046618600000
0.0031330300000
0.0019953300000
0.0014402700000
0.0004845810000
-0.0003266890000
-0.0015916500000
-0.0030780500000
-0.0039733800000
-0.0044690900000
-0.0039309200000
-0.0024093000000
-0.0020862900000
-0.0027365900000
-0.0031776500000
-0.0022696800000
-0.0000572435000
0.0020385700000
0.0021419500000
0.0013736000000
0.0009807290000
-0.0001735220000
-0.0017816900000
-0.0031191700000
-0.0042772800000
-0.0050903300000
-0.0066417600000
-0.0088392100000
-0.0091179600000
-0.0074262900000
-0.0051556800000
-0.0029476100000
-0.0013735400000
0.0003592510000
0.0032495400000
0.0065830500000
0.0091159300000
0.0103104000000
0.0105681000000
0.0113871000000
0.0117345000000
0.0101925000000
0.0080936600000
0.0059468000000
0.0041965700000
0.0025115100000
0.0003589810000
-0.0011717900000
-0.0026215500000
-0.0039245600000
-0.0046397500000
-0.0058698700000
-0.0069744300000
-0.0063347300000
-0.0045700900000
-0.0018206600000
0.0021698900000
0.0059997100000
0.0099013100000
0.0136859000000
0.0165203000000
0.0179927000000
0.0179845000000
0.0158048000000
0.0129334000000
0.0104734000000
0.0081237600000
0.0058465100000
0.0030312200000
0.0010962400000
0.0016092000000
0.0034273200000
0.0054194700000
0.0068703700000
0.0084559800000
0.0110831000000
0.0136736000000
0.0148490000000
0.0157316000000
0.0169670000000
0.0164893000000
0.0134866000000
0.0085508200000
0.0024315200000
-0.0027318200000
-0.0055569400000
-0.0077243000000
-0.0100613000000
-0.0115251000000
-0.0120117000000
-0.0113277000000
-0.0099798500000
-0.0089389800000
-0.0078368900000
-0.0067655200000
-0.0066459700000
-0.0070157100000
-0.0074441900000
-0.0083175700000
-0.0086213200000
-0.0076433000000
-0.0068437900000
-0.0061507000000
-0.0052273800000
-0.0042503300000
-0.0026220000000
-0.0002006010000
0.0009802920000
0.0008438440000
0.0012954200000
0.0010822000000
0.0000435613000
-0.0008625380000
-0.0026808500000
-0.0046438800000
-0.0045270100000
-0.0040899900000
-0.0042358600000
-0.0033541800000
-0.0017591500000
-0.0003354520000
0.0009306850000
0.0014152700000
0.0009399820000
0.0005348050000
0.0001654020000
-0.0014373600000
-0.0043585500000
-0.0073246500000
-0.0085350700000
-0.0075974600000
-0.0072620700000
-0.0079708800000
-0.0079458200000
-0.0067152100000
-0.0046596100000
-0.0022227900000
-0.0006586970000
-0.0006090210000
-0.0002912100000
0.0007057190000
0.0014183400000
0.0016274700000
0.0007463000000
-0.0000831814000
0.0008938480000
0.0018514000000
0.0015804100000
0.0014951900000
0.0019666300000
0.0020310100000
0.0015375200000
0.0008733510000
0.0003321530000
0.0004234250000
0.0007889940000
0.0000898599000
-0.0009631730000
-0.0015674900000
-0.0018505500000
-0.0012095100000
-0.0000677695000
0.0015866500000
0.0040630100000
0.0066611400000
0.0087404400000
0.0097283900000
0.0087727000000
0.0065052600000
0.0039833200000
0.0020379500000
0.0000126935000
-0.0014014300000
-0.0009012930000
0.0003547870000
0.0015736600000
0.0027689000000
0.0034538400000
0.0034240000000
0.0031426500000
0.0030100600000
0.0029438100000
0.0024644900000
0.0014199500000
0.0008103830000
0.0018466200000
0.0042298000000
0.0070155200000
0.0094635400000
0.0111025000000
0.0121979000000
0.0117855000000
0.0091859100000
0.0058280400000
0.0035357600000
0.0018231400000
-0.0001380400000
-0.0021110600000
-0.0044132300000
-0.0058691700000
-0.0052840500000
-0.0042815300000
-0.0037790600000
-0.0038640300000
-0.0047776200000
-0.0053491000000
-0.0060124500000
-0.0072459900000
-0.0079826000000
-0.0081426200000
-0.0078639000000
-0.0074261500000
-0.0077975100000
-0.0087320800000
-0.0096295300000
-0.0102425000000
-0.0103436000000
-0.0105014000000
-0.0122282000000
-0.0144655000000
-0.0148886000000
-0.0141190000000
-0.0128116000000
-0.0103023000000
-0.0079952100000
-0.0064120000000
-0.0038756700000
-0.0020196500000
-0.0012049300000
0.0004829670000
0.0019974900000
0.0016472800000
0.0018598400000
0.0034404000000
0.0048291600000
0.0061532600000
0.0059538300000
0.0045691000000
0.0041359300000
0.0043561600000
0.0045339100000
0.0046623700000
0.0041517900000
0.0029488600000
0.0023853300000
0.0028607300000
0.0031997400000
0.0028233200000
0.0023114600000
0.0025480500000
0.0035555300000
0.0054791600000
0.0075471400000
0.0083209900000
0.0084645800000
0.0096789900000
0.0094770200000
0.0071894800000
0.0056781800000
0.0054129700000
0.0058397200000
0.0068407800000
0.0075536700000
0.0071578700000
0.0069319600000
0.0066904600000
0.0058891100000
0.0051146500000
0.0037658700000
0.0016934800000
0.0000332786000
-0.0012322400000
-0.0017509800000
-0.0014798600000
-0.0009845560000
0.0003899900000
0.0013290000000
0.0015381700000
0.0019643300000
0.0031378700000
0.0046331400000
0.0057765400000
0.0054334500000
0.0041158000000
0.0031093100000
0.0015638500000
-0.0001869950000
-0.0011398300000
-0.0014866000000
-0.0014033500000
-0.0007225540000
-0.0004125200000
0.0003500240000
0.0016606100000
0.0017244000000
0.0017491200000
0.0009373950000
-0.0009969240000
-0.0028868700000
-0.0039740700000
-0.0039784700000
-0.0034695500000
-0.0043984900000
-0.0062261000000
-0.0063575600000
-0.0057254700000
-0.0056261400000
-0.0051539800000
-0.0046749400000
-0.0047108900000
-0.0039243900000
-0.0031223900000
-0.0023407200000
-0.0016664400000
-0.0024239400000
-0.0038290300000
-0.0059559900000
-0.0089871700000
-0.0111465000000
-0.0113701000000
-0.0106339000000
-0.0101788000000
-0.0100954000000
-0.0103142000000
-0.0110563000000
-0.0108434000000
-0.0096147600000
-0.0087048400000
-0.0084051200000
-0.0083222700000
-0.0079143100000
-0.0077564400000
-0.0080212100000
-0.0081278000000
-0.0079001800000
-0.0075919200000
-0.0072808800000
-0.0062194400000
-0.0044519700000
-0.0035809100000
-0.0025449600000
-0.0017295500000
-0.0022460600000
-0.0023919500000
-0.0014912400000
-0.0000828508000
0.0012816100000
0.0020062200000
0.0016368000000
0.0016728100000
0.0019601800000
0.0014086400000
0.0005779430000
0.0014388000000
0.0027640900000
0.0038630800000
0.0047108800000
0.0050839600000
0.0056456100000
0.0069475000000
0.0084277500000
0.0086033300000
0.0086932500000
0.0099525900000
0.0105346000000
0.0108583000000
0.0116411000000
0.0107100000000
0.0086013200000
0.0070525300000
0.0058478100000
0.0044906500000
0.0036565300000
0.0029173400000
0.0021636400000
0.0012763500000
-0.0002942370000
-0.0017020600000
-0.0013099500000
0.0001543980000
0.0016943900000
0.0027669300000
0.0035194100000
0.0044298300000
0.0057140300000
0.0065932200000
0.0067983600000
0.0072785300000
0.0077129100000
0.0075682300000
0.0068096400000
0.0049995100000
0.0033236900000
0.0025827200000
0.0020761700000
0.0023981300000
0.0016838400000
-0.0012900200000
-0.0041684300000
-0.0053165600000
-0.0055228600000
-0.0065055100000
-0.0075101600000
-0.0068419900000
-0.0051807300000
-0.0037831700000
-0.0036375600000
-0.0040899000000
-0.0036039600000
-0.0016717400000
0.0010458500000
0.0020961200000
0.0011009600000
-0.0003571500000
-0.0007452090000
0.0002917690000
0.0013413500000
0.0017741300000
0.0017668600000
0.0015940500000
0.0007216110000
-0.0008015450000
-0.0016450000000
-0.0015742800000
-0.0017522500000
-0.0007262120000
0.0018985700000
0.0034285200000
0.0035748300000
0.0040645100000
0.0051838100000
0.0059075400000
0.0055336600000
0.0054433500000
0.0065304000000
0.0070865900000
0.0060348700000
0.0047669100000
0.0051006000000
0.0054196600000
0.0051932500000
0.0048364500000
0.0038468100000
0.0022691500000
0.0018218200000
0.0025639100000
0.0033176600000
0.0039011800000
0.0037906100000
0.0040103800000
0.0050529000000
0.0058608200000
0.0066391900000
0.0077411900000
0.0078384100000
0.0079309100000
0.0076571600000
0.0054608800000
0.0024861500000
0.0006283220000
0.0000422971000
-0.0005794450000
-0.0013087200000
-0.0019657700000
-0.0023706700000
-0.0026560300000
-0.0032270600000
-0.0027535700000
-0.0012085200000
-0.0004290470000
-0.0004470520000
-0.0015194700000
-0.0033170500000
-0.0042085200000
-0.0042602700000
-0.0039701900000
-0.0045987400000
-0.0062831900000
-0.0076534900000
-0.0083888300000
-0.0096418200000
-0.0112883000000
-0.0123133000000
-0.0130235000000
-0.0132080000000
-0.0132478000000
-0.0132133000000
-0.0118690000000
-0.0100181000000
-0.0092283200000
-0.0093175500000
-0.0093818000000
-0.0088608600000
-0.0078157900000
-0.0070122000000
-0.0051534600000
-0.0032677600000
-0.0037752600000
-0.0052559300000
-0.0059833900000
-0.0057566100000
-0.0058286700000
-0.0063907300000
-0.0063828100000
-0.0051660100000
-0.0039509500000
-0.0034706200000
-0.0020956200000
-0.0001145300000
0.0005838700000
-0.0000534113000
-0.0009400900000
-0.0005343890000
0.0009478760000
0.0013120100000
0.0017958100000
0.0024777900000
0.0026902200000
0.0034717300000
0.0050583100000
0.0067062100000
0.0073561500000
0.0077006100000
0.0081365500000
0.0084206700000
0.0074309800000
0.0047805000000
0.0027348800000
0.0017538000000
0.0004870500000
0.0003116370000
0.0008279750000
0.0006279550000
0.0009536420000
0.0016508900000
0.0023537000000
0.0030026200000
0.0030818900000
0.0027333200000
0.0023100800000
0.0013722100000
0.0001566790000
-0.0000633669000
0.0005595630000
0.0011459300000
0.0018599400000
0.0025612000000
0.0031175600000
0.0035939100000
0.0039245500000
0.0050505600000
0.0056929000000
0.0048686100000
0.0039065000000
0.0034829500000
0.0045769300000
0.0057774000000
0.0046997700000
0.0027760400000
0.0021262000000
0.0028153900000
0.0035146300000
0.0033619800000
0.0026188300000
0.0025847300000
0.0038276700000
0.0054604200000
0.0066893800000
0.0069959600000
0.0066864100000
0.0067466500000
0.0059715500000
0.0036347100000
0.0015832800000
0.0008701280000
0.0009047950000
0.0002873780000
-0.0011482700000
-0.0018515100000
-0.0010863000000
-0.0000309634000
0.0003627180000
0.0009457970000
0.0012342500000
0.0007879180000
0.0013926700000
0.0020432800000
0.0009278150000
-0.0004245090000
-0.0006231070000
-0.0002244960000
-0.0002652800000
-0.0003255600000
0.0001199000000
0.0009930120000
0.0021539900000
0.0025492200000
0.0023385600000
0.0020320500000
0.0012056500000
0.0001820780000
-0.0006664010000
-0.0013006000000
-0.0013918700000
-0.0016049600000
-0.0025543400000
-0.0032914500000
-0.0036592100000
-0.0040161400000
-0.0038300300000
-0.0025949800000
-0.0017115200000
-0.0024114200000
-0.0032771100000
-0.0030107700000
-0.0026355600000
-0.0033019100000
-0.0047810300000
-0.0060396600000
-0.0062659800000
-0.0054367900000
-0.0048295000000
-0.0046395900000
-0.0043240000000
-0.0039309500000
-0.0033342500000
-0.0027208500000
-0.0022305400000
-0.0016217300000
-0.0008373640000
-0.0006081780000
-0.0015541300000
-0.0025134400000
-0.0028464300000
-0.0025677000000
-0.0016251600000
-0.0009795450000
-0.0015636300000
-0.0021660900000
-0.0018119200000
-0.0016022700000
-0.0021594500000
-0.0026266900000
-0.0028887000000
-0.0034074100000
-0.0037696400000
-0.0036849900000
-0.0029484900000
-0.0024929200000
-0.0024498100000
-0.0018216200000
-0.0006471100000
0.0004312660000
0.0013030900000
0.0017239400000
0.0014180600000
0.0008783630000
0.0009530580000
0.0015655100000
0.0019389900000
0.0019226700000
0.0015853100000
0.0012577700000
0.0009363420000
0.0005702200000
0.0005884010000
0.0005863340000
0.0000196885000
-0.0005608310000
-0.0007441000000
-0.0007237220000
-0.0010387100000
-0.0016462000000
-0.0021029100000
-0.0018514200000
-0.0011059400000
-0.0006067220000
-0.0003171530000
0.0000133067000
0.0006424470000
0.0016761700000
0.0022427600000
0.0017174300000
0.0011522300000
0.0010484200000
0.0011911900000
0.0013975100000
0.0014185600000
0.0014056800000
0.0015467100000
0.0018723800000
0.0021300600000
0.0021745000000
0.0019595000000
0.0015539700000
0.0013481200000
0.0014178400000
0.0016439900000
0.0016946700000
0.0014971500000
0.0016637800000
0.0022297100000
0.0024585200000
0.0024610700000
0.0026078600000
0.0025528100000
0.0021696800000
0.0017902800000
0.0015117400000
0.0012903300000
0.0011397900000
0.0009424570000
0.0007326810000
0.0004642930000
0.0002058640000
0.0002038200000
0.0001789270000
-0.0000131181000
-0.0000945087000
-0.0000501983000
-0.0000469258000
-0.0001478490000
-0.0002695050000
-0.0002479110000
-0.0000282974000
0.0002094010000
0.0003903380000
0.0005417590000
0.0005159990000
0.0004302760000
0.0004310990000
0.0004485690000
0.0003586390000
0.0001749780000
-0.0000400221000
-0.0001595630000
-0.0002537890000
-0.0004405690000
-0.0005885290000
-0.0005634450000
-0.0005343040000
-0.0005386480000
-0.0004895970000
-0.0003687340000
-0.0001899850000
-0.0000813537000
-0.0000524335000
-0.0000186588000
-0.0000005180730
-0.0000366106000
-0.0000687077000
-0.0000915628000
-0.0001258440000
-0.0001763340000
-0.0002191380000
-0.0001904170000
-0.0002371380000
-0.0004320790000
-0.0006027750000
-0.0006512040000
-0.0006794230000
-0.0007688350000
-0.0008469160000
-0.0008732660000
-0.0008381170000
-0.0007493600000
-0.0006489800000
-0.0005513870000
-0.0004564660000
-0.0003866880000
-0.0003506140000
-0.0003447530000
-0.0003662530000
-0.0003945140000
-0.0004238130000
-0.0004249180000
-0.0003983970000
-0.0003707400000
-0.0003507500000
-0.0003292860000
-0.0002975340000
-0.0002725010000
-0.0002679130000
-0.0002682960000
-0.0002443460000
-0.0002175190000
-0.0002121010000
-0.0002094270000
-0.0001987330000
-0.0001877550000
-0.0001705550000
-0.0001488720000
-0.0001345140000
-0.0001153490000
-0.0000865810000
-0.0000575074000
-0.0000472938000
-0.0000579225000
-0.0000629794000
-0.0000471049000
-0.0000290109000
-0.0000265244000
-0.0000260871000
-0.0000199605000
-0.0000140465000
-0.0000123924000
-0.0000106664000
-0.0000034989800
0.0000053446100
0.0000089267800
0.0000074668500
0.0000032881200
-0.0000030915600
-0.0000081667900
-0.0000088982900
-0.0000070044000
-0.0000041769900
-0.0000007490640
0.0000031467400
0.0000075902700
0.0000115967000
0.0000141421000
0.0000160598000
0.0000185486000
0.0000210074000
0.0000227625000
0.0000239328000
0.0000250440000
0.0000269071000
0.0000292237000
0.0000309353000
0.0000322482000
0.0000337394000
0.0000351904000
0.0000365198000
0.0000378337000
0.0000390876000
0.0000402167000
0.0000412733000
0.0000422576000
0.0000431421000
0.0000439211000
0.0000446382000
0.0000453379000
0.0000460134000
0.0000466417000
0.0000472175000
0.0000477453000
0.0000482292000
0.0000486684000
0.0000490601000
0.0000494028000
0.0000496963000
0.0000000000000
0.0000000000000
0.0000000000000
0.0000000000000
