0.0000077621300
0.0000077866500
0.0000076881200
0.0000077087900
0.0000076057800
0.0000075423100
0.0000075328500
0.0000075234500
0.0000074177800
0.0000073297600
0.0000072555600
0.0000073434500
0.0000072585200
0.0000069553800
0.0000069428800
0.0000068670600
0.0000070380500
0.0000066287100
0.0000067513100
0.0000061683500
0.0000065496600
0.0000063029400
0.0000060342500
0.0000062783500
0.0000059308300
-0.0001590750000
0.0000101276000
0.0000048689000
0.0000091122400
0.0000046288900
0.0000094219900
0.0000027000100
0.0000091643200
0.0000033088400
0.0000092262500
0.0000021918700
0.0000092608300
0.0000009536300
0.0000113497000
0.0000001086960
0.0000119237000
0.0000002572710
0.0000105421000
-0.0000021213900
0.0000134740000
-0.0000023435500
0.0000135462000
-0.0000045529800
0.0000105078000
-0.0000072683600
0.0000147813000
-0.0000059577700
0.0000128398000
-0.0000035141000
0.0000105534000
-0.0000068905300
0.0000006324800
0.0000042572000
0.0000015865900
0.0000032072600
-0.0000016855400
-0.0000023212000
0.0000020976000
0.0000056116500
-0.0000016358500
0.0000071678000
-0.0000022476200
0.0000003042020
-0.0000026192500
0.0000046081000
-0.0000068258400
0.0000026302400
-0.0000077177800
0.0000041941100
-0.0000049743400
0.0000021336000
-0.0000057536300
0.0000000768400
-0.0000124439000
0.0000045441900
-0.0000075465100
0.0000038220600
-0.0000049875000
-0.0000042279500
-0.0000122151000
-0.0000054682900
-0.0000322844000
0.0000150194000
-0.0000223816000
0.0000174817000
-0.0000252962000
0.0000186658000
-0.0000271066000
0.0000199073000
-0.0000346480000
0.0000189193000
-0.0000396275000
0.0000206235000
-0.0000292778000
0.0000225463000
-0.0000389518000
0.0000320258000
-0.0000295609000
0.0000127200000
-0.0000399552000
0.0000307428000
-0.0000396315000
0.0000260313000
-0.0000457427000
0.0000200759000
-0.0000360097000
0.0000246940000
-0.0000408442000
0.0000285396000
-0.0000625668000
0.0000339235000
-0.0000455054000
0.0000253411000
0.0000006274170
-0.0000212387000
0.0000065311800
-0.0000264004000
0.0000139914000
-0.0000265184000
-0.0000090916700
-0.0000229056000
-0.0000007250150
-0.0000283034000
0.0000028124700
-0.0000130511000
0.0000080988700
-0.0000336568000
-0.0000018395900
-0.0000283316000
-0.0000065717900
-0.0000303175000
0.0000180609000
-0.0000370836000
-0.0000087860500
-0.0000161689000
0.0000167915000
-0.0000234324000
-0.0000006145210
-0.0000599804000
0.0000336144000
-0.0000410116000
0.0000034019700
-0.0000323895000
0.0000365158000
-0.0000756137000
0.0000431058000
-0.0000583445000
0.0000307039000
-0.0000784990000
0.0000379988000
-0.0000733129000
0.0000757565000
-0.0000864016000
0.0000492203000
-0.0000933271000
0.0000485144000
-0.0000748320000
0.0000563480000
-0.0000926085000
0.0000549765000
-0.0000953304000
0.0000496782000
-0.0000586786000
0.0000516646000
-0.0000963087000
0.0000541560000
-0.0001016960000
0.0000390357000
-0.0000753825000
0.0000481459000
-0.0000722692000
0.0000426894000
-0.0000959248000
-0.0000735993000
0.0000197623000
-0.0000491633000
0.0000020643800
-0.0000524637000
0.0000083683600
-0.0000684529000
0.0000373781000
-0.0000557226000
0.0000024083700
-0.0000658871000
0.0000198600000
-0.0000417380000
-0.0000061447300
-0.0000698766000
0.0000047075600
-0.0000543682000
0.0000028342700
-0.0000321965000
-0.0000049688500
-0.0000418920000
0.0000034932300
-0.0000501650000
0.0000121364000
-0.0000355190000
0.0000033062000
-0.0000730072000
0.0000266157000
-0.0000615442000
0.0000305740000
-0.0000499322000
0.0000505899000
-0.0001060690000
0.0000706167000
-0.0001075820000
0.0000820989000
-0.0001082960000
0.0000525114000
-0.0000839842000
0.0000806049000
-0.0001112100000
0.0000869968000
-0.0000966681000
0.0000448274000
-0.0001165620000
0.0000604286000
-0.0000850479000
0.0000766161000
-0.0001411230000
0.0000926648000
-0.0001020460000
0.0000704693000
-0.0001263090000
0.0000651943000
-0.0001068250000
0.0000512723000
-0.0000954963000
0.0000756404000
-0.0001399350000
0.0000959519000
-0.0001015150000
-0.0000462911000
0.0000375801000
-0.0000463729000
0.0000448644000
-0.0000521565000
0.0000521612000
-0.0000502895000
0.0000333873000
-0.0000799885000
0.0000459511000
-0.0000341696000
0.0000336519000
-0.0000495041000
0.0000634755000
-0.0000514652000
0.0000560810000
-0.0000787183000
0.0000646838000
-0.0001324990000
0.0000346049000
-0.0000606395000
0.0000589022000
-0.0000781123000
0.0000843453000
-0.0000770006000
0.0000255510000
-0.0000731631000
0.0000433299000
-0.0000972996000
0.0000265718000
-0.0000812694000
0.0000882131000
-0.0001088140000
0.0000821328000
-0.0000822703000
0.0000787478000
-0.0001215310000
0.0000589252000
-0.0001123700000
0.0001018910000
-0.0001087690000
0.0000817160000
-0.0000959554000
0.0000804727000
-0.0001400010000
0.0000887656000
-0.0000742334000
0.0000782369000
-0.0001134280000
0.0001021640000
-0.0001137630000
0.0001189320000
-0.0000963760000
0.0000567019000
-0.0000913356000
0.0000806273000
-0.0000518191000
0.0000949389000
-0.0000666188000
0.0000755033000
-0.0000592468000
-0.0000233793000
0.0000905649000
-0.0000694048000
0.0000463825000
-0.0000337006000
0.0000827044000
-0.0000803999000
0.0000814565000
-0.0000738776000
0.0000701521000
-0.0000244413000
0.0000782829000
-0.0000512189000
0.0000498171000
-0.0000594868000
0.0000555314000
-0.0000956180000
0.0000885560000
-0.0000452106000
0.0000639136000
-0.0000247915000
0.0000332586000
-0.0001007410000
0.0001063610000
-0.0000435077000
0.0000974562000
-0.0000732564000
0.0000581419000
-0.0000315925000
0.0000694184000
-0.0000640835000
0.0001078570000
-0.0000977450000
0.0000955783000
-0.0000900703000
0.0001250990000
-0.0001017610000
0.0001246320000
-0.0000794773000
0.0001030020000
-0.0000820320000
0.0000845902000
-0.0000664435000
0.0000920307000
-0.0000849208000
0.0000926844000
-0.0000345749000
0.0001136140000
-0.0000705200000
0.0001148950000
-0.0000872427000
0.0001382380000
-0.0001110440000
0.0001208700000
-0.0001045910000
0.0000747057000
-0.0000548087000
0.0001289360000
-0.0000589563000
0.0000891924000
-0.0000745664000
0.0001158420000
0.0000747695000
-0.0000566430000
0.0001053570000
-0.0000436890000
0.0000855930000
-0.0000484625000
0.0000839265000
-0.0000959732000
0.0000938074000
-0.0000316458000
0.0001077870000
-0.0000546950000
0.0000761271000
-0.0000453058000
0.0000525971000
-0.0000317246000
0.0000918551000
-0.0000416266000
0.0001000080000
-0.0000505373000
0.0000723691000
-0.0000361094000
0.0000945281000
-0.0000708952000
0.0000970119000
-0.0000625810000
0.0000874224000
-0.0000193603000
0.0000932891000
-0.0000801275000
0.0001187840000
-0.0000470749000
0.0001316680000
-0.0000652578000
0.0001028880000
-0.0000311488000
0.0000769026000
-0.0000498131000
0.0001001930000
-0.0000257736000
0.0001129760000
-0.0001016740000
0.0001116600000
-0.0000643722000
0.0001058740000
-0.0000561897000
0.0001080590000
-0.0000431735000
0.0000821706000
-0.0000548369000
0.0000855424000
-0.0000654504000
0.0001059430000
-0.0000562929000
0.0001111150000
-0.0000433261000
0.0000892245000
-0.0000680183000
0.0001255960000
-0.0000701359000
0.0000870841000
0.0000745103000
-0.0000085523300
0.0000855407000
-0.0000436487000
0.0000908253000
-0.0000425793000
0.0001019660000
-0.0000167713000
0.0000947494000
-0.0000428247000
0.0000978737000
-0.0000557736000
0.0000831924000
-0.0000295983000
0.0000911881000
-0.0000366236000
0.0000723370000
-0.0000532933000
0.0001086210000
-0.0000005848280
0.0000682490000
-0.0000612935000
0.0001126390000
-0.0000304525000
0.0000905472000
-0.0000164998000
0.0001162600000
-0.0000159347000
0.0000959298000
-0.0000529658000
0.0000871532000
-0.0000726306000
0.0000995963000
-0.0000455249000
0.0000946495000
-0.0000335115000
0.0000895797000
-0.0000703348000
0.0001228440000
-0.0000694057000
0.0000901140000
-0.0000143355000
0.0000778789000
-0.0000591573000
0.0000832615000
-0.0000548700000
0.0001114310000
-0.0000400309000
0.0000704664000
-0.0000546520000
0.0001096610000
-0.0000865956000
0.0001091180000
-0.0000027331100
0.0001075360000
-0.0000301089000
0.0001262350000
-0.0000624971000
0.0001023540000
-0.0000734163000
0.0001396630000
0.0000854182000
-0.0000392943000
0.0000976209000
-0.0000633818000
0.0001018970000
-0.0000643347000
0.0001041230000
-0.0000523751000
0.0000852737000
-0.0000054402700
0.0000530681000
-0.0000451306000
0.0001032420000
-0.0000671612000
0.0001582010000
-0.0000458525000
0.0000909184000
-0.0000318590000
0.0001534870000
-0.0000098165200
0.0001565460000
0.0000378968000
0.0001600140000
0.0000443013000
0.0001912710000
0.0001358870000
0.0002440610000
0.0001652330000
0.0000808852000
-0.0000675344000
0.0001628850000
-0.0000046468300
0.0001228410000
-0.0000364206000
-0.0000399143000
0.0003717410000
0.0019839400000
0.0025479800000
0.0028756000000
0.0036627200000
0.0042058400000
0.0030938000000
0.0023799100000
-0.0002686180000
-0.0032138800000
-0.0048152100000
-0.0038576800000
-0.0023970200000
-0.0013306600000
0.0021030900000
0.0047606800000
0.0019010500000
0.0038554500000
0.0034465400000
0.0001880410000
-0.0044427000000
-0.0103851000000
-0.0132417000000
-0.0126767000000
-0.0112677000000
-0.0093191300000
-0.0083233400000
-0.0054514300000
0.0009636500000
0.0055569200000
0.0069771600000
0.0072853800000
0.0029585800000
-0.0120246000000
-0.0223274000000
-0.0194370000000
-0.0169936000000
-0.0227848000000
-0.0119285000000
-0.0012758600000
0.0102868000000
0.0312629000000
0.0308966000000
0.0025069000000
-0.0152594000000
-0.0265191000000
-0.0326953000000
-0.0282502000000
-0.0175349000000
-0.0115796000000
-0.0051320600000
0.0038875100000
0.0130811000000
0.0231353000000
0.0142840000000
-0.0105107000000
-0.0214939000000
-0.0218438000000
-0.0205820000000
-0.0152352000000
0.0044237200000
0.0120328000000
0.0001116400000
-0.0013088500000
0.0173118000000
0.0293201000000
0.0318636000000
0.0378079000000
0.0259074000000
0.0105055000000
0.0019680500000
-0.0080914200000
-0.0265863000000
-0.0403146000000
-0.0389519000000
-0.0227876000000
0.0117839000000
0.0392728000000
0.0506516000000
0.0514308000000
0.0643554000000
0.0603932000000
0.0237525000000
0.0001487470000
-0.0104666000000
-0.0212299000000
-0.0191158000000
-0.0151259000000
-0.0220928000000
-0.0255234000000
-0.0134277000000
-0.0083266900000
0.0063588500000
0.0083401700000
-0.0073686600000
-0.0142436000000
-0.0162199000000
-0.0164532000000
-0.0116378000000
-0.0174971000000
-0.0209725000000
-0.0063560700000
0.0144344000000
0.0376099000000
0.0486858000000
0.0482444000000
0.0594038000000
0.0628052000000
0.0371253000000
0.0084686700000
-0.0132000000000
-0.0255460000000
-0.0335612000000
-0.0405657000000
-0.0355774000000
-0.0242255000000
-0.0081360500000
0.0173908000000
0.0275265000000
0.0397709000000
0.0454231000000
0.0377779000000
0.0220702000000
0.0267512000000
0.0274765000000
0.0070233900000
0.0059500900000
0.0107739000000
0.0103433000000
0.0226747000000
0.0250649000000
0.0155897000000
0.0161061000000
0.0149141000000
0.0059627500000
0.0160752000000
0.0224820000000
0.0077775500000
0.0004092550000
0.0048854900000
-0.0032857300000
-0.0070044500000
-0.0033265100000
-0.0129970000000
-0.0171464000000
-0.0098800100000
-0.0180918000000
-0.0223078000000
-0.0196352000000
-0.0227895000000
-0.0324928000000
-0.0279113000000
-0.0233717000000
-0.0217017000000
-0.0111992000000
0.0025081900000
0.0033255200000
0.0116667000000
0.0155152000000
0.0034325600000
0.0046052500000
0.0131561000000
0.0179896000000
0.0216336000000
0.0270692000000
0.0318940000000
0.0353595000000
0.0241808000000
0.0021179000000
-0.0155151000000
-0.0271513000000
-0.0401790000000
-0.0479791000000
-0.0498931000000
-0.0431143000000
-0.0244903000000
-0.0073007500000
0.0123314000000
0.0224380000000
0.0241022000000
0.0320037000000
0.0334407000000
0.0139993000000
-0.0058392400000
-0.0099716400000
-0.0144526000000
-0.0114437000000
0.0029286100000
0.0096351600000
0.0116934000000
0.0250510000000
0.0261857000000
0.0244830000000
0.0316308000000
0.0149339000000
-0.0061410000000
-0.0072006900000
-0.0119124000000
-0.0240948000000
-0.0316207000000
-0.0421055000000
-0.0562721000000
-0.0587366000000
-0.0581969000000
-0.0450228000000
-0.0238562000000
-0.0039486100000
0.0185035000000
0.0293802000000
0.0285628000000
0.0278624000000
0.0232204000000
0.0069973800000
-0.0025305600000
-0.0112542000000
-0.0157374000000
-0.0117096000000
-0.0063584300000
0.0003761440000
0.0063383100000
0.0075750100000
0.0071087800000
0.0093594500000
0.0042886600000
-0.0007814120000
0.0028615300000
0.0043090600000
0.0116123000000
0.0191336000000
0.0253434000000
0.0237465000000
0.0245616000000
0.0286614000000
0.0208400000000
0.0048794400000
-0.0045495000000
-0.0258338000000
-0.0473673000000
-0.0462951000000
-0.0536222000000
-0.0583145000000
-0.0495215000000
-0.0479793000000
-0.0432296000000
-0.0192169000000
0.0138090000000
0.0265514000000
0.0259578000000
0.0280362000000
0.0227187000000
0.0174088000000
0.0129225000000
-0.0020131900000
-0.0105861000000
-0.0145036000000
-0.0209741000000
-0.0276145000000
-0.0266345000000
-0.0216306000000
-0.0179561000000
0.0014264200000
0.0205358000000
0.0197981000000
0.0129184000000
0.0204344000000
0.0163714000000
0.0087067700000
0.0115774000000
-0.0032602000000
-0.0153792000000
-0.0102284000000
-0.0123486000000
-0.0212041000000
-0.0151050000000
-0.0204084000000
-0.0251889000000
-0.0147208000000
0.0088341500000
0.0142224000000
0.0141914000000
0.0380153000000
0.0440051000000
0.0393428000000
0.0486589000000
0.0450690000000
0.0344059000000
0.0348842000000
0.0338108000000
0.0199920000000
0.0025641600000
-0.0085413600000
-0.0242058000000
-0.0272281000000
-0.0254121000000
-0.0313091000000
-0.0150122000000
0.0035892300000
0.0092072100000
0.0349439000000
0.0459557000000
0.0145554000000
0.0043936100000
-0.0046039800000
-0.0195010000000
-0.0169201000000
-0.0142670000000
-0.0186973000000
-0.0134769000000
-0.0105301000000
-0.0258594000000
-0.0210899000000
-0.0165421000000
-0.0344214000000
-0.0248087000000
-0.0123383000000
-0.0176915000000
-0.0181292000000
-0.0184217000000
-0.0214550000000
-0.0247105000000
-0.0287477000000
-0.0278175000000
-0.0242349000000
-0.0272438000000
-0.0181348000000
-0.0142455000000
-0.0190827000000
-0.0093723000000
0.0044849100000
0.0047219700000
0.0059431200000
-0.0108216000000
-0.0388386000000
-0.0385149000000
-0.0305594000000
-0.0222757000000
-0.0127619000000
0.0011022600000
0.0013230400000
0.0109976000000
0.0191680000000
0.0134016000000
-0.0035570700000
-0.0072710900000
-0.0019791800000
0.0074695300000
0.0127644000000
0.0097618600000
0.0099920700000
0.0015936200000
-0.0002793910000
0.0009882970000
-0.0017586000000
-0.0022768400000
0.0053779100000
-0.0032816000000
-0.0176421000000
-0.0201712000000
-0.0340009000000
-0.0499703000000
-0.0469381000000
-0.0542645000000
-0.0526974000000
-0.0330517000000
-0.0274717000000
-0.0121783000000
0.0113831000000
0.0438008000000
0.0286401000000
0.0411941000000
0.0565193000000
0.0317867000000
0.0068653100000
-0.0094439900000
-0.0231763000000
-0.0227624000000
-0.0107323000000
-0.0015370100000
-0.0117833000000
-0.0213912000000
-0.0211315000000
-0.0417993000000
-0.0580285000000
-0.0641571000000
-0.0827024000000
-0.0954730000000
-0.0876859000000
-0.0945350000000
-0.1127690000000
-0.1162110000000
-0.1171250000000
-0.1093730000000
-0.1092320000000
-0.1011190000000
-0.1009050000000
-0.1112950000000
-0.1025370000000
-0.1026860000000
-0.1167790000000
-0.1294900000000
-0.1403170000000
-0.1557540000000
-0.1637720000000
-0.1655160000000
-0.1762280000000
-0.1844720000000
-0.1856950000000
-0.1921120000000
-0.1952450000000
-0.1971480000000
-0.2014630000000
-0.1934890000000
-0.1583560000000
-0.1091200000000
-0.0419578000000
0.0390613000000
0.0715652000000
0.0776116000000
0.1285080000000
0.1622810000000
0.1798200000000
0.2137740000000
0.2299190000000
0.2246910000000
0.2358930000000
0.2766460000000
0.2998730000000
0.2969100000000
0.2982180000000
0.3142400000000
0.2889470000000
0.2472580000000
0.2395580000000
0.1997720000000
0.1490430000000
0.1237520000000
0.0818940000000
0.0537020000000
0.0663385000000
0.0411954000000
0.0110412000000
-0.0014588100000
-0.0131630000000
-0.0110171000000
0.0192275000000
0.0522249000000
0.1058200000000
0.1919430000000
0.2602960000000
0.2781380000000
0.2928960000000
0.3316200000000
0.3293050000000
0.2946890000000
0.2862080000000
0.2833240000000
0.2656880000000
0.2513590000000
0.2417580000000
0.2059850000000
0.1693590000000
0.1439300000000
0.1128890000000
0.0892014000000
0.0621951000000
0.0406533000000
0.0387320000000
0.0395446000000
0.0315790000000
0.0320622000000
0.0249749000000
0.0151476000000
-0.0023404400000
-0.0237716000000
-0.0282544000000
-0.0451137000000
-0.0649819000000
-0.0837585000000
-0.1158380000000
-0.1610990000000
-0.2016260000000
-0.2367010000000
-0.2798610000000
-0.3046150000000
-0.3159940000000
-0.3253840000000
-0.3213920000000
-0.2968140000000
-0.2804660000000
-0.2579860000000
-0.2247630000000
-0.1583330000000
-0.1293870000000
-0.1446880000000
-0.1275520000000
-0.1042890000000
-0.1264160000000
-0.1454850000000
-0.1455780000000
-0.1176530000000
-0.0713888000000
-0.0299744000000
-0.0079260200000
-0.0077693900000
-0.0150285000000
-0.0214298000000
-0.0234523000000
-0.0102354000000
0.0376101000000
0.1125710000000
0.1882110000000
0.2645140000000
0.3278050000000
0.3725510000000
0.3890030000000
0.3619550000000
0.3346420000000
0.3253490000000
0.2952870000000
0.2692650000000
0.2349770000000
0.2388470000000
0.2324310000000
0.1997660000000
0.1700450000000
0.1481530000000
0.1296510000000
0.1001590000000
0.0731266000000
0.0403703000000
-0.0201655000000
-0.0696458000000
-0.0994723000000
-0.1508040000000
-0.2268420000000
-0.2763840000000
-0.3222260000000
-0.3753870000000
-0.4125410000000
-0.4399610000000
-0.4744160000000
-0.4959070000000
-0.4983460000000
-0.4992100000000
-0.4976600000000
-0.4753000000000
-0.4155210000000
-0.3085910000000
-0.1290390000000
-0.0109974000000
0.2703490000000
0.4288900000000
0.3792610000000
0.2991830000000
0.3739180000000
0.5172330000000
0.6435820000000
0.7275810000000
0.7012340000000
0.5511970000000
0.3910250000000
0.3092880000000
0.2602490000000
0.1975840000000
0.0424891000000
-0.1229670000000
-0.2882420000000
-0.4184150000000
-0.4007620000000
-0.3235270000000
-0.3311570000000
-0.3957820000000
-0.4010220000000
-0.3477470000000
-0.2957460000000
-0.2709670000000
-0.2398970000000
-0.2081520000000
-0.1623510000000
-0.0912549000000
-0.0583683000000
-0.0195815000000
0.0211637000000
0.0887898000000
0.1375000000000
0.1251090000000
0.0725533000000
-0.0015815700000
-0.1098050000000
-0.2222140000000
-0.2913820000000
-0.3167040000000
-0.3314560000000
-0.3621850000000
-0.3832700000000
-0.3850840000000
-0.3810150000000
-0.3822140000000
-0.3840910000000
-0.3909430000000
-0.3965490000000
-0.3786380000000
-0.3317760000000
-0.2676760000000
-0.2000490000000
-0.1403650000000
-0.0761827000000
-0.0118817000000
0.0327262000000
0.0558168000000
0.0672410000000
0.0956335000000
0.1233150000000
0.1719590000000
0.2674070000000
0.3682770000000
0.4395640000000
0.4622890000000
0.4210240000000
0.3753490000000
0.3710590000000
0.3838280000000
0.4000420000000
0.4199300000000
0.3871160000000
0.2845490000000
0.1907390000000
0.1245240000000
0.0610653000000
-0.0038689900000
-0.0428583000000
-0.0505086000000
-0.0694515000000
-0.0611658000000
-0.0086653000000
0.0528095000000
0.0911738000000
0.0866183000000
0.0382345000000
0.0150100000000
0.0146708000000
0.0085871300000
-0.0111893000000
-0.0428742000000
-0.1007630000000
-0.1586730000000
-0.1787210000000
-0.1735640000000
-0.1658620000000
-0.1610770000000
-0.1605990000000
-0.1487560000000
-0.1312530000000
-0.1148870000000
-0.0841550000000
-0.0461104000000
-0.0115531000000
0.0240456000000
0.0514285000000
0.0518747000000
0.0419857000000
0.0371392000000
0.0264354000000
0.0041948400000
-0.0229569000000
-0.0492265000000
-0.0742526000000
-0.1008590000000
-0.1198100000000
-0.1268150000000
-0.1204320000000
-0.1166540000000
-0.1007600000000
-0.0531747000000
0.0308388000000
0.1285590000000
0.2072880000000
0.2751700000000
0.3215080000000
0.3536000000000
0.3985230000000
0.4408030000000
0.4405980000000
0.4198240000000
0.4025590000000
0.3835390000000
0.3683700000000
0.3534610000000
0.3323100000000
0.2784700000000
0.1980050000000
0.0937535000000
-0.0236837000000
-0.1229950000000
-0.1810410000000
-0.1968880000000
-0.2016250000000
-0.2259620000000
-0.2651880000000
-0.2578950000000
-0.2064880000000
-0.1706080000000
-0.1603010000000
-0.1484860000000
-0.1387990000000
-0.1348350000000
-0.1302280000000
-0.1241670000000
-0.1312520000000
-0.1451690000000
-0.1458580000000
-0.1483150000000
-0.1606930000000
-0.1725430000000
-0.1719000000000
-0.1699410000000
-0.1688750000000
-0.1411520000000
-0.1000870000000
-0.0580243000000
-0.0031939300000
0.0622484000000
0.0953304000000
0.1086440000000
0.1381690000000
0.1740280000000
0.1800040000000
0.1694190000000
0.1605180000000
0.1481700000000
0.1465320000000
0.1414220000000
0.1201080000000
0.1127910000000
0.1208700000000
0.1273510000000
0.1039690000000
0.0856494000000
0.0791217000000
0.0671647000000
0.0592517000000
0.0431347000000
0.0188795000000
0.0215705000000
0.0254587000000
0.0070887600000
-0.0067250900000
-0.0152200000000
-0.0382419000000
-0.0662749000000
-0.0806371000000
-0.0947508000000
-0.1156720000000
-0.1261700000000
-0.1250210000000
-0.1195450000000
-0.1118600000000
-0.0809434000000
-0.0301393000000
0.0168739000000
0.0657318000000
0.1048300000000
0.1122110000000
0.1052400000000
0.0967979000000
0.0907338000000
0.0708909000000
0.0430644000000
0.0114192000000
-0.0277031000000
-0.0651989000000
-0.0846476000000
-0.1084040000000
-0.1321190000000
-0.1453570000000
-0.1522240000000
-0.1480230000000
-0.1308860000000
-0.1033490000000
-0.0672853000000
-0.0155363000000
0.0485290000000
0.0977363000000
0.1181970000000
0.1404170000000
0.1761350000000
0.1878720000000
0.1778630000000
0.1702260000000
0.1515500000000
0.1152880000000
0.0688720000000
0.0298644000000
0.0040941500000
-0.0075718400000
-0.0270012000000
-0.0387314000000
-0.0362166000000
-0.0303646000000
-0.0129814000000
0.0263578000000
0.0585337000000
0.0674620000000
0.0654440000000
0.0655306000000
0.0703243000000
0.0810385000000
0.0797432000000
0.0628749000000
0.0488209000000
0.0579483000000
0.0707355000000
0.0652365000000
0.0691534000000
0.0700013000000
0.0691578000000
0.0882792000000
0.1097610000000
0.1115250000000
0.1049960000000
0.1061410000000
0.1036070000000
0.0876250000000
0.0581022000000
0.0435483000000
0.0286633000000
0.0135725000000
-0.0160108000000
-0.0465867000000
-0.0703281000000
-0.0840288000000
-0.0972038000000
-0.1112760000000
-0.1259060000000
-0.1278500000000
-0.1256670000000
-0.1002920000000
-0.1010780000000
-0.0824630000000
-0.0504363000000
-0.0608963000000
-0.0391593000000
-0.0051660000000
0.0223112000000
0.0552605000000
0.0850907000000
0.1165550000000
0.1378770000000
0.1465470000000
0.1492450000000
0.1319410000000
0.1171700000000
0.0960734000000
0.0649191000000
0.0325609000000
0.0177817000000
-0.0084085500000
-0.0304049000000
-0.0469795000000
-0.0505677000000
-0.0614415000000
-0.0809238000000
-0.0757976000000
-0.0692780000000
-0.0824599000000
-0.0891642000000
-0.0850545000000
-0.0935059000000
-0.1062450000000
-0.1061770000000
-0.1080620000000
-0.1008200000000
-0.0609985000000
-0.0402497000000
-0.0232100000000
0.0159407000000
0.0406499000000
0.0721017000000
0.0924381000000
0.0864905000000
0.0825140000000
0.1029920000000
0.1090510000000
0.1021190000000
0.0853991000000
0.0679706000000
0.0482268000000
0.0264723000000
0.0164315000000
0.0159350000000
0.0078675100000
-0.0162144000000
-0.0030904600000
0.0156651000000
0.0045774000000
-0.0034809000000
0.0015171200000
-0.0020810700000
-0.0049370000000
-0.0060390300000
-0.0227800000000
-0.0464183000000
-0.0618800000000
-0.0734513000000
-0.0929976000000
-0.1181930000000
-0.1288570000000
-0.1323700000000
-0.1311770000000
-0.1196320000000
-0.1069910000000
-0.0916951000000
-0.0657723000000
-0.0386922000000
-0.0274707000000
-0.0340239000000
-0.0340919000000
-0.0227977000000
-0.0226405000000
-0.0390638000000
-0.0468972000000
-0.0420507000000
-0.0279468000000
0.0012388500000
0.0361077000000
0.0733183000000
0.1121720000000
0.1340570000000
0.1453040000000
0.1595730000000
0.1609630000000
0.1426280000000
0.1044580000000
0.0543378000000
-0.0065828900000
-0.0699761000000
-0.0974147000000
-0.1106140000000
-0.1246770000000
-0.1390710000000
-0.1642190000000
-0.1722550000000
-0.1518250000000
-0.1353300000000
-0.1339370000000
-0.1284160000000
-0.1074410000000
-0.0810618000000
-0.0674688000000
-0.0584187000000
-0.0635555000000
-0.0683460000000
-0.0719738000000
-0.0805253000000
-0.0920263000000
-0.1079800000000
-0.1100820000000
-0.1010980000000
-0.0977563000000
-0.0970320000000
-0.0875119000000
-0.0766855000000
-0.0626777000000
-0.0597634000000
-0.0630195000000
-0.0637581000000
-0.0565676000000
-0.0582929000000
-0.0625978000000
-0.0643904000000
-0.0672922000000
-0.0739338000000
-0.0728109000000
-0.0602740000000
-0.0488510000000
-0.0363276000000
-0.0137203000000
0.0127200000000
0.0270625000000
0.0513748000000
0.0734679000000
0.0904071000000
0.0995662000000
0.1027240000000
0.1017980000000
0.0957710000000
0.0825691000000
0.0650768000000
0.0509172000000
0.0436755000000
0.0400430000000
0.0373468000000
0.0455936000000
0.0624294000000
0.0758125000000
0.0870993000000
0.1039070000000
0.1143970000000
0.1190180000000
0.1282500000000
0.1372550000000
0.1414780000000
0.1395680000000
0.1340090000000
0.1273660000000
0.1169000000000
0.1062580000000
0.0988365000000
0.0884606000000
0.0827739000000
0.0798264000000
0.0786411000000
0.0680639000000
0.0573868000000
0.0555259000000
0.0552007000000
0.0481226000000
0.0386771000000
0.0267274000000
0.0080008500000
-0.0119250000000
-0.0280746000000
-0.0446426000000
-0.0665747000000
-0.0868056000000
-0.1027480000000
-0.1125140000000
-0.1168490000000
-0.1170050000000
-0.1119250000000
-0.0979428000000
-0.0775959000000
-0.0583739000000
-0.0390949000000
-0.0183215000000
0.0043077100000
0.0233549000000
0.0383246000000
0.0534495000000
0.0611487000000
0.0735061000000
0.0713956000000
0.0559382000000
0.0457554000000
0.0444336000000
0.0332614000000
0.0209494000000
0.0182656000000
0.0169718000000
0.0139471000000
0.0193603000000
0.0268111000000
0.0353342000000
0.0453049000000
0.0461463000000
0.0440637000000
0.0445223000000
0.0443493000000
0.0399786000000
0.0325696000000
0.0248008000000
0.0102208000000
-0.0076820700000
-0.0210100000000
-0.0305221000000
-0.0424558000000
-0.0595862000000
-0.0695616000000
-0.0778728000000
-0.0837420000000
-0.0945144000000
-0.1049430000000
-0.1139600000000
-0.1202930000000
-0.1298200000000
-0.1352140000000
-0.1363560000000
-0.1405630000000
-0.1410860000000
-0.1319720000000
-0.1206280000000
-0.1171990000000
-0.1173510000000
-0.1160150000000
-0.1184190000000
-0.1211220000000
-0.1199380000000
-0.1170540000000
-0.1109340000000
-0.0954001000000
-0.0709298000000
-0.0464676000000
-0.0218467000000
0.0035862100000
0.0233670000000
0.0365578000000
0.0446764000000
0.0474133000000
0.0450553000000
0.0430154000000
0.0367625000000
0.0262511000000
0.0153654000000
0.0077644800000
0.0038242400000
-0.0022303400000
-0.0094640300000
-0.0093833300000
-0.0066810400000
-0.0092420600000
-0.0100814000000
-0.0065221500000
0.0014303100000
0.0118561000000
0.0172846000000
0.0171337000000
0.0177707000000
0.0164004000000
0.0071837100000
-0.0020301600000
-0.0064713000000
-0.0114748000000
-0.0209060000000
-0.0288267000000
-0.0369378000000
-0.0486079000000
-0.0579658000000
-0.0633846000000
-0.0762309000000
-0.0954727000000
-0.1067050000000
-0.1094000000000
-0.1176780000000
-0.1261810000000
-0.1288300000000
-0.1254900000000
-0.1186480000000
-0.1091370000000
-0.0947725000000
-0.0794890000000
-0.0641934000000
-0.0491084000000
-0.0392155000000
-0.0288613000000
-0.0156760000000
-0.0076201000000
-0.0034646600000
0.0045381500000
0.0116359000000
0.0134825000000
0.0135207000000
0.0104942000000
0.0102033000000
0.0135821000000
0.0118377000000
0.0123993000000
0.0219756000000
0.0273001000000
0.0243718000000
0.0233582000000
0.0284563000000
0.0305845000000
0.0315248000000
0.0302632000000
0.0283050000000
0.0252323000000
0.0203244000000
0.0112251000000
-0.0044954500000
-0.0227612000000
-0.0374287000000
-0.0519194000000
-0.0705141000000
-0.0781955000000
-0.0759276000000
-0.0776998000000
-0.0755278000000
-0.0619226000000
-0.0473165000000
-0.0349448000000
-0.0177233000000
0.0024226100000
0.0165846000000
0.0264942000000
0.0378978000000
0.0499382000000
0.0579776000000
0.0663189000000
0.0748462000000
0.0730813000000
0.0665407000000
0.0635205000000
0.0566048000000
0.0473440000000
0.0437840000000
0.0457206000000
0.0415667000000
0.0381892000000
0.0433677000000
0.0457614000000
0.0445013000000
0.0441080000000
0.0371812000000
0.0240627000000
0.0095220000000
-0.0061477000000
-0.0216723000000
-0.0319036000000
-0.0426492000000
-0.0523477000000
-0.0574996000000
-0.0610569000000
-0.0652712000000
-0.0692552000000
-0.0688200000000
-0.0675215000000
-0.0672731000000
-0.0624533000000
-0.0545091000000
-0.0456204000000
-0.0319575000000
-0.0156828000000
-0.0082023300000
0.0070741800000
0.0251659000000
0.0445663000000
0.0582620000000
0.0734080000000
0.0909974000000
0.1048200000000
0.1181160000000
0.1315030000000
0.1415410000000
0.1511810000000
0.1614870000000
0.1654960000000
0.1590320000000
0.1454310000000
0.1249910000000
0.0998967000000
0.0698262000000
0.0322772000000
-0.0087104600000
-0.0418323000000
-0.0562878000000
-0.0683586000000
-0.0879162000000
-0.1006530000000
-0.1012890000000
-0.0926881000000
-0.0842122000000
-0.0794631000000
-0.0766721000000
-0.0697715000000
-0.0607800000000
-0.0539390000000
-0.0473925000000
-0.0317465000000
-0.0097636800000
0.0132810000000
0.0387942000000
0.0599168000000
0.0780179000000
0.0954467000000
0.1155930000000
0.1287110000000
0.1325500000000
0.1437550000000
0.1586060000000
0.1636490000000
0.1629820000000
0.1636050000000
0.1613560000000
0.1561970000000
0.1529010000000
0.1471500000000
0.1359860000000
0.1241920000000
0.1132400000000
0.0990416000000
0.0828574000000
0.0684318000000
0.0534715000000
0.0456023000000
0.0304267000000
0.0125390000000
-0.0051336300000
-0.0186480000000
-0.0326967000000
-0.0445346000000
-0.0506557000000
-0.0563563000000
-0.0616540000000
-0.0620279000000
-0.0608564000000
-0.0623493000000
-0.0648633000000
-0.0619844000000
-0.0562560000000
-0.0466649000000
-0.0290680000000
-0.0149329000000
-0.0087752200000
-0.0007751870000
0.0067504000000
0.0093871800000
0.0130591000000
0.0175555000000
0.0197408000000
0.0226396000000
0.0267233000000
0.0332307000000
0.0415089000000
0.0468372000000
0.0469951000000
0.0458060000000
0.0476553000000
0.0467560000000
0.0408955000000
0.0363338000000
0.0352264000000
0.0308006000000
0.0246377000000
0.0211222000000
0.0181491000000
0.0120127000000
0.0047934400000
-0.0025401500000
-0.0118393000000
-0.0198987000000
-0.0285097000000
-0.0381049000000
-0.0482188000000
-0.0568033000000
-0.0615100000000
-0.0634636000000
-0.0652339000000
-0.0698597000000
-0.0759037000000
-0.0808518000000
-0.0866569000000
-0.0905111000000
-0.0910215000000
-0.0935038000000
-0.0953813000000
-0.0952194000000
-0.0954677000000
-0.0977922000000
-0.1008290000000
-0.0998973000000
-0.0952361000000
-0.0900338000000
-0.0864713000000
-0.0770511000000
-0.0598342000000
-0.0431667000000
-0.0254851000000
-0.0044747000000
0.0147278000000
0.0335405000000
0.0471756000000
0.0560308000000
0.0654236000000
0.0729527000000
0.0763818000000
0.0765187000000
0.0757886000000
0.0768526000000
0.0740436000000
0.0662253000000
0.0562069000000
0.0469320000000
0.0407006000000
0.0387767000000
0.0378134000000
0.0369190000000
0.0366560000000
0.0392586000000
0.0473866000000
0.0494458000000
0.0501699000000
0.0516593000000
0.0476240000000
0.0464913000000
0.0514920000000
0.0568644000000
0.0581792000000
0.0624945000000
0.0647810000000
0.0648802000000
0.0655027000000
0.0682855000000
0.0725350000000
0.0766813000000
0.0816557000000
0.0857771000000
0.0915189000000
0.0966571000000
0.0941967000000
0.0840526000000
0.0728681000000
0.0605246000000
0.0449561000000
0.0290330000000
0.0177599000000
0.0094758800000
0.0054194600000
-0.0004731170000
-0.0064603200000
-0.0148517000000
-0.0203457000000
-0.0221763000000
-0.0257585000000
-0.0315795000000
-0.0358372000000
-0.0399670000000
-0.0451434000000
-0.0432002000000
-0.0346335000000
-0.0273783000000
-0.0194198000000
-0.0052985400000
0.0063785900000
0.0141989000000
0.0227955000000
0.0314562000000
0.0393657000000
0.0476425000000
0.0540688000000
0.0583341000000
0.0617056000000
0.0619706000000
0.0572320000000
0.0496202000000
0.0364776000000
0.0163141000000
-0.0031721500000
-0.0123893000000
-0.0312618000000
-0.0522057000000
-0.0678426000000
-0.0763543000000
-0.0825475000000
-0.0857794000000
-0.0845355000000
-0.0820660000000
-0.0786272000000
-0.0733496000000
-0.0669120000000
-0.0576828000000
-0.0479133000000
-0.0350134000000
-0.0189997000000
-0.0039259600000
0.0054072400000
0.0116369000000
0.0183810000000
0.0239172000000
0.0255062000000
0.0181915000000
0.0089611000000
0.0031944300000
-0.0034964400000
-0.0135724000000
-0.0228208000000
-0.0340131000000
-0.0441977000000
-0.0512028000000
-0.0531876000000
-0.0562503000000
-0.0583820000000
-0.0575011000000
-0.0512617000000
-0.0456979000000
-0.0435825000000
-0.0421818000000
-0.0398435000000
-0.0398356000000
-0.0391483000000
-0.0356810000000
-0.0322086000000
-0.0280700000000
-0.0209731000000
-0.0128285000000
-0.0060675400000
0.0049999700000
0.0183317000000
0.0211821000000
0.0192078000000
0.0181855000000
0.0138958000000
0.0057533400000
-0.0035220600000
-0.0116165000000
-0.0210303000000
-0.0277901000000
-0.0321884000000
-0.0341854000000
-0.0336629000000
-0.0315635000000
-0.0288565000000
-0.0276769000000
-0.0268032000000
-0.0231451000000
-0.0175718000000
-0.0135166000000
-0.0140572000000
-0.0194336000000
-0.0260715000000
-0.0293912000000
-0.0303579000000
-0.0316446000000
-0.0313374000000
-0.0274049000000
-0.0194569000000
-0.0097314700000
-0.0015677800000
0.0049561400000
0.0131651000000
0.0197255000000
0.0189410000000
0.0154543000000
0.0127858000000
0.0047655300000
-0.0047731800000
-0.0145806000000
-0.0261318000000
-0.0378407000000
-0.0448083000000
-0.0492337000000
-0.0510129000000
-0.0521458000000
-0.0469368000000
-0.0366687000000
-0.0271364000000
-0.0195002000000
-0.0115890000000
-0.0061650300000
-0.0018958500000
0.0022908000000
0.0060908000000
0.0089759600000
0.0142960000000
0.0214230000000
0.0255860000000
0.0293417000000
0.0333115000000
0.0348876000000
0.0348519000000
0.0352679000000
0.0358535000000
0.0364551000000
0.0377051000000
0.0384894000000
0.0386888000000
0.0364906000000
0.0311754000000
0.0214690000000
0.0095581400000
-0.0015779500000
-0.0059253000000
-0.0138190000000
-0.0200362000000
-0.0273593000000
-0.0354861000000
-0.0403385000000
-0.0435453000000
-0.0476676000000
-0.0521832000000
-0.0550415000000
-0.0555256000000
-0.0543100000000
-0.0502332000000
-0.0445943000000
-0.0364178000000
-0.0253903000000
-0.0145043000000
-0.0046761700000
0.0030643600000
0.0082059600000
0.0101788000000
0.0087802500000
0.0043541400000
-0.0010849000000
-0.0043224200000
-0.0036403300000
0.0013217400000
0.0107969000000
0.0218555000000
0.0336445000000
0.0383301000000
0.0432841000000
0.0455329000000
0.0474302000000
0.0484079000000
0.0502294000000
0.0513549000000
0.0544853000000
0.0629811000000
0.0718281000000
0.0765498000000
0.0789205000000
0.0784883000000
0.0757800000000
0.0722653000000
0.0660005000000
0.0565064000000
0.0455545000000
0.0363807000000
0.0281382000000
0.0228661000000
0.0214930000000
0.0171309000000
0.0136847000000
0.0140120000000
0.0118277000000
0.0077525300000
0.0060404200000
0.0036645100000
-0.0003808990000
-0.0040446700000
-0.0053853800000
-0.0072300600000
-0.0092348200000
-0.0108061000000
-0.0134256000000
-0.0170042000000
-0.0189596000000
-0.0197558000000
-0.0181533000000
-0.0151876000000
-0.0149698000000
-0.0178406000000
-0.0200613000000
-0.0226682000000
-0.0263003000000
-0.0287133000000
-0.0294888000000
-0.0284552000000
-0.0246712000000
-0.0211641000000
-0.0182559000000
-0.0133309000000
-0.0085395800000
-0.0071296300000
-0.0029985300000
0.0043049100000
0.0074031400000
0.0095213200000
0.0115587000000
0.0109269000000
0.0098355000000
0.0071133200000
0.0033626600000
-0.0005594750000
-0.0035634300000
-0.0047093800000
-0.0024487600000
0.0044882700000
0.0122206000000
0.0196467000000
0.0268172000000
0.0332198000000
0.0368924000000
0.0343928000000
0.0275406000000
0.0188987000000
0.0076025100000
-0.0046343200000
-0.0124883000000
-0.0174577000000
-0.0203243000000
-0.0213140000000
-0.0189286000000
-0.0145040000000
-0.0071094200000
0.0030578700000
0.0089741300000
0.0115994000000
0.0134624000000
0.0118965000000
0.0048681700000
0.0001367890000
-0.0080313200000
-0.0183095000000
-0.0314870000000
-0.0438141000000
-0.0522237000000
-0.0587728000000
-0.0646295000000
-0.0666873000000
-0.0672796000000
-0.0669940000000
-0.0645382000000
-0.0611557000000
-0.0580678000000
-0.0546318000000
-0.0481064000000
-0.0408785000000
-0.0355182000000
-0.0276602000000
-0.0175580000000
-0.0096004400000
-0.0039464200000
0.0003613780000
0.0022128200000
0.0021468900000
0.0007261030000
0.0003627240000
0.0022367400000
0.0058639300000
0.0124673000000
0.0167916000000
0.0271646000000
0.0366461000000
0.0455985000000
0.0529602000000
0.0576397000000
0.0606378000000
0.0611068000000
0.0593065000000
0.0549696000000
0.0466999000000
0.0371343000000
0.0287603000000
0.0213919000000
0.0160371000000
0.0116934000000
0.0073070200000
0.0063461200000
0.0076446800000
0.0064608200000
0.0046278700000
0.0030928600000
0.0014034500000
-0.0001313130000
-0.0005842650000
-0.0006707770000
-0.0002054760000
0.0020647700000
0.0042466700000
0.0054055800000
0.0084429000000
0.0097098700000
0.0106236000000
0.0116507000000
0.0149199000000
0.0201518000000
0.0263124000000
0.0327649000000
0.0390108000000
0.0441070000000
0.0477027000000
0.0510836000000
0.0520165000000
0.0495966000000
0.0467026000000
0.0430909000000
0.0384522000000
0.0356445000000
0.0342509000000
0.0326019000000
0.0308083000000
0.0290169000000
0.0268148000000
0.0233150000000
0.0211950000000
0.0208854000000
0.0204676000000
0.0193081000000
0.0189851000000
0.0196151000000
0.0170367000000
0.0145836000000
0.0090248800000
0.0019071100000
-0.0078333500000
-0.0168393000000
-0.0261100000000
-0.0344520000000
-0.0418029000000
-0.0483461000000
-0.0530224000000
-0.0558425000000
-0.0567544000000
-0.0556912000000
-0.0549652000000
-0.0541449000000
-0.0512383000000
-0.0486117000000
-0.0474303000000
-0.0460668000000
-0.0434921000000
-0.0407814000000
-0.0380865000000
-0.0337155000000
-0.0291536000000
-0.0241552000000
-0.0169229000000
-0.0085631300000
0.0002311490000
0.0093860700000
0.0173612000000
0.0237472000000
0.0261250000000
0.0302679000000
0.0313903000000
0.0282587000000
0.0234331000000
0.0158637000000
0.0076862300000
0.0020270600000
-0.0029077200000
-0.0085065800000
-0.0122529000000
-0.0120839000000
-0.0117546000000
-0.0108055000000
-0.0079700700000
-0.0046471100000
-0.0009271030000
0.0021669600000
0.0056144700000
0.0073548000000
0.0059028100000
0.0041545700000
0.0052041600000
0.0069849400000
0.0081071200000
0.0102207000000
0.0102009000000
0.0091383100000
0.0056927600000
0.0011384000000
-0.0010285200000
-0.0066715000000
-0.0140930000000
-0.0168130000000
-0.0168529000000
-0.0180295000000
-0.0165394000000
-0.0137667000000
-0.0123227000000
-0.0108995000000
-0.0096774700000
-0.0100390000000
-0.0120163000000
-0.0137346000000
-0.0156451000000
-0.0189766000000
-0.0201162000000
-0.0189219000000
-0.0187491000000
-0.0188576000000
-0.0178866000000
-0.0159599000000
-0.0126715000000
-0.0096425200000
-0.0061236800000
-0.0011076500000
0.0047610800000
0.0078769800000
0.0111720000000
0.0136589000000
0.0106974000000
0.0091657600000
0.0088429500000
0.0066115700000
0.0029122700000
0.0039370800000
0.0055432400000
0.0048692600000
0.0060587700000
0.0091172800000
0.0108986000000
0.0118511000000
0.0146361000000
0.0178984000000
0.0187884000000
0.0192528000000
0.0191521000000
0.0161561000000
0.0104100000000
0.0041439100000
-0.0026126000000
-0.0077910400000
-0.0097966500000
-0.0105849000000
-0.0099540300000
-0.0060860300000
-0.0034146800000
-0.0017155600000
0.0017452800000
0.0031506700000
0.0038883700000
0.0044997100000
0.0035481300000
0.0027902600000
0.0050747700000
0.0074073900000
0.0080436600000
0.0108233000000
0.0134817000000
0.0121885000000
0.0098732300000
0.0075317300000
0.0038603900000
0.0002185930000
-0.0022726000000
-0.0033239800000
-0.0036842000000
-0.0018947600000
0.0012366300000
0.0027735700000
0.0038905700000
0.0052938800000
0.0053110500000
0.0033336300000
0.0008303040000
-0.0000409900000
0.0007914930000
0.0005335870000
0.0025071200000
0.0070975200000
0.0110378000000
0.0143476000000
0.0159486000000
0.0183924000000
0.0196864000000
0.0199471000000
0.0205343000000
0.0199180000000
0.0187900000000
0.0184057000000
0.0169216000000
0.0141351000000
0.0115902000000
0.0085506600000
0.0025334700000
-0.0057756400000
-0.0129329000000
-0.0192226000000
-0.0238335000000
-0.0265375000000
-0.0290402000000
-0.0294541000000
-0.0274713000000
-0.0252104000000
-0.0215874000000
-0.0161477000000
-0.0113191000000
-0.0073239800000
-0.0030730500000
0.0033435400000
0.0088969700000
0.0100752000000
0.0097566400000
0.0105320000000
0.0105494000000
0.0083185800000
0.0075066600000
0.0065709100000
0.0038792500000
0.0022761100000
0.0033449200000
0.0051370600000
0.0065337900000
0.0079051300000
0.0082369400000
0.0074184900000
0.0077160300000
0.0075301000000
0.0064853000000
0.0075192800000
0.0089443700000
0.0094922300000
0.0109450000000
0.0127140000000
0.0145986000000
0.0156584000000
0.0158410000000
0.0162592000000
0.0171001000000
0.0183871000000
0.0195012000000
0.0198297000000
0.0200205000000
0.0208012000000
0.0213638000000
0.0200944000000
0.0165805000000
0.0131963000000
0.0097466300000
0.0057092700000
0.0024385300000
0.0002999250000
-0.0008240690000
-0.0012135500000
-0.0029018000000
-0.0049367400000
-0.0063891100000
-0.0095263900000
-0.0134334000000
-0.0147402000000
-0.0152220000000
-0.0152059000000
-0.0137272000000
-0.0116356000000
-0.0101800000000
-0.0087778300000
-0.0060496700000
-0.0050714800000
-0.0062256100000
-0.0067109700000
-0.0075152000000
-0.0104867000000
-0.0120854000000
-0.0139894000000
-0.0151563000000
-0.0162161000000
-0.0168422000000
-0.0161555000000
-0.0168328000000
-0.0188528000000
-0.0198175000000
-0.0206434000000
-0.0222167000000
-0.0230902000000
-0.0236837000000
-0.0242729000000
-0.0239509000000
-0.0211435000000
-0.0171800000000
-0.0128445000000
-0.0077785000000
-0.0041647400000
-0.0022007000000
0.0005926680000
0.0028626600000
0.0040254400000
0.0045289000000
0.0050286800000
0.0056436000000
0.0048264600000
0.0043200400000
0.0056166500000
0.0058836100000
0.0055486400000
0.0047517100000
0.0033644900000
0.0007539210000
-0.0021917200000
-0.0043954300000
-0.0069508300000
-0.0102655000000
-0.0129219000000
-0.0145070000000
-0.0161044000000
-0.0167442000000
-0.0159557000000
-0.0142897000000
-0.0117437000000
-0.0084716000000
-0.0048520400000
-0.0020385100000
0.0000160674000
0.0025133100000
0.0044058800000
0.0052295100000
0.0073543300000
0.0091735600000
0.0095835700000
0.0106048000000
0.0115623000000
0.0099025900000
0.0060582100000
0.0013694400000
-0.0012416000000
-0.0063722400000
-0.0118461000000
-0.0157548000000
-0.0184784000000
-0.0202977000000
-0.0206127000000
-0.0189234000000
-0.0157875000000
-0.0115432000000
-0.0065914600000
-0.0005409700000
0.0041014700000
0.0068403800000
0.0094869100000
0.0094688100000
0.0081990900000
0.0078200800000
0.0069725500000
0.0052704900000
0.0040535000000
0.0019300600000
-0.0014473900000
-0.0034066900000
-0.0048857200000
-0.0053487700000
-0.0037794000000
-0.0000764951000
0.0036664800000
0.0080543800000
0.0143100000000
0.0170821000000
0.0206936000000
0.0235030000000
0.0266500000000
0.0283387000000
0.0293271000000
0.0305999000000
0.0304651000000
0.0305481000000
0.0312528000000
0.0309507000000
0.0308393000000
0.0307260000000
0.0288164000000
0.0258397000000
0.0235553000000
0.0213524000000
0.0174657000000
0.0146675000000
0.0123176000000
0.0083314700000
0.0042355700000
0.0015541500000
-0.0008758210000
-0.0019431800000
-0.0000964427000
0.0028344900000
0.0056367100000
0.0091933500000
0.0120824000000
0.0124570000000
0.0119933000000
0.0107239000000
0.0071026500000
0.0022994600000
-0.0016353500000
-0.0047571500000
-0.0069307900000
-0.0072216300000
-0.0068555900000
-0.0075346200000
-0.0076191800000
-0.0081364100000
-0.0088967800000
-0.0093142600000
-0.0107023000000
-0.0129731000000
-0.0150220000000
-0.0169457000000
-0.0192355000000
-0.0200674000000
-0.0208448000000
-0.0224747000000
-0.0235582000000
-0.0243721000000
-0.0271480000000
-0.0301645000000
-0.0318812000000
-0.0341909000000
-0.0356701000000
-0.0354834000000
-0.0344412000000
-0.0313387000000
-0.0266841000000
-0.0210876000000
-0.0151382000000
-0.0091626000000
-0.0029753100000
0.0027264300000
0.0067104200000
0.0093211000000
0.0108263000000
0.0111726000000
0.0107862000000
0.0109296000000
0.0120147000000
0.0135311000000
0.0159665000000
0.0181544000000
0.0201599000000
0.0220838000000
0.0235453000000
0.0240447000000
0.0234460000000
0.0222715000000
0.0218182000000
0.0218107000000
0.0218896000000
0.0224225000000
0.0233736000000
0.0246326000000
0.0250753000000
0.0260358000000
0.0259495000000
0.0237321000000
0.0202565000000
0.0177807000000
0.0146505000000
0.0088550700000
0.0028319300000
-0.0026075600000
-0.0082539300000
-0.0129630000000
-0.0169794000000
-0.0203714000000
-0.0224424000000
-0.0220597000000
-0.0200811000000
-0.0174514000000
-0.0147635000000
-0.0127722000000
-0.0121284000000
-0.0131447000000
-0.0143426000000
-0.0156634000000
-0.0179379000000
-0.0207425000000
-0.0232331000000
-0.0251527000000
-0.0264760000000
-0.0276021000000
-0.0291369000000
-0.0294917000000
-0.0299228000000
-0.0298379000000
-0.0291334000000
-0.0275221000000
-0.0259637000000
-0.0246661000000
-0.0238568000000
-0.0242205000000
-0.0251715000000
-0.0261186000000
-0.0273463000000
-0.0280985000000
-0.0275370000000
-0.0257734000000
-0.0231773000000
-0.0190976000000
-0.0136836000000
-0.0078443500000
-0.0027101800000
0.0026548800000
0.0061962100000
0.0079045600000
0.0091674600000
0.0097651600000
0.0089678100000
0.0074481900000
0.0054670300000
0.0028788800000
0.0004628110000
-0.0014948500000
-0.0024188400000
-0.0038021100000
-0.0042853500000
-0.0033983600000
-0.0008219310000
0.0016019600000
0.0032412900000
0.0051185100000
0.0061634900000
0.0058806300000
0.0047708200000
0.0027993100000
0.0001765510000
-0.0021441100000
-0.0036186500000
-0.0050039800000
-0.0062343700000
-0.0071574800000
-0.0078542700000
-0.0089888600000
-0.0103376000000
-0.0111542000000
-0.0110826000000
-0.0108337000000
-0.0105117000000
-0.0095602600000
-0.0078747600000
-0.0061164900000
-0.0054265800000
-0.0051642900000
-0.0052920400000
-0.0054525300000
-0.0046077500000
-0.0039426300000
-0.0022917700000
0.0004303740000
0.0039407900000
0.0073776800000
0.0103648000000
0.0127128000000
0.0141321000000
0.0139922000000
0.0124895000000
0.0110205000000
0.0091205300000
0.0067373900000
0.0045623600000
0.0016823700000
-0.0020615400000
-0.0050227800000
-0.0078362500000
-0.0105207000000
-0.0124001000000
-0.0136690000000
-0.0140773000000
-0.0134181000000
-0.0120582000000
-0.0111867000000
-0.0105716000000
-0.0106655000000
-0.0113367000000
-0.0116642000000
-0.0119699000000
-0.0123132000000
-0.0132550000000
-0.0137408000000
-0.0135709000000
-0.0137659000000
-0.0139589000000
-0.0134340000000
-0.0131872000000
-0.0128543000000
-0.0109591000000
-0.0071116000000
-0.0017907300000
0.0045824600000
0.0114180000000
0.0184869000000
0.0240858000000
0.0280114000000
0.0311723000000
0.0328507000000
0.0327063000000
0.0307496000000
0.0283071000000
0.0264530000000
0.0246605000000
0.0227283000000
0.0213708000000
0.0201917000000
0.0195028000000
0.0194520000000
0.0192334000000
0.0190939000000
0.0193472000000
0.0200422000000
0.0202111000000
0.0202032000000
0.0205560000000
0.0201701000000
0.0186849000000
0.0169088000000
0.0146668000000
0.0120834000000
0.0100639000000
0.0082382300000
0.0075373300000
0.0086425300000
0.0104693000000
0.0125241000000
0.0154124000000
0.0185809000000
0.0208474000000
0.0225106000000
0.0240429000000
0.0241236000000
0.0230717000000
0.0226922000000
0.0223063000000
0.0213553000000
0.0208329000000
0.0214284000000
0.0215447000000
0.0210637000000
0.0206340000000
0.0201519000000
0.0198278000000
0.0191940000000
0.0184369000000
0.0179687000000
0.0174962000000
0.0169170000000
0.0160201000000
0.0148797000000
0.0134893000000
0.0117528000000
0.0095108500000
0.0071133800000
0.0052386000000
0.0037777500000
0.0020556000000
0.0005552570000
-0.0003071780000
-0.0007296030000
-0.0014697700000
-0.0022334100000
-0.0026277300000
-0.0033922800000
-0.0039503100000
-0.0037792500000
-0.0034595300000
-0.0033612400000
-0.0025880600000
-0.0016034300000
-0.0009435880000
-0.0003329770000
0.0018326800000
0.0034172400000
0.0037087100000
0.0044120200000
0.0044290200000
0.0034055800000
0.0025011700000
0.0009137600000
-0.0018617900000
-0.0042879200000
-0.0060391000000
-0.0077158400000
-0.0085215400000
-0.0082083500000
-0.0078644600000
-0.0068473500000
-0.0052264100000
-0.0040737200000
-0.0029429500000
-0.0021250600000
-0.0026300800000
-0.0040993700000
-0.0063431500000
-0.0096272100000
-0.0132387000000
-0.0178703000000
-0.0226596000000
-0.0268366000000
-0.0306018000000
-0.0338349000000
-0.0357450000000
-0.0360183000000
-0.0356215000000
-0.0344910000000
-0.0337035000000
-0.0330306000000
-0.0316058000000
-0.0304158000000
-0.0298827000000
-0.0288069000000
-0.0266697000000
-0.0249416000000
-0.0230025000000
-0.0199349000000
-0.0166336000000
-0.0135338000000
-0.0104707000000
-0.0082444700000
-0.0085370000000
-0.0093335900000
-0.0095572600000
-0.0116447000000
-0.0143936000000
-0.0156178000000
-0.0162707000000
-0.0170440000000
-0.0159713000000
-0.0141382000000
-0.0124114000000
-0.0103227000000
-0.0079760700000
-0.0067867000000
-0.0069760900000
-0.0079517000000
-0.0081809000000
-0.0100793000000
-0.0132804000000
-0.0152820000000
-0.0174545000000
-0.0203170000000
-0.0216410000000
-0.0214319000000
-0.0203378000000
-0.0188133000000
-0.0155686000000
-0.0122916000000
-0.0092023200000
-0.0045655900000
0.0002512980000
0.0034012100000
0.0058123000000
0.0081942900000
0.0098639500000
0.0105590000000
0.0105017000000
0.0094578900000
0.0077439100000
0.0065674500000
0.0055186700000
0.0045080100000
0.0034667700000
0.0029378400000
0.0027367500000
0.0018513600000
0.0003759750000
0.0000897639000
0.0004673540000
0.0005332920000
0.0012276000000
0.0020864800000
0.0026385800000
0.0024330300000
0.0019797200000
0.0005195740000
-0.0008542530000
-0.0011919500000
-0.0016601100000
-0.0017181800000
-0.0007943330000
-0.0002235570000
0.0008851930000
0.0030485900000
0.0052172300000
0.0072904100000
0.0096747600000
0.0121455000000
0.0142334000000
0.0160239000000
0.0168512000000
0.0165232000000
0.0160823000000
0.0151815000000
0.0144064000000
0.0125034000000
0.0107343000000
0.0093085300000
0.0072610900000
0.0050023900000
0.0026090500000
0.0000968212000
-0.0015713300000
-0.0027511600000
-0.0043577500000
-0.0058554300000
-0.0063695600000
-0.0073267000000
-0.0089747200000
-0.0097232700000
-0.0097713900000
-0.0108206000000
-0.0122037000000
-0.0120817000000
-0.0119260000000
-0.0116942000000
-0.0102276000000
-0.0085780400000
-0.0064443700000
-0.0033291300000
0.0002326700000
0.0034297300000
0.0062720800000
0.0085856300000
0.0099128000000
0.0099188000000
0.0095084900000
0.0093316900000
0.0090541800000
0.0078712000000
0.0065461100000
0.0063118100000
0.0062781300000
0.0054049000000
0.0048607400000
0.0046742500000
0.0043681100000
0.0040520500000
0.0040974700000
0.0041434700000
0.0039295700000
0.0037891200000
0.0033122100000
0.0021085800000
0.0004876730000
-0.0014065400000
-0.0034522400000
-0.0051493300000
-0.0060318900000
-0.0067748300000
-0.0075169800000
-0.0072500800000
-0.0067878700000
-0.0070739300000
-0.0070335800000
-0.0067072200000
-0.0061846700000
-0.0061814900000
-0.0070718400000
-0.0075785600000
-0.0071071400000
-0.0067881600000
-0.0060377300000
-0.0043862600000
-0.0032132900000
-0.0015630000000
0.0008125880000
0.0020818100000
0.0029834000000
0.0038757200000
0.0033991700000
0.0023012600000
0.0023349900000
0.0020907300000
0.0011467600000
0.0008274670000
0.0007018390000
0.0005269170000
0.0008367760000
0.0015200400000
0.0026378100000
0.0044309700000
0.0057743400000
0.0067850400000
0.0077252600000
0.0081150000000
0.0079763500000
0.0072901200000
0.0059632800000
0.0050483200000
0.0047590600000
0.0053885500000
0.0072506400000
0.0095289300000
0.0123212000000
0.0151184000000
0.0166130000000
0.0165810000000
0.0160587000000
0.0152672000000
0.0141266000000
0.0126078000000
0.0111153000000
0.0101829000000
0.0104349000000
0.0113369000000
0.0109100000000
0.0102115000000
0.0104099000000
0.0094256500000
0.0080244700000
0.0064732200000
0.0049192600000
0.0036337700000
0.0019213000000
0.0005544660000
0.0003015340000
-0.0001709850000
-0.0008567450000
-0.0016856800000
-0.0030627300000
-0.0038578300000
-0.0038659500000
-0.0033653500000
-0.0019370600000
-0.0000096541500
0.0019142900000
0.0038452400000
0.0051617300000
0.0050176100000
0.0040869500000
0.0026898900000
-0.0001447080000
-0.0032508900000
-0.0059554400000
-0.0081853100000
-0.0093661500000
-0.0100380000000
-0.0106157000000
-0.0105838000000
-0.0100009000000
-0.0094836000000
-0.0091418500000
-0.0087256200000
-0.0087096000000
-0.0090409300000
-0.0091744100000
-0.0092114600000
-0.0088266600000
-0.0083491700000
-0.0078551700000
-0.0076606400000
-0.0077380400000
-0.0082753800000
-0.0094274000000
-0.0104749000000
-0.0105618000000
-0.0101058000000
-0.0093749500000
-0.0082503200000
-0.0070043100000
-0.0055038400000
-0.0044293200000
-0.0044652900000
-0.0039630000000
-0.0032891700000
-0.0036166900000
-0.0037992300000
-0.0032786100000
-0.0030484800000
-0.0029567900000
-0.0024575100000
-0.0027857800000
-0.0036776400000
-0.0044419600000
-0.0050994800000
-0.0053363400000
-0.0057648200000
-0.0058286900000
-0.0054444700000
-0.0048604900000
-0.0036353600000
-0.0020864800000
-0.0003500650000
0.0014629700000
0.0030437000000
0.0042697400000
0.0050637600000
0.0060128100000
0.0066240900000
0.0067215100000
0.0065555100000
0.0066543500000
0.0060796700000
0.0055983900000
0.0053266900000
0.0048002600000
0.0043363700000
0.0036283300000
0.0029960500000
0.0020838900000
0.0006250740000
-0.0003753360000
-0.0010114000000
-0.0018484500000
-0.0018395100000
-0.0016669300000
-0.0021610900000
-0.0024817400000
-0.0027819800000
-0.0024568300000
-0.0018188900000
-0.0006903110000
0.0011950800000
0.0038749200000
0.0064322800000
0.0092798400000
0.0124175000000
0.0150742000000
0.0177692000000
0.0200334000000
0.0218276000000
0.0237826000000
0.0248119000000
0.0244171000000
0.0232056000000
0.0215956000000
0.0195497000000
0.0172985000000
0.0158773000000
0.0148053000000
0.0139768000000
0.0138640000000
0.0136475000000
0.0131361000000
0.0126733000000
0.0118623000000
0.0102896000000
0.0092716700000
0.0075263600000
0.0061730700000
0.0047404700000
0.0026191200000
0.0015345600000
0.0010875000000
0.0000227287000
-0.0002872810000
0.0001851830000
0.0003247790000
0.0007177420000
0.0011142000000
0.0007487190000
-0.0002909220000
-0.0014294700000
-0.0026032200000
-0.0042052400000
-0.0056602400000
-0.0063296000000
-0.0063796400000
-0.0057060400000
-0.0045989600000
-0.0029949700000
-0.0015645400000
-0.0002658870000
0.0005385570000
0.0005048610000
-0.0003482320000
-0.0014564600000
-0.0021498700000
-0.0036587600000
-0.0049554900000
-0.0056368900000
-0.0060111000000
-0.0059898100000
-0.0056534500000
-0.0047067400000
-0.0036074000000
-0.0025410600000
-0.0012889700000
0.0000314255000
0.0011178600000
0.0022479700000
0.0035615700000
0.0043432700000
0.0044181400000
0.0041621400000
0.0028176100000
0.0004015880000
-0.0018118600000
-0.0039202900000
-0.0059465500000
-0.0073872800000
-0.0084448500000
-0.0096354200000
-0.0107419000000
-0.0121507000000
-0.0141928000000
-0.0162016000000
-0.0182772000000
-0.0191827000000
-0.0207639000000
-0.0215996000000
-0.0219858000000
-0.0218821000000
-0.0213337000000
-0.0206709000000
-0.0202772000000
-0.0197105000000
-0.0199750000000
-0.0200738000000
-0.0193375000000
-0.0186508000000
-0.0175933000000
-0.0160584000000
-0.0146639000000
-0.0132277000000
-0.0119751000000
-0.0115914000000
-0.0115494000000
-0.0115502000000
-0.0118101000000
-0.0123503000000
-0.0126628000000
-0.0126874000000
-0.0126949000000
-0.0126562000000
-0.0125452000000
-0.0126156000000
-0.0131702000000
-0.0134950000000
-0.0148054000000
-0.0164111000000
-0.0177657000000
-0.0186659000000
-0.0196878000000
-0.0206151000000
-0.0211192000000
-0.0212673000000
-0.0205890000000
-0.0193974000000
-0.0177329000000
-0.0155543000000
-0.0133732000000
-0.0111298000000
-0.0092261600000
-0.0077779300000
-0.0070276300000
-0.0065184200000
-0.0057922300000
-0.0052862500000
-0.0052108000000
-0.0051461900000
-0.0048790600000
-0.0047318800000
-0.0047010300000
-0.0044570200000
-0.0040561800000
-0.0035613000000
-0.0025675200000
-0.0016542200000
-0.0011879400000
-0.0000780899000
0.0010486500000
0.0020329900000
0.0028421600000
0.0039600800000
0.0050707200000
0.0061987700000
0.0078431100000
0.0094305700000
0.0109179000000
0.0124090000000
0.0137207000000
0.0148214000000
0.0166457000000
0.0186004000000
0.0203752000000
0.0220557000000
0.0238406000000
0.0252992000000
0.0260087000000
0.0264295000000
0.0263350000000
0.0257750000000
0.0249983000000
0.0242000000000
0.0234537000000
0.0221010000000
0.0208650000000
0.0199997000000
0.0193875000000
0.0184991000000
0.0182883000000
0.0187402000000
0.0187626000000
0.0190996000000
0.0205499000000
0.0215437000000
0.0226790000000
0.0239996000000
0.0246599000000
0.0251684000000
0.0255088000000
0.0250424000000
0.0242876000000
0.0233897000000
0.0224443000000
0.0214803000000
0.0209196000000
0.0208713000000
0.0213265000000
0.0220705000000
0.0223570000000
0.0222874000000
0.0221995000000
0.0210863000000
0.0192604000000
0.0171304000000
0.0142052000000
0.0108512000000
0.0076296600000
0.0060930700000
0.0031638500000
0.0007647360000
-0.0011050500000
-0.0024606100000
-0.0033733200000
-0.0040594600000
-0.0046973100000
-0.0056299500000
-0.0068274600000
-0.0080422800000
-0.0095043400000
-0.0108292000000
-0.0119963000000
-0.0129685000000
-0.0135792000000
-0.0136852000000
-0.0133951000000
-0.0131320000000
-0.0128314000000
-0.0127262000000
-0.0127736000000
-0.0126445000000
-0.0127745000000
-0.0129612000000
-0.0125616000000
-0.0118301000000
-0.0110085000000
-0.0102107000000
-0.0090372800000
-0.0081462900000
-0.0063183700000
-0.0044327900000
-0.0020438300000
0.0006244630000
0.0027950500000
0.0045885500000
0.0064505500000
0.0079512600000
0.0088579600000
0.0097777800000
0.0100157000000
0.0100248000000
0.0103306000000
0.0107442000000
0.0113112000000
0.0121656000000
0.0131008000000
0.0138328000000
0.0143246000000
0.0140831000000
0.0129667000000
0.0111677000000
0.0088079400000
0.0054945800000
0.0021270600000
-0.0006438300000
-0.0036935300000
-0.0060311800000
-0.0076600900000
-0.0095009800000
-0.0102753000000
-0.0111583000000
-0.0117180000000
-0.0123931000000
-0.0121545000000
-0.0115427000000
-0.0105367000000
-0.0090921800000
-0.0072834500000
-0.0053022300000
-0.0034292300000
-0.0018340000000
-0.0005393160000
-0.0001230730000
-0.0004902020000
-0.0009949430000
-0.0018150500000
-0.0033186100000
-0.0050465900000
-0.0065902500000
-0.0085339100000
-0.0106513000000
-0.0126699000000
-0.0146170000000
-0.0165084000000
-0.0177747000000
-0.0185669000000
-0.0191483000000
-0.0193265000000
-0.0189609000000
-0.0185078000000
-0.0180660000000
-0.0172216000000
-0.0161336000000
-0.0151850000000
-0.0138885000000
-0.0124978000000
-0.0114595000000
-0.0100825000000
-0.0089374400000
-0.0083426100000
-0.0079012700000
-0.0076773400000
-0.0082055600000
-0.0090098400000
-0.0097530300000
-0.0108056000000
-0.0116521000000
-0.0120113000000
-0.0123813000000
-0.0125306000000
-0.0125249000000
-0.0127375000000
-0.0124149000000
-0.0113345000000
-0.0100970000000
-0.0082654200000
-0.0057015500000
-0.0029802400000
-0.0001547170000
0.0027258000000
0.0038904200000
0.0057120000000
0.0072508700000
0.0086901800000
0.0098811400000
0.0110322000000
0.0116520000000
0.0122144000000
0.0129360000000
0.0133571000000
0.0131273000000
0.0128324000000
0.0123011000000
0.0111871000000
0.0100364000000
0.0095729700000
0.0090148100000
0.0079822500000
0.0074396300000
0.0074531300000
0.0072306100000
0.0071344700000
0.0073364800000
0.0070187300000
0.0065531300000
0.0067372300000
0.0072704600000
0.0078170900000
0.0077517700000
0.0073920600000
0.0078189200000
0.0082184400000
0.0088426800000
0.0086014100000
0.0086827200000
0.0091719300000
0.0092882200000
0.0092176000000
0.0098518600000
0.0104722000000
0.0102029000000
0.0092529900000
0.0087527500000
0.0084957600000
0.0072447400000
0.0060332500000
0.0050186200000
0.0032420800000
0.0019862500000
0.0016722400000
0.0005703470000
-0.0005884120000
-0.0011930100000
-0.0021009900000
-0.0027540800000
-0.0022758300000
-0.0016239400000
-0.0018407200000
-0.0015744000000
-0.0003940080000
0.0003465740000
0.0008749200000
0.0018591100000
0.0026848100000
0.0031644600000
0.0035813000000
0.0045056100000
0.0048746500000
0.0052027100000
0.0055543800000
0.0052762400000
0.0050325800000
0.0054942600000
0.0058908100000
0.0063399800000
0.0066236900000
0.0068091800000
0.0071752700000
0.0072892600000
0.0069817300000
0.0062553600000
0.0054105700000
0.0040285500000
0.0027896900000
0.0020243300000
0.0011469400000
0.0001422700000
-0.0005465760000
-0.0013086500000
-0.0020712900000
-0.0024501200000
-0.0025763900000
-0.0026735300000
-0.0025296000000
-0.0024848200000
-0.0016809600000
-0.0004871020000
-0.0000448008000
0.0009546230000
0.0019938100000
0.0022716100000
0.0017721600000
0.0013693800000
0.0006985710000
-0.0001949770000
-0.0010786200000
-0.0024672000000
-0.0041542000000
-0.0054856300000
-0.0064200300000
-0.0067687000000
-0.0069598400000
-0.0075966800000
-0.0080255700000
-0.0077687200000
-0.0075621700000
-0.0073171500000
-0.0066425500000
-0.0066869500000
-0.0066597600000
-0.0062896600000
-0.0078569000000
-0.0085491500000
-0.0073492400000
-0.0077728900000
-0.0095226100000
-0.0095207100000
-0.0087856400000
-0.0076376500000
-0.0072407700000
-0.0058246700000
-0.0045676300000
-0.0032667900000
-0.0017593900000
-0.0009572460000
0.0003642990000
0.0020000300000
0.0015447300000
0.0008542600000
0.0010655700000
0.0001189910000
-0.0008671630000
-0.0018000200000
-0.0038840700000
-0.0052824700000
-0.0057771400000
-0.0064178900000
-0.0066610300000
-0.0063250200000
-0.0063992300000
-0.0058282300000
-0.0045546200000
-0.0040454000000
-0.0039370900000
-0.0033978400000
-0.0033803400000
-0.0039578100000
-0.0041269600000
-0.0041045100000
-0.0044189500000
-0.0053015000000
-0.0053487400000
-0.0046384900000
-0.0046329300000
-0.0045475500000
-0.0042854700000
-0.0047045800000
-0.0050402800000
-0.0046925200000
-0.0049833400000
-0.0051243500000
-0.0049681600000
-0.0051981000000
-0.0050634700000
-0.0040305700000
-0.0031056400000
-0.0025750000000
-0.0013965900000
-0.0000266710000
0.0013945500000
0.0032100700000
0.0046651700000
0.0057845900000
0.0070696400000
0.0083070600000
0.0087470900000
0.0084971900000
0.0081434400000
0.0076109900000
0.0060898400000
0.0050416800000
0.0037732500000
0.0019578300000
0.0010263600000
0.0001313460000
-0.0008107800000
-0.0011939100000
-0.0014682800000
-0.0019775600000
-0.0029045000000
-0.0031725100000
-0.0022020400000
-0.0017855300000
-0.0020170600000
-0.0016313600000
-0.0011894100000
-0.0016177900000
-0.0017925400000
-0.0021950800000
-0.0033862900000
-0.0043619500000
-0.0045639000000
-0.0044480900000
-0.0038117200000
-0.0023216000000
-0.0009207740000
0.0001931960000
0.0021534000000
0.0030276900000
0.0040025600000
0.0050236700000
0.0061267100000
0.0066199000000
0.0071545800000
0.0078250400000
0.0078691100000
0.0073408600000
0.0070835600000
0.0064496200000
0.0057553600000
0.0062294100000
0.0074544600000
0.0083052900000
0.0094346400000
0.0111433000000
0.0123650000000
0.0131225000000
0.0138468000000
0.0141636000000
0.0137005000000
0.0129595000000
0.0123285000000
0.0111098000000
0.0091698300000
0.0073863400000
0.0061462400000
0.0046306700000
0.0036425700000
0.0034129500000
0.0032157400000
0.0028654900000
0.0028251500000
0.0028078000000
0.0032128600000
0.0039412500000
0.0039469600000
0.0036156400000
0.0043440500000
0.0046863900000
0.0049090800000
0.0057206600000
0.0060424600000
0.0060093000000
0.0067080700000
0.0077714100000
0.0080940100000
0.0084667200000
0.0090193300000
0.0090320200000
0.0097622300000
0.0102437000000
0.0093884200000
0.0089650700000
0.0079805500000
0.0062528200000
0.0045605300000
0.0026410500000
0.0005684930000
-0.0019211400000
-0.0031575800000
-0.0053979700000
-0.0068764900000
-0.0083492900000
-0.0091432500000
-0.0093954100000
-0.0100198000000
-0.0098716600000
-0.0088287700000
-0.0083282300000
-0.0077653200000
-0.0070576000000
-0.0067890900000
-0.0064640400000
-0.0057158800000
-0.0052448700000
-0.0055608000000
-0.0057851900000
-0.0056997600000
-0.0058610600000
-0.0059799700000
-0.0057633300000
-0.0055209600000
-0.0055664400000
-0.0054851800000
-0.0048671200000
-0.0036552500000
-0.0024490200000
-0.0011928500000
-0.0000392627000
0.0009146360000
0.0012067000000
0.0014362700000
0.0022392200000
0.0029845200000
0.0025650700000
0.0011838500000
0.0002163530000
-0.0000784527000
-0.0014442200000
-0.0031530200000
-0.0037872300000
-0.0044264300000
-0.0051391300000
-0.0053206800000
-0.0052658900000
-0.0048246700000
-0.0040312500000
-0.0033150200000
-0.0024745900000
-0.0012033100000
-0.0003975040000
-0.0010572600000
-0.0009050000000
-0.0005819890000
-0.0012218500000
-0.0012748200000
-0.0010013800000
-0.0013989200000
-0.0016476100000
-0.0016500500000
-0.0018112500000
-0.0028086100000
-0.0041152300000
-0.0048499500000
-0.0056248400000
-0.0067768300000
-0.0071023000000
-0.0069675600000
-0.0074698500000
-0.0077973500000
-0.0077199500000
-0.0078368800000
-0.0079991100000
-0.0081716900000
-0.0077210500000
-0.0069676200000
-0.0061616900000
-0.0052032800000
-0.0039786200000
-0.0027307700000
-0.0018575100000
-0.0009896980000
-0.0003798090000
-0.0002365530000
-0.0001528550000
0.0003945320000
-0.0001540710000
-0.0021647800000
-0.0027871900000
-0.0022328300000
-0.0018839200000
-0.0011033100000
-0.0003489100000
0.0007856160000
0.0014838900000
0.0002826540000
-0.0020288100000
-0.0046945600000
-0.0078048300000
-0.0107668000000
-0.0129142000000
-0.0137012000000
-0.0130356000000
-0.0120713000000
-0.0109178000000
-0.0093038000000
-0.0075306100000
-0.0054734600000
-0.0036133600000
-0.0017643400000
0.0002151450000
0.0019321700000
0.0021936500000
0.0029068900000
0.0044721300000
0.0047047400000
0.0044065700000
0.0050735300000
0.0060346800000
0.0062819200000
0.0073956900000
0.0083505100000
0.0096950200000
0.0103087000000
0.0108972000000
0.0103774000000
0.0087055000000
0.0073296400000
0.0064169600000
0.0043586200000
0.0031803900000
0.0038630700000
0.0043725200000
0.0052203600000
0.0074678700000
0.0093412400000
0.0105957000000
0.0128204000000
0.0148230000000
0.0155079000000
0.0167966000000
0.0181846000000
0.0180047000000
0.0178453000000
0.0178495000000
0.0170610000000
0.0164843000000
0.0165203000000
0.0160902000000
0.0150769000000
0.0143590000000
0.0131225000000
0.0123639000000
0.0115102000000
0.0109786000000
0.0106025000000
0.0105106000000
0.0104514000000
0.0103597000000
0.0101315000000
0.0088993700000
0.0060536400000
0.0028954200000
-0.0005156740000
-0.0047463400000
-0.0081602400000
-0.0094716700000
-0.0099950500000
-0.0101334000000
-0.0090176700000
-0.0077294500000
-0.0064576600000
-0.0053013800000
-0.0051632200000
-0.0059853300000
-0.0063522300000
-0.0064137600000
-0.0072962800000
-0.0074670400000
-0.0066725100000
-0.0068072200000
-0.0069184400000
-0.0065553300000
-0.0053799200000
-0.0044678500000
-0.0035446000000
-0.0018400000000
-0.0008893530000
-0.0010426100000
-0.0008952950000
-0.0012233000000
-0.0025812800000
-0.0043518500000
-0.0061377700000
-0.0073326700000
-0.0079496800000
-0.0085679300000
-0.0085013900000
-0.0079381900000
-0.0072191200000
-0.0064714400000
-0.0060415600000
-0.0058582000000
-0.0057182400000
-0.0056936900000
-0.0053403700000
-0.0047421800000
-0.0045698600000
-0.0043237800000
-0.0043009400000
-0.0052389500000
-0.0068259400000
-0.0085165100000
-0.0092428800000
-0.0101665000000
-0.0099458500000
-0.0089976700000
-0.0071793400000
-0.0051845300000
-0.0032492000000
-0.0008437330000
0.0004910060000
0.0009334110000
0.0011358800000
0.0013064100000
0.0015789500000
0.0023323500000
0.0033621900000
0.0042747900000
0.0048204500000
0.0046230100000
0.0039930000000
0.0033406100000
0.0029026000000
0.0025524200000
0.0025561800000
0.0029925900000
0.0040912000000
0.0051882700000
0.0054114300000
0.0054756000000
0.0051067900000
0.0033279800000
0.0019179100000
0.0010084800000
0.0002779940000
0.0001446650000
0.0005781130000
0.0013465900000
0.0023233200000
0.0050833100000
0.0079190500000
0.0093402200000
0.0105612000000
0.0108982000000
0.0097029100000
0.0085500800000
0.0071633800000
0.0044282600000
0.0020582000000
0.0011647900000
0.0005934850000
0.0011083000000
0.0025800400000
0.0041318300000
0.0052453800000
0.0057497700000
0.0062720000000
0.0065173200000
0.0061382100000
0.0055469400000
0.0049576800000
0.0049058000000
0.0052804800000
0.0055074200000
0.0054154800000
0.0052328900000
0.0050337700000
0.0046384000000
0.0042459800000
0.0039079800000
0.0036159700000
0.0034292800000
0.0035389100000
0.0038530300000
0.0045292400000
0.0054124700000
0.0055578200000
0.0053110100000
0.0049976800000
0.0046933500000
0.0042811000000
0.0039500700000
0.0040006600000
0.0037660600000
0.0040355200000
0.0042245400000
0.0044141300000
0.0046584900000
0.0043608600000
0.0035395500000
0.0023736000000
0.0010996000000
-0.0005513650000
-0.0017662000000
-0.0030314800000
-0.0044856800000
-0.0049877600000
-0.0053637000000
-0.0053481800000
-0.0052913400000
-0.0050253300000
-0.0045932600000
-0.0045655700000
-0.0049504700000
-0.0049128000000
-0.0047407300000
-0.0046653700000
-0.0045549000000
-0.0044472700000
-0.0045796900000
-0.0049510300000
-0.0057219200000
-0.0072277500000
-0.0088755600000
-0.0101402000000
-0.0118610000000
-0.0136440000000
-0.0143786000000
-0.0149189000000
-0.0160740000000
-0.0173552000000
-0.0184727000000
-0.0194182000000
-0.0198150000000
-0.0198586000000
-0.0198554000000
-0.0194433000000
-0.0182806000000
-0.0172069000000
-0.0158708000000
-0.0141808000000
-0.0127632000000
-0.0114882000000
-0.0103103000000
-0.0094701400000
-0.0087490600000
-0.0077938900000
-0.0070008800000
-0.0065830900000
-0.0059771000000
-0.0056719500000
-0.0058867600000
-0.0060047700000
-0.0056359600000
-0.0054272400000
-0.0052167200000
-0.0044327800000
-0.0033565700000
-0.0025260200000
-0.0017680900000
-0.0011534400000
-0.0012086900000
-0.0013239200000
-0.0009348740000
-0.0008952850000
-0.0005126620000
0.0003238380000
0.0007500700000
0.0015546400000
0.0025334800000
0.0033731000000
0.0040197100000
0.0041263200000
0.0041167800000
0.0042423200000
0.0041373200000
0.0039590700000
0.0041835500000
0.0044986100000
0.0047230600000
0.0054338400000
0.0062149900000
0.0066230700000
0.0070865400000
0.0074433700000
0.0078601700000
0.0084025900000
0.0087965200000
0.0086575400000
0.0083013300000
0.0081312700000
0.0080153500000
0.0081161800000
0.0084334600000
0.0088274500000
0.0091107100000
0.0095299200000
0.0096554700000
0.0094821300000
0.0093450800000
0.0091139200000
0.0082716700000
0.0076277500000
0.0077995500000
0.0079355800000
0.0079003300000
0.0084083400000
0.0086253000000
0.0085508800000
0.0086396900000
0.0085260900000
0.0083298100000
0.0081699000000
0.0081039700000
0.0087680700000
0.0096845200000
0.0100282000000
0.0103642000000
0.0105975000000
0.0105841000000
0.0102628000000
0.0096677000000
0.0088391800000
0.0076725600000
0.0066778700000
0.0059583800000
0.0053372400000
0.0047750000000
0.0044189400000
0.0037785200000
0.0035601800000
0.0037678000000
0.0035888900000
0.0034809400000
0.0038750500000
0.0039121400000
0.0040271900000
0.0043549400000
0.0041247500000
0.0033595400000
0.0025855600000
0.0019122400000
0.0010489700000
0.0007579800000
0.0005811030000
-0.0003210060000
-0.0004654890000
-0.0002161990000
-0.0005778990000
-0.0005403360000
-0.0002302420000
-0.0004389810000
-0.0004185150000
0.0002346880000
0.0003483840000
0.0002338210000
0.0004466350000
0.0002166360000
-0.0003633420000
-0.0006949650000
-0.0013210400000
-0.0024522600000
-0.0036775800000
-0.0045206100000
-0.0056237800000
-0.0065416400000
-0.0067864300000
-0.0071118500000
-0.0075891000000
-0.0077072400000
-0.0082193800000
-0.0091723000000
-0.0100910000000
-0.0112003000000
-0.0123967000000
-0.0132682000000
-0.0139270000000
-0.0140530000000
-0.0136446000000
-0.0125704000000
-0.0114858000000
-0.0101485000000
-0.0086206800000
-0.0073638600000
-0.0064016600000
-0.0053523500000
-0.0048292800000
-0.0042713100000
-0.0034590700000
-0.0032396900000
-0.0028198800000
-0.0022970800000
-0.0019149600000
-0.0020780800000
-0.0023092200000
-0.0023903800000
-0.0032868300000
-0.0045911300000
-0.0058582100000
-0.0072515300000
-0.0086360400000
-0.0096068400000
-0.0100919000000
-0.0102961000000
-0.0104192000000
-0.0103582000000
-0.0100050000000
-0.0097922700000
-0.0095112200000
-0.0088502300000
-0.0080010700000
-0.0073498200000
-0.0060434000000
-0.0043089800000
-0.0027439200000
-0.0007534740000
0.0009003380000
0.0022053300000
0.0037618200000
0.0044478000000
0.0055076600000
0.0064369800000
0.0069582000000
0.0073403100000
0.0075910900000
0.0077551700000
0.0077312800000
0.0076396700000
0.0073871300000
0.0067090300000
0.0064404100000
0.0067624900000
0.0067321900000
0.0064179300000
0.0064608700000
0.0064248600000
0.0059461000000
0.0053551500000
0.0052992300000
0.0051963700000
0.0053576600000
0.0059683400000
0.0065303900000
0.0067322800000
0.0070984300000
0.0072973500000
0.0067679000000
0.0063806200000
0.0064431600000
0.0061412000000
0.0058914700000
0.0060766600000
0.0063098200000
0.0061913200000
0.0064171800000
0.0060861900000
0.0054788800000
0.0053369700000
0.0053490800000
0.0049784300000
0.0045232200000
0.0039614900000
0.0032652000000
0.0024863800000
0.0022538500000
0.0016911500000
0.0011281700000
0.0001105490000
-0.0013256800000
-0.0017259000000
-0.0024307000000
-0.0044197300000
-0.0057449300000
-0.0054712100000
-0.0058048000000
-0.0060175900000
-0.0043312300000
-0.0031815100000
-0.0032654700000
-0.0024204200000
-0.0015012400000
-0.0008951910000
-0.0011998800000
0.0003748740000
0.0013880700000
0.0008815720000
0.0021724800000
0.0044950400000
0.0041120600000
0.0036292000000
0.0038144800000
0.0034707200000
0.0025569900000
0.0021846700000
0.0010170100000
0.0005115400000
0.0011488800000
0.0002759460000
-0.0002217850000
-0.0000296339000
-0.0008745840000
-0.0014960700000
-0.0008892750000
-0.0010152500000
-0.0011607400000
-0.0002178860000
0.0002423290000
-0.0010494900000
-0.0021819700000
-0.0020511400000
-0.0030204300000
-0.0036228300000
-0.0028646800000
-0.0014192800000
-0.0011985900000
-0.0003970310000
0.0004386100000
-0.0002297090000
-0.0001434880000
-0.0002171020000
-0.0020875800000
-0.0023016800000
-0.0015685200000
-0.0015357700000
0.0002288970000
0.0019528400000
0.0026313600000
0.0051726800000
0.0071731200000
0.0062595500000
0.0069162600000
0.0081686700000
0.0071792400000
0.0076515800000
0.0099641800000
0.0096954800000
0.0083294700000
0.0079915000000
0.0065519500000
0.0038077900000
0.0013729800000
-0.0000784312000
-0.0034635600000
-0.0050090000000
-0.0043714600000
-0.0052920200000
-0.0059387700000
-0.0049456100000
-0.0042487300000
-0.0042487800000
-0.0033100000000
-0.0023080400000
-0.0016463400000
-0.0016602000000
-0.0015122300000
-0.0010696300000
-0.0013144300000
-0.0011624800000
-0.0016759000000
-0.0026919600000
-0.0025878200000
-0.0025441400000
-0.0031115800000
-0.0031368600000
-0.0037439900000
-0.0049105300000
-0.0049214300000
-0.0058023300000
-0.0070224600000
-0.0063473200000
-0.0070748500000
-0.0081326800000
-0.0090743200000
-0.0087514800000
-0.0093036800000
-0.0092919900000
-0.0089175200000
-0.0097045200000
-0.0095171800000
-0.0076069700000
-0.0063573300000
-0.0051853600000
-0.0034165400000
-0.0019283800000
-0.0002489780000
0.0006324400000
0.0013698400000
0.0012771100000
0.0005614700000
-0.0000277253000
-0.0009861460000
-0.0013436700000
-0.0017056200000
-0.0035228200000
-0.0049009600000
-0.0052944300000
-0.0058418700000
-0.0065843200000
-0.0063067800000
-0.0054761700000
-0.0047159100000
-0.0043089200000
-0.0036112100000
-0.0029622500000
-0.0020302400000
-0.0024126400000
-0.0032056400000
-0.0016913600000
-0.0008283270000
-0.0015491100000
-0.0013689300000
-0.0012822000000
-0.0022407800000
-0.0021904400000
-0.0018687900000
-0.0025320500000
-0.0030221000000
-0.0024292600000
-0.0014646300000
-0.0012266600000
0.0000641941000
0.0018173000000
0.0021136600000
0.0019666500000
0.0028096300000
0.0037135600000
0.0031338800000
0.0026609600000
0.0025469300000
0.0020132100000
0.0019163300000
0.0018240800000
0.0012469400000
0.0011433900000
0.0010862100000
0.0009219260000
0.0003095260000
-0.0000759321000
0.0002897080000
0.0009095430000
0.0012407300000
0.0019877900000
0.0025430400000
0.0021671500000
0.0008449480000
-0.0002512260000
0.0002057010000
0.0004559150000
-0.0004198420000
-0.0005168730000
0.0012246300000
0.0033503700000
0.0040889700000
0.0041096900000
0.0047755300000
0.0052510500000
0.0040182300000
0.0048328300000
0.0072484200000
0.0061079500000
0.0039971500000
0.0043738600000
0.0041187400000
0.0033745700000
0.0026220700000
0.0024720900000
0.0018808900000
0.0015554900000
0.0014982500000
0.0021937300000
0.0027373200000
0.0017789500000
0.0019529000000
0.0043256800000
0.0055556400000
0.0056160600000
0.0072063800000
0.0075190200000
0.0064084500000
0.0059460500000
0.0052290100000
0.0039077300000
0.0026006900000
0.0012371600000
0.0005370840000
0.0009265620000
0.0002839380000
0.0001166290000
0.0020221300000
0.0030521200000
0.0025019600000
0.0028831000000
0.0030524300000
0.0018991600000
0.0013678400000
0.0007154630000
-0.0006418020000
-0.0021435200000
-0.0028356800000
-0.0026510700000
-0.0014942600000
0.0000640364000
0.0013587700000
0.0030010800000
0.0044362600000
0.0047652900000
0.0046001500000
0.0049350000000
0.0041558200000
0.0022260500000
0.0004527360000
-0.0016390300000
-0.0039472400000
-0.0058910700000
-0.0082892400000
-0.0113886000000
-0.0141000000000
-0.0161614000000
-0.0169626000000
-0.0154846000000
-0.0117842000000
-0.0062368900000
0.0022024900000
0.0111671000000
0.0186139000000
0.0213488000000
0.0251414000000
0.0261074000000
0.0257231000000
0.0237540000000
0.0195186000000
0.0150140000000
0.0106978000000
0.0061982600000
0.0020708300000
-0.0031134200000
-0.0086221800000
-0.0120408000000
-0.0138911000000
-0.0156978000000
-0.0162022000000
-0.0159677000000
-0.0155818000000
-0.0136803000000
-0.0122878000000
-0.0120859000000
-0.0115881000000
-0.0115530000000
-0.0122737000000
-0.0126048000000
-0.0122325000000
-0.0117459000000
-0.0110433000000
-0.0085669900000
-0.0059606400000
-0.0049051300000
-0.0032470400000
-0.0007604820000
0.0003114000000
-0.0007690500000
-0.0021701000000
-0.0036256600000
-0.0057801100000
-0.0072097000000
-0.0070077200000
-0.0062893900000
-0.0055506200000
-0.0044961000000
-0.0040596600000
-0.0044218100000
-0.0043801300000
-0.0043930200000
-0.0056259400000
-0.0065531700000
-0.0068186900000
-0.0074320500000
-0.0082438200000
-0.0080882500000
-0.0073467100000
-0.0063441600000
-0.0044935400000
-0.0017898500000
0.0012149800000
0.0038382000000
0.0057163700000
0.0062905700000
0.0064433200000
0.0047721300000
0.0031165800000
0.0008317390000
-0.0018990300000
-0.0030361700000
-0.0036640100000
-0.0040971000000
-0.0041754800000
-0.0046576400000
-0.0055696100000
-0.0060936100000
-0.0061316600000
-0.0061343000000
-0.0050855400000
-0.0032460000000
-0.0018969900000
0.0002618660000
0.0019252500000
0.0023372000000
0.0031882800000
0.0035496100000
0.0031210400000
0.0026370000000
0.0022089300000
0.0024560000000
0.0029851300000
0.0030312100000
0.0034546900000
0.0040407400000
0.0039541800000
0.0038101300000
0.0035652900000
0.0024498400000
0.0009337140000
0.0004139930000
0.0012140500000
0.0022475400000
0.0044523600000
0.0069152400000
0.0083381500000
0.0091266800000
0.0093234500000
0.0081989700000
0.0065227400000
0.0045686400000
0.0020142000000
0.0002612960000
-0.0006235960000
-0.0009063930000
-0.0002829370000
0.0001479610000
0.0002738300000
0.0001230490000
-0.0005101700000
-0.0012583200000
-0.0012832100000
-0.0007054240000
-0.0001819170000
0.0021070700000
0.0058035600000
0.0086946200000
0.0099275000000
0.0125840000000
0.0143911000000
0.0143416000000
0.0134156000000
0.0115549000000
0.0090086300000
0.0065279400000
0.0044850600000
0.0027845900000
0.0014690400000
0.0014304600000
0.0018766700000
0.0024908700000
0.0036069800000
0.0045835600000
0.0050218900000
0.0056702500000
0.0066651700000
0.0066000100000
0.0058521800000
0.0057852400000
0.0052865600000
0.0041500800000
0.0042279200000
0.0050113400000
0.0051778800000
0.0059007300000
0.0073932800000
0.0084184000000
0.0087224100000
0.0099181900000
0.0111152000000
0.0107943000000
0.0100950000000
0.0088663400000
0.0075748100000
0.0048423400000
-0.0000765198000
-0.0026979400000
-0.0050033600000
-0.0087875100000
-0.0099393600000
-0.0098198700000
-0.0106550000000
-0.0082814900000
-0.0057220200000
-0.0053499600000
-0.0037343000000
-0.0030610400000
-0.0048057600000
-0.0048898000000
-0.0051468000000
-0.0067482700000
-0.0055594000000
-0.0037449600000
-0.0035885700000
-0.0012223200000
0.0016827000000
0.0021312500000
0.0025590500000
0.0029083900000
0.0022521800000
0.0014813300000
0.0011113600000
0.0000825355000
0.0001412640000
0.0007904300000
0.0012208600000
0.0022957100000
0.0035346800000
0.0032704100000
0.0028125100000
0.0032176700000
0.0017842200000
0.0005480260000
0.0004570650000
-0.0007715300000
-0.0020626800000
-0.0021102000000
-0.0033027200000
-0.0046764600000
-0.0041945600000
-0.0043372400000
-0.0055560400000
-0.0045583300000
-0.0030780800000
-0.0032292600000
-0.0028708600000
-0.0016713800000
-0.0017458100000
-0.0021019400000
-0.0017111200000
-0.0005758340000
-0.0011159800000
-0.0008438560000
0.0000716144000
0.0000431952000
0.0003420590000
0.0009000710000
0.0012750100000
0.0011413400000
0.0005707720000
0.0002418530000
-0.0001455930000
-0.0001805260000
-0.0003124130000
-0.0003712840000
0.0000900978000
-0.0000247806000
-0.0002511620000
-0.0006780800000
-0.0017170000000
-0.0026088200000
-0.0034267500000
-0.0038431400000
-0.0040442500000
-0.0036887200000
-0.0031840200000
-0.0026999800000
-0.0023633700000
-0.0026373700000
-0.0037607900000
-0.0044525600000
-0.0046656200000
-0.0054625000000
-0.0060557200000
-0.0053273300000
-0.0044839800000
-0.0035852900000
-0.0024895000000
-0.0020284700000
-0.0017397700000
-0.0013572300000
-0.0008632030000
-0.0000812594000
0.0008633480000
0.0017429300000
0.0026111400000
0.0031003400000
0.0031364000000
0.0029748400000
0.0030846700000
0.0022206900000
0.0011705600000
0.0007160670000
0.0002809190000
-0.0011954400000
-0.0020251400000
-0.0021745300000
-0.0030026300000
-0.0033118200000
-0.0032196100000
-0.0031068400000
-0.0024658000000
-0.0019640600000
-0.0015673100000
-0.0012764700000
-0.0010832900000
-0.0003390280000
-0.0001346300000
-0.0005512900000
-0.0006249380000
-0.0002065520000
-0.0000838357000
-0.0006234280000
-0.0007499010000
-0.0005264480000
-0.0005233100000
-0.0004528620000
0.0002107730000
0.0008632120000
0.0016627800000
0.0026007300000
0.0027833400000
0.0021594000000
0.0010492300000
-0.0005920300000
-0.0024171300000
-0.0040584800000
-0.0055954500000
-0.0065776200000
-0.0065797700000
-0.0065844700000
-0.0066187300000
-0.0052592400000
-0.0027230900000
-0.0013216900000
0.0002647740000
0.0021345300000
0.0024620700000
0.0025206800000
0.0025562300000
0.0018513000000
0.0002279560000
-0.0008673510000
-0.0016208600000
-0.0025305800000
-0.0025162200000
-0.0024450900000
-0.0025882500000
-0.0015992800000
-0.0005865290000
-0.0002685020000
0.0004389640000
0.0007531680000
0.0001400970000
-0.0003541060000
-0.0011791800000
-0.0030990000000
-0.0041026300000
-0.0043787400000
-0.0046945200000
-0.0055377600000
-0.0045434500000
-0.0026845000000
-0.0019962600000
-0.0004756170000
0.0022762600000
0.0034196100000
0.0038662600000
0.0051991300000
0.0053525500000
0.0042511600000
0.0040117100000
0.0041665000000
0.0035161700000
0.0033840300000
0.0037542700000
0.0033105600000
0.0032276500000
0.0034011800000
0.0023886000000
0.0015840800000
0.0013416500000
0.0011637200000
0.0010622900000
0.0008856830000
0.0012666700000
0.0010997900000
0.0002305770000
-0.0001461580000
-0.0008597380000
-0.0015823600000
-0.0023608500000
-0.0021935900000
-0.0022043400000
-0.0017474100000
-0.0006447150000
0.0002239180000
0.0008981190000
0.0011835200000
0.0015549400000
0.0019083500000
0.0023066000000
0.0022150800000
0.0023309800000
0.0029900000000
0.0031945500000
0.0035344900000
0.0035790900000
0.0032759800000
0.0034749300000
0.0036427100000
0.0030615400000
0.0021414100000
0.0014632000000
0.0008707010000
0.0002855570000
-0.0004990410000
-0.0010086600000
-0.0013544700000
-0.0015479100000
-0.0016723100000
-0.0017451300000
-0.0015894200000
-0.0016020600000
-0.0023865700000
-0.0028337200000
-0.0024654400000
-0.0032570400000
-0.0041209400000
-0.0041957000000
-0.0045408200000
-0.0050589600000
-0.0044722700000
-0.0042151100000
-0.0045041100000
-0.0039474500000
-0.0031810700000
-0.0028965700000
-0.0019382100000
-0.0012211500000
-0.0012143200000
-0.0008349180000
-0.0005113870000
-0.0003831140000
-0.0002246320000
-0.0000819030000
-0.0000746462000
0.0004145110000
0.0006971320000
0.0007473330000
0.0008344700000
0.0007908010000
0.0005086710000
0.0003850640000
0.0002803840000
0.0003486840000
0.0006163490000
0.0007784310000
0.0009955720000
0.0010650500000
0.0004759320000
0.0002215620000
-0.0002191420000
-0.0010676500000
-0.0015532400000
-0.0018377300000
-0.0021237000000
-0.0022594200000
-0.0021018600000
-0.0015750400000
-0.0008957620000
-0.0004746020000
0.0001309740000
0.0007077480000
0.0011376000000
0.0014933300000
0.0022207300000
0.0025651600000
0.0022280300000
0.0023275800000
0.0022022800000
0.0019272200000
0.0017315500000
0.0010708000000
0.0004674840000
-0.0001940210000
-0.0009643420000
-0.0014712400000
-0.0021064000000
-0.0027950700000
-0.0029678300000
-0.0027689800000
-0.0026400500000
-0.0019589500000
-0.0012721000000
-0.0018835100000
-0.0027467400000
-0.0033312800000
-0.0041240300000
-0.0052644200000
-0.0058117500000
-0.0060232400000
-0.0065052600000
-0.0066367100000
-0.0063583900000
-0.0061976500000
-0.0056202400000
-0.0046103900000
-0.0036719000000
-0.0026564700000
-0.0012521700000
0.0001596700000
0.0010307000000
0.0012617600000
0.0015672200000
0.0017051300000
0.0014269600000
0.0013133500000
0.0013404400000
0.0012522400000
0.0011642600000
0.0008898630000
0.0006444860000
0.0003932600000
0.0005687540000
0.0010939400000
0.0009711200000
0.0009528080000
0.0016951100000
0.0019308300000
0.0019238700000
0.0025557200000
0.0027039500000
0.0022549400000
0.0024891200000
0.0023155000000
0.0017286900000
0.0022419700000
0.0028085400000
0.0025999400000
0.0033432600000
0.0044672500000
0.0044550700000
0.0047030700000
0.0050255800000
0.0053205100000
0.0049856900000
0.0053776600000
0.0053481000000
0.0048825000000
0.0052097200000
0.0055122500000
0.0052984100000
0.0055429200000
0.0058669000000
0.0059375700000
0.0061681000000
0.0065565900000
0.0067206800000
0.0071271400000
0.0075953800000
0.0076425100000
0.0076173700000
0.0078159900000
0.0074442000000
0.0068786200000
0.0064754600000
0.0054248500000
0.0041542300000
0.0030311900000
0.0017888600000
0.0006587430000
-0.0003513580000
-0.0013737900000
-0.0018053900000
-0.0023733300000
-0.0026370500000
-0.0030210700000
-0.0029682800000
-0.0024589500000
-0.0023800400000
-0.0021816600000
-0.0018516200000
-0.0020435700000
-0.0023899700000
-0.0027237600000
-0.0034052000000
-0.0040437000000
-0.0041375800000
-0.0039298600000
-0.0036394400000
-0.0031009300000
-0.0028170600000
-0.0026643000000
-0.0025641500000
-0.0026941500000
-0.0026974600000
-0.0025966000000
-0.0026833400000
-0.0025277600000
-0.0023970700000
-0.0026561600000
-0.0027088000000
-0.0030656200000
-0.0033349800000
-0.0037456900000
-0.0038903500000
-0.0041598700000
-0.0041455800000
-0.0039521200000
-0.0039802300000
-0.0036988500000
-0.0032438900000
-0.0033059800000
-0.0030007000000
-0.0025079000000
-0.0025512100000
-0.0021857600000
-0.0016000900000
-0.0014988200000
-0.0011072400000
-0.0005680880000
-0.0008388530000
-0.0009795330000
-0.0009139000000
-0.0014355600000
-0.0020558900000
-0.0023237700000
-0.0023800100000
-0.0024824900000
-0.0022484000000
-0.0016871100000
-0.0013472500000
-0.0011132400000
-0.0004486340000
-0.0000938749000
0.0000255054000
0.0000636831000
0.0001057270000
-0.0002161620000
-0.0003418600000
-0.0002049190000
-0.0003714360000
-0.0004212290000
-0.0003763330000
-0.0002474590000
0.0001427250000
0.0005333500000
0.0008519320000
0.0010057700000
0.0008847990000
0.0010115200000
0.0013815200000
0.0012101300000
0.0011607300000
0.0015612400000
0.0014455000000
0.0014564400000
0.0020901100000
0.0019205100000
0.0014216200000
0.0017545400000
0.0016105700000
0.0014212200000
0.0017528600000
0.0017979000000
0.0015694500000
0.0018219600000
0.0022194800000
0.0021339600000
0.0021898100000
0.0020928500000
0.0017169500000
0.0016302800000
0.0014575600000
0.0011850500000
0.0009528730000
0.0007796800000
0.0006405290000
0.0006646160000
0.0007987670000
0.0005980270000
0.0005144180000
0.0008020620000
0.0008334580000
0.0008259220000
0.0010440700000
0.0012012000000
0.0011160500000
0.0009997590000
0.0009374630000
0.0007684670000
0.0004829620000
0.0002914990000
0.0001699480000
0.0001446960000
0.0001289620000
0.0001890910000
0.0003657440000
0.0003930760000
0.0004807590000
0.0007175720000
0.0006793150000
0.0006517570000
0.0007685720000
0.0006648320000
0.0007129030000
0.0009271090000
0.0008939360000
0.0009077410000
0.0010644700000
0.0010172300000
0.0009888170000
0.0010210800000
0.0008432730000
0.0007024250000
0.0006815000000
0.0004758590000
0.0003377410000
0.0003993820000
0.0002428020000
0.0001131810000
0.0001616250000
0.0000872666000
0.0000660058000
0.0001280930000
0.0000997500000
0.0000723573000
0.0001297270000
0.0001853110000
0.0001183080000
0.0000969877000
0.0000595409000
0.0000054145300
-0.0000272654000
-0.0000533714000
-0.0000958668000
-0.0000689928000
-0.0000135833000
0.0000187452000
0.0001253150000
0.0001776500000
0.0002111760000
0.0002650600000
0.0002688780000
0.0002534260000
0.0002243210000
0.0001843190000
0.0001509590000
0.0001158710000
0.0000815334000
0.0000454770000
-0.0000398475000
-0.0001171370000
-0.0001978070000
-0.0002858250000
-0.0003664430000
-0.0003903010000
-0.0004598310000
-0.0005468170000
-0.0006073560000
-0.0006205150000
-0.0006361470000
-0.0006374910000
-0.0006310810000
-0.0006090590000
-0.0005811980000
-0.0005624170000
-0.0005119850000
-0.0004514530000
-0.0003914460000
-0.0003167660000
-0.0002705420000
-0.0002437300000
-0.0002234870000
-0.0001939610000
-0.0001667510000
-0.0001302720000
-0.0000808348000
-0.0000464886000
-0.0000273598000
0.0000003474280
0.0000362111000
0.0000407665000
0.0000350747000
0.0000456914000
0.0000569044000
0.0000543773000
0.0000608569000
0.0000768186000
0.0000662594000
0.0000475664000
0.0000484733000
0.0000306684000
0.0000187740000
0.0000368272000
0.0000287914000
0.0000171693000
0.0000463651000
0.0000464489000
0.0000199536000
0.0000228070000
0.0000115964000
-0.0000180185000
-0.0000203164000
-0.0000171755000
-0.0000281252000
-0.0000310454000
-0.0000264131000
-0.0000289160000
-0.0000319891000
-0.0000364631000
-0.0000424604000
-0.0000547371000
-0.0000583800000
-0.0000565766000
-0.0000600742000
-0.0000606715000
-0.0000595477000
-0.0000579889000
-0.0000615532000
-0.0000607186000
-0.0000557244000
-0.0000597553000
-0.0000641359000
-0.0000612116000
-0.0000634705000
-0.0000599229000
-0.0000530883000
-0.0000508886000
-0.0000506060000
-0.0000513178000
-0.0000514911000
-0.0000552313000
-0.0000592749000
-0.0000609322000
-0.0000637848000
-0.0000671343000
-0.0000684815000
-0.0000681266000
-0.0000695664000
-0.0000696652000
-0.0000685026000
-0.0000662670000
-0.0000629529000
-0.0000580446000
-0.0000518852000
-0.0000463756000
-0.0000433809000
-0.0000425852000
-0.0000426577000
-0.0000455068000
-0.0000484939000
-0.0000500142000
-0.0000505218000
-0.0000495778000
-0.0000471793000
-0.0000445175000
-0.0000420350000
-0.0000391568000
-0.0000366849000
-0.0000347272000
-0.0000326719000
-0.0000310977000
-0.0000301471000
-0.0000293395000
-0.0000287014000
-0.0000284466000
-0.0000281342000
-0.0000275462000
-0.0000267458000
-0.0000256563000
-0.0000244175000
-0.0000231312000
-0.0000218332000
-0.0000205398000
-0.0000193418000
-0.0000182640000
-0.0000172568000
-0.0000163224000
-0.0000154211000
-0.0000145393000
-0.0000136577000
-0.0000127939000
-0.0000119147000
-0.0000110218000
-0.0000101357000
-0.0000092590500
-0.0000083959300
-0.0000075526900
-0.0000067286800
-0.0000059203800
-0.0000051274500
-0.0000043465000
-0.0000035753000
-0.0000028140500
-0.0000020625000
-0.0000013205500
-0.0000005882790
0.0000001342820
0.0000008471110
