0.1 -1.92634e-05 0 -1.92634e-05 0
0.2 -3.85268e-05 0 -3.85268e-05 0
0.3 -5.77902e-05 0 -5.77902e-05 0
0.4 -7.70535e-05 0 -7.70535e-05 0
0.5 -9.63169e-05 0 -9.63169e-05 0
0.6 -0.00011558 0 -0.00011558 0
0.7 -0.000134844 0 -0.000134844 0
0.8 -0.000154107 0 -0.000154107 0
0.9 -0.00017337 0 -0.00017337 0
1 -0.000192634 0 -0.000192634 0
