0.1 1.96472e-07 -1.96472e-07
0.2 3.92944e-07 -3.92944e-07
0.3 5.89417e-07 -5.89417e-07
0.4 7.85889e-07 -7.85889e-07
0.5 9.82361e-07 -9.82361e-07
0.6 1.17883e-06 -1.17883e-06
0.7 1.37531e-06 -1.37531e-06
0.8 1.57178e-06 -1.57178e-06
0.9 1.76825e-06 -1.76825e-06
1 1.96472e-06 -1.96472e-06
