0.1 0 0 0 1.45682e-05 7.58821e-16 -1.45682e-05 1.05633e-05 1.27774e-15 -1.05633e-05 -3.67619e-05 1.5712e-15 3.67619e-05
0.2 0 0 0 2.91412e-05 1.37166e-15 -2.91412e-05 2.11274e-05 2.40756e-15 -2.11274e-05 -7.35107e-05 3.008e-15 7.35107e-05
0.3 0 0 0 4.37174e-05 2.16244e-15 -4.37174e-05 3.1692e-05 3.81922e-15 -3.1692e-05 -0.000110251 4.76781e-15 0.000110251
0.4 0 0 0 5.82968e-05 2.76132e-15 -5.82968e-05 4.22571e-05 4.87969e-15 -4.22571e-05 -0.000146982 6.13504e-15 0.000146982
0.5 0 0 0 7.28794e-05 3.3485e-15 -7.28794e-05 5.28228e-05 5.9149e-15 -5.28228e-05 -0.000183705 7.49085e-15 0.000183705
0.6 0 0 0 8.74652e-05 4.17026e-15 -8.74652e-05 6.3389e-05 7.39289e-15 -6.3389e-05 -0.000220419 9.35843e-15 0.000220419
0.7 0 0 0 0.000102054 4.78737e-15 -0.000102054 7.39558e-05 8.51092e-15 -7.39558e-05 -0.000257125 1.08379e-14 0.000257125
0.8 0 0 0 0.000116646 5.54954e-15 -0.000116646 8.4523e-05 9.94069e-15 -8.4523e-05 -0.000293822 1.26772e-14 0.000293822
0.9 0 0 0 0.000131242 6.44528e-15 -0.000131242 9.50909e-05 1.15289e-14 -9.50909e-05 -0.00033051 1.46863e-14 0.00033051
1 0 0 0 0.00014584 7.25285e-15 -0.00014584 0.000105659 1.30172e-14 -0.000105659 -0.000367189 1.66182e-14 0.000367189
