-0.0000022035700
-0.0000021257200
-0.0000021285400
-0.0000024166600
-0.0000025599300
-0.0000017512400
-0.0000009348870
-0.0000019882200
-0.0000019670400
0.0000023076000
0.0000004321470
-0.0000076259400
-0.0000084881500
-0.0000090135500
-0.0000074571900
0.0000020800100
0.0000105107000
0.0000082490000
-0.0000135983000
-0.0000299688000
-0.0000271301000
-0.0000193576000
-0.0000262762000
-0.0000512379000
-0.0000607484000
-0.0000485988000
-0.0000045786200
0.0000255055000
-0.0000066120900
-0.0000246114000
0.0000236768000
0.0000431393000
-0.0000153066000
-0.0000676984000
-0.0000276151000
0.0000033052900
-0.0000157181000
-0.0000133872000
-0.0000422859000
-0.0000296459000
0.0000388857000
0.0000608485000
0.0000814855000
0.0000069784400
-0.0001169170000
-0.0000659911000
0.0001039860000
0.0000889388000
-0.0000493644000
-0.0000336373000
0.0000490591000
0.0000803133000
0.0000181012000
-0.0001668670000
-0.0001802160000
-0.0000130787000
0.0001797180000
0.0002038840000
-0.0001055720000
-0.0002255830000
-0.0000832832000
0.0000737231000
0.0000564224000
-0.0002250590000
-0.0003190410000
-0.0001368850000
-0.0000299588000
-0.0000996902000
-0.0003034130000
-0.0003084380000
-0.0000036417400
0.0000961936000
-0.0000770239000
-0.0000290801000
0.0003125720000
0.0003916370000
0.0000290245000
-0.0003589460000
-0.0005433420000
-0.0004447210000
-0.0002110920000
0.0001678490000
0.0005794300000
0.0002267050000
-0.0003042780000
0.0000027964800
0.0005450800000
0.0003630830000
-0.0002174350000
-0.0002610070000
-0.0001382370000
-0.0000958385000
-0.0000591368000
-0.0002718080000
-0.0002916510000
-0.0001916050000
-0.0001312150000
-0.0000552436000
-0.0004173310000
-0.0003436480000
0.0002045800000
0.0003889980000
0.0001090190000
-0.0003670050000
-0.0002186470000
0.0001831890000
0.0001555400000
-0.0003050500000
-0.0007436420000
-0.0004698450000
-0.0000994711000
-0.0000564030000
-0.0000107809000
-0.0003867200000
-0.0003026510000
0.0004785000000
0.0007095230000
0.0004555560000
-0.0002254270000
-0.0005095630000
0.0000100496000
0.0005998480000
0.0007592910000
0.0003872330000
-0.0001069900000
-0.0003718280000
-0.0003145040000
-0.0003873190000
-0.0008751100000
-0.0008409720000
0.0000272537000
0.0004854040000
0.0004380370000
0.0000084549300
-0.0003300190000
0.0001534590000
0.0006419090000
0.0002239930000
-0.0001240690000
0.0004178000000
0.0006211340000
0.0006000110000
0.0004509360000
-0.0007329160000
-0.0012794000000
-0.0005027400000
0.0003009810000
0.0003077540000
-0.0006179660000
-0.0011259700000
-0.0004277790000
0.0006807280000
0.0006024490000
-0.0006533100000
-0.0011745000000
-0.0007637860000
0.0000773350000
0.0005268280000
0.0000421259000
0.0001435490000
0.0007627430000
0.0003216320000
-0.0006259690000
-0.0010677300000
-0.0003725250000
0.0000159756000
-0.0000179806000
0.0002346750000
-0.0002219710000
-0.0005546060000
-0.0000453704000
0.0002117490000
-0.0000772568000
-0.0001038910000
0.0008639530000
0.0009260250000
0.0000627715000
0.0000317739000
-0.0004945510000
-0.0009597480000
-0.0001237870000
0.0005493470000
0.0003983170000
0.0001836790000
0.0008619370000
0.0012690800000
0.0018007900000
0.0017137600000
-0.0000284500000
-0.0012855700000
-0.0012020300000
-0.0004257880000
-0.0000779655000
-0.0007785920000
-0.0007579000000
0.0008266080000
0.0019110200000
0.0008795530000
-0.0009850240000
-0.0012644700000
-0.0008624010000
-0.0004708850000
-0.0002651040000
-0.0007892840000
-0.0006376010000
0.0009250430000
0.0019465300000
0.0010517100000
-0.0002463980000
-0.0001072260000
0.0003446880000
0.0005502270000
0.0009227260000
0.0011349900000
0.0012833000000
0.0016496900000
0.0013170200000
-0.0010634200000
-0.0040551300000
-0.0048154400000
-0.0039665600000
-0.0038990100000
-0.0041681800000
-0.0040848500000
-0.0028194800000
-0.0000137221000
0.0025302900000
0.0040313800000
0.0051130100000
0.0069060000000
0.0085370400000
0.0091718000000
0.0075859800000
0.0032503500000
-0.0005597590000
-0.0015573600000
-0.0019735900000
-0.0041767000000
-0.0069561500000
-0.0080703600000
-0.0072904700000
-0.0061850400000
-0.0054891400000
-0.0052116100000
-0.0035855100000
-0.0004797490000
0.0029914500000
0.0049921900000
0.0043844300000
0.0042512400000
0.0058032200000
0.0070874000000
0.0070745400000
0.0065870800000
0.0075095400000
0.0087775000000
0.0094122600000
0.0093949300000
0.0072365000000
0.0042909900000
0.0026923200000
0.0014556300000
-0.0005611420000
-0.0036375500000
-0.0062797200000
-0.0075336700000
-0.0087969800000
-0.0124635000000
-0.0175745000000
-0.0202051000000
-0.0195002000000
-0.0165239000000
-0.0103110000000
-0.0012755900000
0.0088960200000
0.0165671000000
0.0178019000000
0.0133695000000
0.0096189000000
0.0104738000000
0.0123750000000
0.0119705000000
0.0102583000000
0.0084180800000
0.0056611800000
0.0004322590000
-0.0064057600000
-0.0127708000000
-0.0181521000000
-0.0210123000000
-0.0210602000000
-0.0192028000000
-0.0150995000000
-0.0088770000000
-0.0007865370000
0.0056375300000
0.0073363800000
0.0053365600000
0.0024481900000
0.0029241800000
0.0063668000000
0.0081765300000
0.0061643400000
0.0033088400000
0.0023535000000
0.0016058400000
0.0000075986600
-0.0019165100000
-0.0027249700000
0.0014470600000
0.0090035900000
0.0132164000000
0.0103903000000
0.0036754500000
0.0001694490000
0.0022615600000
0.0038735100000
0.0006485310000
-0.0042525100000
-0.0059276400000
-0.0046892700000
-0.0027560700000
-0.0024443800000
-0.0075580800000
-0.0167816000000
-0.0255991000000
-0.0313615000000
-0.0325888000000
-0.0269318000000
-0.0132878000000
0.0054344100000
0.0215867000000
0.0284445000000
0.0242002000000
0.0131606000000
0.0017640400000
-0.0046061800000
-0.0045371400000
-0.0018590000000
0.0025178200000
0.0094963000000
0.0185825000000
0.0256840000000
0.0262137000000
0.0193986000000
0.0064599900000
-0.0087558100000
-0.0221420000000
-0.0323691000000
-0.0376615000000
-0.0383794000000
-0.0368504000000
-0.0338871000000
-0.0277924000000
-0.0183833000000
-0.0081065900000
0.0033267900000
0.0169873000000
0.0319222000000
0.0467221000000
0.0585704000000
0.0614639000000
0.0535358000000
0.0381629000000
0.0194032000000
0.0013223300000
-0.0115880000000
-0.0165309000000
-0.0143868000000
-0.0093454700000
-0.0094203200000
-0.0190942000000
-0.0343662000000
-0.0441914000000
-0.0384294000000
-0.0169982000000
0.0092001300000
0.0281493000000
0.0343582000000
0.0283077000000
0.0140625000000
-0.0004971320000
-0.0078395700000
-0.0065772600000
0.0020408900000
0.0140939000000
0.0201406000000
0.0125977000000
-0.0064791400000
-0.0252395000000
-0.0331619000000
-0.0261868000000
-0.0090172900000
0.0073824100000
0.0174073000000
0.0220071000000
0.0235477000000
0.0245168000000
0.0238205000000
0.0196858000000
0.0145937000000
0.0118342000000
0.0098494000000
0.0029281100000
-0.0128019000000
-0.0350431000000
-0.0528215000000
-0.0561626000000
-0.0461875000000
-0.0323769000000
-0.0229974000000
-0.0190297000000
-0.0155794000000
-0.0076571400000
0.0076788200000
0.0277673000000
0.0453481000000
0.0562405000000
0.0645601000000
0.0738643000000
0.0774821000000
0.0630763000000
0.0285317000000
-0.0144789000000
-0.0482744000000
-0.0648317000000
-0.0715554000000
-0.0779131000000
-0.0837980000000
-0.0796224000000
-0.0572111000000
-0.0169276000000
0.0301464000000
0.0694587000000
0.0932034000000
0.1008730000000
0.0950748000000
0.0807085000000
0.0620016000000
0.0428244000000
0.0261030000000
0.0154188000000
0.0125442000000
0.0138334000000
0.0115377000000
-0.0013348700000
-0.0240184000000
-0.0506379000000
-0.0774585000000
-0.1012640000000
-0.1162040000000
-0.1147790000000
-0.0932122000000
-0.0543864000000
-0.0072226700000
0.0349375000000
0.0617972000000
0.0678898000000
0.0534141000000
0.0283721000000
0.0091441100000
0.0096162300000
0.0268568000000
0.0457490000000
0.0581651000000
0.0658359000000
0.0696105000000
0.0629154000000
0.0368524000000
-0.0051654200000
-0.0443862000000
-0.0573039000000
-0.0319860000000
0.0201949000000
0.0701924000000
0.0873233000000
0.0557916000000
-0.0170329000000
-0.1024830000000
-0.1585050000000
-0.1554980000000
-0.0976757000000
-0.0206646000000
0.0348355000000
0.0513876000000
0.0403904000000
0.0275556000000
0.0316328000000
0.0498679000000
0.0672590000000
0.0765708000000
0.0841892000000
0.0943402000000
0.0996480000000
0.0887186000000
0.0565581000000
0.0108706000000
-0.0285475000000
-0.0423669000000
-0.0280680000000
-0.0042518600000
0.0027413500000
-0.0204937000000
-0.0640261000000
-0.1080680000000
-0.1406180000000
-0.1591630000000
-0.1630380000000
-0.1522380000000
-0.1260540000000
-0.0863673000000
-0.0404286000000
0.0012335100000
0.0326199000000
0.0551870000000
0.0706548000000
0.0802459000000
0.0890580000000
0.1017850000000
0.1163760000000
0.1195190000000
0.0984896000000
0.0572365000000
0.0134140000000
-0.0210132000000
-0.0499137000000
-0.0800309000000
-0.1089720000000
-0.1261000000000
-0.1222760000000
-0.0993777000000
-0.0701772000000
-0.0463164000000
-0.0310575000000
-0.0196733000000
-0.0096006100000
-0.0013322000000
0.0053078300000
0.0131414000000
0.0241512000000
0.0382598000000
0.0577829000000
0.0831186000000
0.1043570000000
0.1052700000000
0.0774716000000
0.0302907000000
-0.0164543000000
-0.0476381000000
-0.0618299000000
-0.0664676000000
-0.0664469000000
-0.0587702000000
-0.0408970000000
-0.0161286000000
0.0025294100000
0.0018802000000
-0.0184328000000
-0.0453259000000
-0.0626285000000
-0.0617001000000
-0.0452000000000
-0.0229845000000
-0.0033089300000
0.0110212000000
0.0187208000000
0.0211123000000
0.0233156000000
0.0278450000000
0.0314233000000
0.0307192000000
0.0291570000000
0.0320007000000
0.0398286000000
0.0476189000000
0.0470255000000
0.0348507000000
0.0154640000000
-0.0049205200000
-0.0211772000000
-0.0333799000000
-0.0440901000000
-0.0541317000000
-0.0602848000000
-0.0558364000000
-0.0377752000000
-0.0112978000000
0.0131212000000
0.0291982000000
0.0388740000000
0.0448951000000
0.0453205000000
0.0378584000000
0.0234475000000
0.0095144200000
0.0067336800000
0.0179636000000
0.0330729000000
0.0380009000000
0.0271188000000
0.0046090700000
-0.0184145000000
-0.0317607000000
-0.0313783000000
-0.0195044000000
-0.0055484200000
0.0025219600000
0.0061678400000
0.0090350200000
0.0110444000000
0.0082333000000
-0.0018251700000
-0.0148883000000
-0.0197387000000
-0.0082367600000
0.0162021000000
0.0438131000000
0.0631296000000
0.0657302000000
0.0531109000000
0.0315414000000
0.0059721600000
-0.0187149000000
-0.0364931000000
-0.0451486000000
-0.0511346000000
-0.0611579000000
-0.0730506000000
-0.0815378000000
-0.0803217000000
-0.0684434000000
-0.0525141000000
-0.0376545000000
-0.0232029000000
-0.0029538500000
0.0289980000000
0.0728714000000
0.1222720000000
0.1656160000000
0.1885760000000
0.1782520000000
0.1340230000000
0.0702991000000
0.0075660100000
-0.0351822000000
-0.0531134000000
-0.0571371000000
-0.0606496000000
-0.0690045000000
-0.0782133000000
-0.0803925000000
-0.0715443000000
-0.0576040000000
-0.0488707000000
-0.0459833000000
-0.0370444000000
-0.0084435300000
0.0411109000000
0.0956775000000
0.1345980000000
0.1472370000000
0.1351950000000
0.1054390000000
0.0639812000000
0.0138515000000
-0.0440705000000
-0.1058970000000
-0.1631200000000
-0.2054620000000
-0.2253380000000
-0.2252520000000
-0.2143910000000
-0.1967490000000
-0.1672170000000
-0.1184120000000
-0.0532970000000
0.0100929000000
0.0505380000000
0.0603192000000
0.0532412000000
0.0515354000000
0.0685420000000
0.1025940000000
0.1390410000000
0.1579440000000
0.1447790000000
0.1028890000000
0.0484720000000
-0.0023208400000
-0.0365637000000
-0.0499593000000
-0.0464393000000
-0.0316602000000
-0.0107411000000
0.0121693000000
0.0314280000000
0.0420035000000
0.0392629000000
0.0216687000000
-0.0020026000000
-0.0176751000000
-0.0134224000000
0.0126846000000
0.0516921000000
0.0906368000000
0.1152740000000
0.1157600000000
0.0885186000000
0.0367015000000
-0.0267960000000
-0.0874906000000
-0.1331480000000
-0.1561730000000
-0.1590780000000
-0.1507840000000
-0.1393410000000
-0.1276360000000
-0.1166340000000
-0.0992960000000
-0.0559762000000
0.0208081000000
0.1076280000000
0.1671050000000
0.1773040000000
0.1447140000000
0.0940488000000
0.0522284000000
0.0301191000000
0.0202786000000
0.0155209000000
0.0139091000000
0.0097207700000
-0.0055563000000
-0.0341476000000
-0.0683279000000
-0.0962502000000
-0.1049540000000
-0.0858322000000
-0.0391102000000
0.0298279000000
0.1126990000000
0.1935500000000
0.2501850000000
0.2672960000000
0.2455680000000
0.1962670000000
0.1348490000000
0.0751220000000
0.0246681000000
-0.0135002000000
-0.0406209000000
-0.0595386000000
-0.0686400000000
-0.0662257000000
-0.0556607000000
-0.0422675000000
-0.0318683000000
-0.0289351000000
-0.0353556000000
-0.0483180000000
-0.0636455000000
-0.0753561000000
-0.0831006000000
-0.0944344000000
-0.1114010000000
-0.1268040000000
-0.1332210000000
-0.1285060000000
-0.1132920000000
-0.0884139000000
-0.0534787000000
-0.0095509100000
0.0359367000000
0.0713052000000
0.0922341000000
0.1028630000000
0.1056530000000
0.0986690000000
0.0807511000000
0.0566386000000
0.0355904000000
0.0255925000000
0.0272116000000
0.0302007000000
0.0207252000000
-0.0064639300000
-0.0415279000000
-0.0693251000000
-0.0832583000000
-0.0808067000000
-0.0649351000000
-0.0497003000000
-0.0477850000000
-0.0622143000000
-0.0873559000000
-0.1115410000000
-0.1212910000000
-0.1098170000000
-0.0818915000000
-0.0452871000000
-0.0047559300000
0.0341628000000
0.0637895000000
0.0820444000000
0.0956124000000
0.1085930000000
0.1191170000000
0.1244450000000
0.1215450000000
0.1073540000000
0.0844192000000
0.0612014000000
0.0428816000000
0.0312972000000
0.0265372000000
0.0217981000000
0.0082967200000
-0.0184208000000
-0.0591512000000
-0.1092070000000
-0.1600980000000
-0.2031660000000
-0.2268410000000
-0.2219300000000
-0.1874470000000
-0.1318560000000
-0.0726409000000
-0.0268955000000
-0.0000460925000
0.0191513000000
0.0460172000000
0.0881044000000
0.1420370000000
0.1963910000000
0.2398270000000
0.2643250000000
0.2656460000000
0.2463980000000
0.2137660000000
0.1756240000000
0.1396270000000
0.1114310000000
0.0906805000000
0.0702639000000
0.0426331000000
0.0047468800000
-0.0397525000000
-0.0878978000000
-0.1395610000000
-0.1867350000000
-0.2187090000000
-0.2333100000000
-0.2328580000000
-0.2200060000000
-0.1996760000000
-0.1760770000000
-0.1460480000000
-0.1089390000000
-0.0685283000000
-0.0284052000000
0.0067740500000
0.0332441000000
0.0516670000000
0.0657911000000
0.0819057000000
0.1040480000000
0.1294440000000
0.1473730000000
0.1472130000000
0.1267760000000
0.0891887000000
0.0423695000000
-0.0015443200000
-0.0330572000000
-0.0537339000000
-0.0718814000000
-0.0861720000000
-0.0854157000000
-0.0647809000000
-0.0320472000000
-0.0002122950000
0.0212471000000
0.0283923000000
0.0261374000000
0.0264604000000
0.0376319000000
0.0619176000000
0.0969993000000
0.1318670000000
0.1534650000000
0.1545440000000
0.1370710000000
0.1095120000000
0.0804592000000
0.0573360000000
0.0462789000000
0.0497080000000
0.0648069000000
0.0833516000000
0.0955892000000
0.0922972000000
0.0703278000000
0.0362568000000
-0.0007142850000
-0.0372800000000
-0.0720866000000
-0.0995167000000
-0.1187020000000
-0.1377230000000
-0.1634360000000
-0.1999690000000
-0.2482300000000
-0.3008070000000
-0.3450460000000
-0.3650100000000
-0.3441490000000
-0.2771630000000
-0.1761210000000
-0.0589136000000
0.0593808000000
0.1625150000000
0.2399400000000
0.2910920000000
0.3215690000000
0.3431990000000
0.3619770000000
0.3707300000000
0.3561230000000
0.3114850000000
0.2387610000000
0.1462670000000
0.0457531000000
-0.0506732000000
-0.1309760000000
-0.1823000000000
-0.1968700000000
-0.1722330000000
-0.1141370000000
-0.0418263000000
0.0272763000000
0.0873551000000
0.1345570000000
0.1635540000000
0.1734150000000
0.1657360000000
0.1382770000000
0.0901103000000
0.0288854000000
-0.0356048000000
-0.0955721000000
-0.1504360000000
-0.2011310000000
-0.2410450000000
-0.2597410000000
-0.2560770000000
-0.2372300000000
-0.2071360000000
-0.1632400000000
-0.1041930000000
-0.0394698000000
0.0156455000000
0.0541969000000
0.0780787000000
0.0892334000000
0.0876840000000
0.0728870000000
0.0472728000000
0.0169120000000
-0.0112002000000
-0.0315899000000
-0.0432295000000
-0.0442514000000
-0.0296766000000
0.0005487700000
0.0411929000000
0.0844364000000
0.1209690000000
0.1418240000000
0.1425400000000
0.1268190000000
0.1038890000000
0.0825526000000
0.0637784000000
0.0416843000000
0.0137158000000
-0.0167640000000
-0.0444858000000
-0.0671299000000
-0.0855751000000
-0.0970964000000
-0.0997459000000
-0.0948935000000
-0.0814962000000
-0.0596971000000
-0.0367163000000
-0.0195382000000
-0.0085197000000
0.0005519950000
0.0143176000000
0.0366252000000
0.0588098000000
0.0641595000000
0.0472414000000
0.0187746000000
-0.0041392500000
-0.0126381000000
-0.0092839900000
-0.0028645800000
-0.0006578070000
-0.0043885900000
-0.0123639000000
-0.0214444000000
-0.0285192000000
-0.0302891000000
-0.0255242000000
-0.0184139000000
-0.0123798000000
-0.0078101600000
-0.0068585500000
-0.0123601000000
-0.0263140000000
-0.0437404000000
-0.0560757000000
-0.0625215000000
-0.0661244000000
-0.0656968000000
-0.0569929000000
-0.0397666000000
-0.0159229000000
0.0098949500000
0.0263506000000
0.0287673000000
0.0268444000000
0.0306176000000
0.0393948000000
0.0454165000000
0.0465621000000
0.0457095000000
0.0419260000000
0.0323129000000
0.0130233000000
-0.0202053000000
-0.0675847000000
-0.1178840000000
-0.1559740000000
-0.1742800000000
-0.1734880000000
-0.1566780000000
-0.1269810000000
-0.0893056000000
-0.0521495000000
-0.0194769000000
0.0130114000000
0.0495756000000
0.0867594000000
0.1135770000000
0.1204320000000
0.1072490000000
0.0853207000000
0.0677138000000
0.0588354000000
0.0509137000000
0.0335142000000
0.0085753000000
-0.0092055300000
-0.0104346000000
0.0055214200000
0.0331098000000
0.0605684000000
0.0803065000000
0.0921485000000
0.0983551000000
0.0994809000000
0.0940737000000
0.0836792000000
0.0718797000000
0.0610228000000
0.0494792000000
0.0348958000000
0.0170404000000
-0.0027468900000
-0.0220783000000
-0.0397103000000
-0.0554482000000
-0.0675511000000
-0.0773239000000
-0.0846860000000
-0.0873770000000
-0.0869715000000
-0.0839828000000
-0.0778757000000
-0.0690082000000
-0.0543590000000
-0.0291620000000
0.0076916700000
0.0510099000000
0.0903691000000
0.1146190000000
0.1201960000000
0.1137690000000
0.1007810000000
0.0844150000000
0.0660288000000
0.0452753000000
0.0237899000000
0.0009090860000
-0.0262844000000
-0.0557733000000
-0.0822924000000
-0.0991814000000
-0.1027240000000
-0.0917011000000
-0.0639884000000
-0.0233826000000
0.0185527000000
0.0513351000000
0.0685786000000
0.0670005000000
0.0493309000000
0.0242235000000
-0.0022531000000
-0.0308621000000
-0.0638950000000
-0.0992273000000
-0.1298080000000
-0.1516080000000
-0.1647150000000
-0.1662110000000
-0.1539140000000
-0.1315720000000
-0.1024320000000
-0.0657167000000
-0.0262431000000
0.0030937100000
0.0144227000000
0.0098461300000
-0.0014800700000
-0.0080299900000
-0.0028226600000
0.0130383000000
0.0299880000000
0.0380972000000
0.0359398000000
0.0263220000000
0.0113702000000
-0.0078258900000
-0.0276362000000
-0.0422306000000
-0.0458772000000
-0.0354219000000
-0.0128120000000
0.0184994000000
0.0557188000000
0.0913764000000
0.1167280000000
0.1255270000000
0.1152030000000
0.0888139000000
0.0557698000000
0.0229806000000
-0.0104373000000
-0.0436373000000
-0.0690996000000
-0.0823110000000
-0.0842859000000
-0.0800893000000
-0.0759798000000
-0.0741526000000
-0.0760508000000
-0.0794852000000
-0.0775903000000
-0.0650424000000
-0.0437600000000
-0.0158532000000
0.0166015000000
0.0463698000000
0.0654462000000
0.0735119000000
0.0764277000000
0.0786747000000
0.0783437000000
0.0709838000000
0.0569003000000
0.0393832000000
0.0242010000000
0.0167132000000
0.0170585000000
0.0183341000000
0.0128063000000
-0.0017990200000
-0.0224966000000
-0.0427068000000
-0.0552574000000
-0.0574075000000
-0.0487164000000
-0.0303123000000
-0.0048653000000
0.0249332000000
0.0534363000000
0.0730117000000
0.0756780000000
0.0627429000000
0.0451025000000
0.0317091000000
0.0251524000000
0.0200667000000
0.0104756000000
-0.0008972410000
-0.0096941800000
-0.0151599000000
-0.0202522000000
-0.0283608000000
-0.0379324000000
-0.0429273000000
-0.0379387000000
-0.0237200000000
-0.0046511900000
0.0136187000000
0.0249150000000
0.0272891000000
0.0229937000000
0.0154170000000
0.0080012300000
0.0030945600000
0.0034863100000
0.0085961900000
0.0154714000000
0.0204378000000
0.0225139000000
0.0247921000000
0.0281343000000
0.0299395000000
0.0287115000000
0.0243294000000
0.0179206000000
0.0088259400000
-0.0054215100000
-0.0224763000000
-0.0387143000000
-0.0549336000000
-0.0756213000000
-0.1015310000000
-0.1276370000000
-0.1480430000000
-0.1571710000000
-0.1511670000000
-0.1312350000000
-0.1027300000000
-0.0722482000000
-0.0419531000000
-0.0123805000000
0.0163498000000
0.0453557000000
0.0750672000000
0.1039300000000
0.1266000000000
0.1372630000000
0.1339100000000
0.1172240000000
0.0899889000000
0.0558162000000
0.0200471000000
-0.0104186000000
-0.0307810000000
-0.0376964000000
-0.0331856000000
-0.0236118000000
-0.0118164000000
0.0007581250000
0.0144787000000
0.0297677000000
0.0447153000000
0.0561110000000
0.0639891000000
0.0710532000000
0.0776478000000
0.0810932000000
0.0773536000000
0.0655472000000
0.0496699000000
0.0330266000000
0.0166548000000
0.0013702800000
-0.0124993000000
-0.0246523000000
-0.0373311000000
-0.0515994000000
-0.0635836000000
-0.0720444000000
-0.0779252000000
-0.0793674000000
-0.0740775000000
-0.0622340000000
-0.0449615000000
-0.0243187000000
-0.0059038300000
0.0076802300000
0.0189596000000
0.0309938000000
0.0435385000000
0.0522751000000
0.0532932000000
0.0466659000000
0.0333559000000
0.0163667000000
-0.0008275310000
-0.0171230000000
-0.0309583000000
-0.0411513000000
-0.0466333000000
-0.0472409000000
-0.0454945000000
-0.0427978000000
-0.0350266000000
-0.0189962000000
0.0025888800000
0.0260694000000
0.0482982000000
0.0626070000000
0.0662662000000
0.0612065000000
0.0501422000000
0.0353984000000
0.0179751000000
0.0006827580000
-0.0131245000000
-0.0226449000000
-0.0268113000000
-0.0262853000000
-0.0238579000000
-0.0220610000000
-0.0229016000000
-0.0270132000000
-0.0320848000000
-0.0350903000000
-0.0371918000000
-0.0381346000000
-0.0355749000000
-0.0293887000000
-0.0220040000000
-0.0180526000000
-0.0206292000000
-0.0273748000000
-0.0350599000000
-0.0396651000000
-0.0392170000000
-0.0341412000000
-0.0241053000000
-0.0100909000000
0.0040619800000
0.0138061000000
0.0165882000000
0.0138028000000
0.0111299000000
0.0124521000000
0.0150205000000
0.0160872000000
0.0156894000000
0.0143608000000
0.0140598000000
0.0136447000000
0.0097001100000
0.0014867500000
-0.0088080000000
-0.0140152000000
-0.0072719400000
0.0094032500000
0.0283700000000
0.0429829000000
0.0516696000000
0.0543505000000
0.0505692000000
0.0403395000000
0.0267371000000
0.0132874000000
0.0010074000000
-0.0107169000000
-0.0231228000000
-0.0362363000000
-0.0451987000000
-0.0459666000000
-0.0398585000000
-0.0303257000000
-0.0208777000000
-0.0127211000000
-0.0046362400000
0.0060365800000
0.0194114000000
0.0297873000000
0.0349274000000
0.0377311000000
0.0409260000000
0.0451480000000
0.0488375000000
0.0511758000000
0.0513950000000
0.0502124000000
0.0498564000000
0.0525324000000
0.0582736000000
0.0642604000000
0.0665654000000
0.0632363000000
0.0548075000000
0.0461298000000
0.0411445000000
0.0375551000000
0.0304232000000
0.0174475000000
0.0008000640000
-0.0163020000000
-0.0327965000000
-0.0474433000000
-0.0600968000000
-0.0704863000000
-0.0784264000000
-0.0821426000000
-0.0803154000000
-0.0746056000000
-0.0643873000000
-0.0486948000000
-0.0297085000000
-0.0115599000000
0.0041398300000
0.0194547000000
0.0351267000000
0.0472199000000
0.0530485000000
0.0552712000000
0.0562203000000
0.0563927000000
0.0571612000000
0.0590643000000
0.0591479000000
0.0560897000000
0.0500085000000
0.0405601000000
0.0289241000000
0.0166651000000
0.0047660500000
-0.0063150600000
-0.0166960000000
-0.0261295000000
-0.0327698000000
-0.0352756000000
-0.0360796000000
-0.0367591000000
-0.0350208000000
-0.0300734000000
-0.0228191000000
-0.0154328000000
-0.0092264400000
-0.0026111300000
0.0052682100000
0.0136279000000
0.0209699000000
0.0235564000000
0.0197568000000
0.0124065000000
0.0050856000000
-0.0010980500000
-0.0030045600000
0.0008182650000
0.0064661600000
0.0103475000000
0.0099663100000
0.0044290400000
-0.0039804900000
-0.0136181000000
-0.0235130000000
-0.0326084000000
-0.0407517000000
-0.0470795000000
-0.0501692000000
-0.0492379000000
-0.0452795000000
-0.0377599000000
-0.0270487000000
-0.0176967000000
-0.0129539000000
-0.0144601000000
-0.0209855000000
-0.0279096000000
-0.0293560000000
-0.0227296000000
-0.0117512000000
-0.0036163100000
-0.0019108800000
-0.0036276400000
-0.0027303100000
0.0018131700000
0.0072062900000
0.0115897000000
0.0142651000000
0.0169872000000
0.0203736000000
0.0246456000000
0.0291640000000
0.0311895000000
0.0285473000000
0.0206629000000
0.0080215800000
-0.0048586000000
-0.0114424000000
-0.0091114600000
-0.0015580900000
0.0037295400000
0.0012706800000
-0.0064346900000
-0.0143471000000
-0.0195276000000
-0.0212952000000
-0.0216197000000
-0.0245124000000
-0.0307007000000
-0.0367194000000
-0.0374732000000
-0.0311712000000
-0.0217889000000
-0.0130741000000
-0.0078684600000
-0.0057818700000
-0.0002645210000
0.0147480000000
0.0376441000000
0.0586376000000
0.0691106000000
0.0673317000000
0.0572224000000
0.0479249000000
0.0431027000000
0.0374538000000
0.0279328000000
0.0179305000000
0.0134381000000
0.0164941000000
0.0247564000000
0.0346994000000
0.0428067000000
0.0469104000000
0.0480058000000
0.0478740000000
0.0477464000000
0.0498050000000
0.0537588000000
0.0553475000000
0.0516976000000
0.0420858000000
0.0269560000000
0.0095702800000
-0.0075956400000
-0.0239047000000
-0.0376795000000
-0.0476258000000
-0.0524415000000
-0.0522765000000
-0.0498742000000
-0.0484578000000
-0.0485665000000
-0.0500128000000
-0.0526677000000
-0.0533697000000
-0.0494571000000
-0.0407951000000
-0.0267448000000
-0.0085716500000
0.0104151000000
0.0279638000000
0.0425912000000
0.0534394000000
0.0583024000000
0.0553377000000
0.0478987000000
0.0419454000000
0.0407729000000
0.0419920000000
0.0400067000000
0.0318538000000
0.0209554000000
0.0126355000000
0.0068764700000
0.0015971300000
-0.0054769500000
-0.0168486000000
-0.0312259000000
-0.0472285000000
-0.0627044000000
-0.0716788000000
-0.0718610000000
-0.0662721000000
-0.0604789000000
-0.0585748000000
-0.0594457000000
-0.0577280000000
-0.0483143000000
-0.0307713000000
-0.0099309300000
0.0097129200000
0.0267889000000
0.0412282000000
0.0515813000000
0.0560616000000
0.0561230000000
0.0538654000000
0.0505900000000
0.0451452000000
0.0356480000000
0.0215148000000
0.0043674000000
-0.0099554100000
-0.0168228000000
-0.0169442000000
-0.0143301000000
-0.0119094000000
-0.0105801000000
-0.0112278000000
-0.0138541000000
-0.0171904000000
-0.0206555000000
-0.0236819000000
-0.0280252000000
-0.0347880000000
-0.0424789000000
-0.0493425000000
-0.0527786000000
-0.0535610000000
-0.0557432000000
-0.0602070000000
-0.0635083000000
-0.0605316000000
-0.0494424000000
-0.0331491000000
-0.0170935000000
-0.0056547300000
0.0000799699000
0.0031503100000
0.0073904400000
0.0157039000000
0.0273840000000
0.0399100000000
0.0490329000000
0.0497903000000
0.0426288000000
0.0329270000000
0.0253905000000
0.0200914000000
0.0162165000000
0.0126358000000
0.0080346700000
0.0026931500000
-0.0012108000000
-0.0027239800000
-0.0041330600000
-0.0072398700000
-0.0098159000000
-0.0099554400000
-0.0083351200000
-0.0053095000000
0.0002228360000
0.0090706100000
0.0201138000000
0.0327302000000
0.0458341000000
0.0572874000000
0.0636529000000
0.0594841000000
0.0449711000000
0.0244340000000
0.0027063000000
-0.0149144000000
-0.0283265000000
-0.0396678000000
-0.0503382000000
-0.0598344000000
-0.0657544000000
-0.0665752000000
-0.0611111000000
-0.0516769000000
-0.0416783000000
-0.0294747000000
-0.0121017000000
0.0085822100000
0.0277612000000
0.0402561000000
0.0430959000000
0.0376700000000
0.0288262000000
0.0208350000000
0.0161943000000
0.0158543000000
0.0168371000000
0.0160623000000
0.0141390000000
0.0119321000000
0.0113938000000
0.0122481000000
0.0091908600000
0.0008689760000
-0.0082518700000
-0.0121669000000
-0.0092219600000
-0.0027898500000
0.0025961900000
0.0047205100000
0.0031453000000
-0.0018683900000
-0.0083834400000
-0.0121646000000
-0.0111690000000
-0.0047760600000
0.0059541100000
0.0157939000000
0.0191355000000
0.0146746000000
0.0064441900000
-0.0020870300000
-0.0099751600000
-0.0167483000000
-0.0204082000000
-0.0184512000000
-0.0126631000000
-0.0071787400000
-0.0038196900000
-0.0046247900000
-0.0085605000000
-0.0123943000000
-0.0140151000000
-0.0117304000000
-0.0056203300000
0.0054090500000
0.0203888000000
0.0343342000000
0.0413079000000
0.0397118000000
0.0322637000000
0.0232081000000
0.0169268000000
0.0132303000000
0.0085410500000
0.0022062800000
-0.0034501500000
-0.0078145600000
-0.0099612700000
-0.0092973500000
-0.0065687900000
-0.0039481200000
-0.0019797300000
-0.0002323270000
0.0024006600000
0.0066459200000
0.0112644000000
0.0156264000000
0.0179726000000
0.0158092000000
0.0097812600000
0.0015489900000
-0.0058680200000
-0.0090291600000
-0.0072982400000
-0.0001381930000
0.0101596000000
0.0186740000000
0.0241679000000
0.0294702000000
0.0373894000000
0.0453312000000
0.0480754000000
0.0439549000000
0.0349184000000
0.0264327000000
0.0225549000000
0.0233449000000
0.0237866000000
0.0202924000000
0.0133386000000
0.0041177000000
-0.0067771100000
-0.0165627000000
-0.0228905000000
-0.0249413000000
-0.0241096000000
-0.0226630000000
-0.0218235000000
-0.0219545000000
-0.0228790000000
-0.0257783000000
-0.0310571000000
-0.0373319000000
-0.0419758000000
-0.0431018000000
-0.0413544000000
-0.0378520000000
-0.0337920000000
-0.0290417000000
-0.0224574000000
-0.0138121000000
-0.0042268200000
0.0035755200000
0.0079983300000
0.0117495000000
0.0155584000000
0.0157265000000
0.0110807000000
0.0032006700000
-0.0050629500000
-0.0122461000000
-0.0172267000000
-0.0210590000000
-0.0256672000000
-0.0310644000000
-0.0358849000000
-0.0397321000000
-0.0439092000000
-0.0470051000000
-0.0464991000000
-0.0421790000000
-0.0357302000000
-0.0279608000000
-0.0182768000000
-0.0073315200000
0.0009161510000
0.0039790400000
0.0014010900000
-0.0063909000000
-0.0148165000000
-0.0194338000000
-0.0204251000000
-0.0188370000000
-0.0156436000000
-0.0117584000000
-0.0075656000000
-0.0045330400000
-0.0031141400000
-0.0028307900000
-0.0016492700000
0.0008053110000
0.0045838000000
0.0108690000000
0.0192544000000
0.0281585000000
0.0353619000000
0.0389685000000
0.0379698000000
0.0338839000000
0.0309400000000
0.0300353000000
0.0280295000000
0.0237532000000
0.0174913000000
0.0122784000000
0.0102430000000
0.0101539000000
0.0091217100000
0.0046344900000
-0.0028566100000
-0.0093303900000
-0.0103620000000
-0.0059637600000
0.0017184300000
0.0092183900000
0.0135731000000
0.0141542000000
0.0121039000000
0.0096217300000
0.0082140600000
0.0065198000000
0.0035999600000
-0.0015356100000
-0.0088214400000
-0.0136570000000
-0.0137995000000
-0.0121327000000
-0.0113630000000
-0.0113098000000
-0.0116315000000
-0.0127814000000
-0.0141520000000
-0.0153815000000
-0.0150253000000
-0.0104141000000
-0.0032497800000
0.0021952100000
0.0063841000000
0.0112999000000
0.0178251000000
0.0239182000000
0.0268925000000
0.0258692000000
0.0232639000000
0.0236310000000
0.0281158000000
0.0336905000000
0.0351645000000
0.0302586000000
0.0222862000000
0.0126914000000
0.0000839973000
-0.0140979000000
-0.0285966000000
-0.0424917000000
-0.0525847000000
-0.0555540000000
-0.0516087000000
-0.0429924000000
-0.0306579000000
-0.0182618000000
-0.0075748500000
0.0023037100000
0.0103905000000
0.0168215000000
0.0223618000000
0.0261484000000
0.0276354000000
0.0258128000000
0.0193206000000
0.0084012000000
-0.0048021700000
-0.0172873000000
-0.0267723000000
-0.0313010000000
-0.0314353000000
-0.0285542000000
-0.0221400000000
-0.0131547000000
-0.0020690300000
0.0094490700000
0.0188130000000
0.0254408000000
0.0300998000000
0.0314931000000
0.0286829000000
0.0232967000000
0.0166266000000
0.0098542700000
0.0040822100000
-0.0019292300000
-0.0109126000000
-0.0210802000000
-0.0284674000000
-0.0293097000000
-0.0234155000000
-0.0134420000000
-0.0022830200000
0.0078600400000
0.0159603000000
0.0198493000000
0.0193845000000
0.0164530000000
0.0141943000000
0.0160256000000
0.0196631000000
0.0190341000000
0.0144590000000
0.0096102300000
0.0071751400000
0.0069546500000
0.0074172700000
0.0071832300000
0.0053129300000
0.0026564500000
0.0002140530000
-0.0002652030000
0.0000759481000
-0.0016960900000
-0.0038054900000
-0.0040648800000
-0.0040809300000
-0.0028873200000
0.0012029900000
0.0078374600000
0.0150963000000
0.0204082000000
0.0230201000000
0.0237709000000
0.0243991000000
0.0254337000000
0.0253513000000
0.0207292000000
0.0115218000000
0.0015402400000
-0.0072366400000
-0.0152511000000
-0.0204031000000
-0.0222123000000
-0.0220737000000
-0.0212696000000
-0.0198364000000
-0.0200777000000
-0.0232668000000
-0.0269983000000
-0.0291840000000
-0.0286270000000
-0.0260043000000
-0.0219447000000
-0.0165195000000
-0.0128232000000
-0.0127048000000
-0.0152566000000
-0.0187421000000
-0.0202556000000
-0.0188857000000
-0.0165683000000
-0.0143494000000
-0.0113544000000
-0.0065008800000
0.0001178670000
0.0060924800000
0.0092947700000
0.0111799000000
0.0145741000000
0.0179337000000
0.0188382000000
0.0158630000000
0.0105330000000
0.0068050200000
0.0038386300000
-0.0011261700000
-0.0072671900000
-0.0118683000000
-0.0132843000000
-0.0122711000000
-0.0101430000000
-0.0082820900000
-0.0070838400000
-0.0052541900000
-0.0018667100000
0.0029941700000
0.0087888600000
0.0148009000000
0.0200180000000
0.0228498000000
0.0240118000000
0.0234188000000
0.0207914000000
0.0181601000000
0.0153046000000
0.0108505000000
0.0057966200000
0.0013136800000
-0.0013173600000
-0.0025247400000
-0.0051973500000
-0.0091638000000
-0.0113153000000
-0.0114546000000
-0.0102376000000
-0.0075046000000
-0.0057461900000
-0.0061762600000
-0.0062600700000
-0.0047117700000
-0.0020483300000
-0.0005661460000
-0.0011273900000
-0.0014421500000
-0.0004955880000
0.0011586800000
0.0020387800000
0.0008303540000
-0.0010253000000
-0.0027696400000
-0.0049388000000
-0.0069142800000
-0.0075050200000
-0.0061538600000
-0.0036317100000
-0.0023477500000
-0.0032473100000
-0.0060941400000
-0.0097808500000
-0.0124216000000
-0.0135353000000
-0.0151953000000
-0.0168060000000
-0.0154170000000
-0.0120621000000
-0.0099409300000
-0.0103281000000
-0.0119531000000
-0.0122033000000
-0.0123364000000
-0.0143561000000
-0.0158916000000
-0.0146135000000
-0.0106227000000
-0.0065495000000
-0.0050485500000
-0.0052012400000
-0.0044761500000
-0.0017339100000
0.0027998600000
0.0082324000000
0.0126076000000
0.0141362000000
0.0148802000000
0.0161170000000
0.0172498000000
0.0185467000000
0.0192759000000
0.0193889000000
0.0170710000000
0.0123763000000
0.0087827300000
0.0067411200000
0.0058396900000
0.0048976500000
0.0021559000000
-0.0010584400000
-0.0026351900000
-0.0027668700000
-0.0028679800000
-0.0046623900000
-0.0087852200000
-0.0125876000000
-0.0127033000000
-0.0104144000000
-0.0076207900000
-0.0042235200000
-0.0015447700000
0.0012067300000
0.0039107500000
0.0061739400000
0.0088592900000
0.0124442000000
0.0172985000000
0.0229902000000
0.0269581000000
0.0271043000000
0.0235929000000
0.0187102000000
0.0144796000000
0.0113470000000
0.0085841000000
0.0054245500000
0.0033255200000
0.0015096500000
-0.0014198900000
-0.0034904600000
-0.0040657100000
-0.0022245700000
0.0028775900000
0.0092915400000
0.0145497000000
0.0183263000000
0.0207998000000
0.0214812000000
0.0199381000000
0.0162753000000
0.0111051000000
0.0071516000000
0.0046370400000
0.0017334000000
-0.0015843600000
-0.0047021900000
-0.0063518600000
-0.0075211600000
-0.0099534700000
-0.0147247000000
-0.0207063000000
-0.0230523000000
-0.0192673000000
-0.0130436000000
-0.0077050400000
-0.0041457100000
-0.0014036200000
-0.0012142500000
-0.0031592400000
-0.0041676000000
-0.0041022800000
-0.0036227700000
-0.0028376500000
-0.0020010100000
-0.0007333570000
0.0021381000000
0.0052468500000
0.0071119200000
0.0081835900000
0.0090751200000
0.0101543000000
0.0122307000000
0.0131061000000
0.0116440000000
0.0088867600000
0.0047108200000
-0.0002862080000
-0.0059001700000
-0.0137282000000
-0.0239877000000
-0.0335653000000
-0.0390589000000
-0.0400946000000
-0.0379145000000
-0.0332479000000
-0.0269543000000
-0.0189967000000
-0.0105823000000
-0.0024143200000
0.0056801600000
0.0112034000000
0.0139959000000
0.0152034000000
0.0142229000000
0.0113759000000
0.0079887500000
0.0045335500000
0.0007183260000
-0.0031956400000
-0.0067569300000
-0.0089250000000
-0.0074667700000
-0.0032480400000
0.0010600200000
0.0038264700000
0.0040061800000
0.0032152400000
0.0016439900000
-0.0016741100000
-0.0052559900000
-0.0088872900000
-0.0116200000000
-0.0119526000000
-0.0103275000000
-0.0088179000000
-0.0079259500000
-0.0076838500000
-0.0084063500000
-0.0101219000000
-0.0132768000000
-0.0167875000000
-0.0180103000000
-0.0168056000000
-0.0147968000000
-0.0117284000000
-0.0078980000000
-0.0029347000000
0.0032638800000
0.0084707300000
0.0119522000000
0.0158685000000
0.0212532000000
0.0263564000000
0.0299076000000
0.0305489000000
0.0270779000000
0.0217602000000
0.0166761000000
0.0112902000000
0.0053141800000
-0.0001271840000
-0.0015280300000
-0.0000380055000
0.0018723800000
0.0039772200000
0.0049413200000
0.0048690600000
0.0044298300000
0.0027344800000
0.0001078150000
-0.0018721400000
-0.0030171700000
-0.0034115400000
-0.0028587300000
-0.0024805900000
-0.0029296700000
-0.0032684000000
-0.0043660400000
-0.0060751100000
-0.0069611500000
-0.0065224300000
-0.0047127700000
-0.0043467400000
-0.0068754800000
-0.0091554200000
-0.0105445000000
-0.0132250000000
-0.0155748000000
-0.0156009000000
-0.0144613000000
-0.0117592000000
-0.0083775300000
-0.0049666200000
-0.0006371340000
0.0038638400000
0.0063921500000
0.0084704000000
0.0109154000000
0.0130049000000
0.0143108000000
0.0147344000000
0.0157514000000
0.0158115000000
0.0131884000000
0.0094367000000
0.0059969300000
0.0047634800000
0.0072161300000
0.0116279000000
0.0140011000000
0.0129214000000
0.0115778000000
0.0105444000000
0.0080947300000
0.0039697400000
-0.0008718680000
-0.0041641800000
-0.0073162400000
-0.0107530000000
-0.0123483000000
-0.0116307000000
-0.0097987500000
-0.0081238600000
-0.0057493900000
-0.0027582500000
-0.0006055440000
0.0021049400000
0.0057110700000
0.0093609200000
0.0120324000000
0.0115711000000
0.0096602300000
0.0095029900000
0.0113788000000
0.0118254000000
0.0112272000000
0.0126273000000
0.0157035000000
0.0184000000000
0.0192768000000
0.0185161000000
0.0178765000000
0.0164605000000
0.0127878000000
0.0085731500000
0.0037248600000
-0.0007426030000
-0.0028173700000
-0.0037978400000
-0.0048209900000
-0.0072693900000
-0.0112039000000
-0.0141199000000
-0.0149184000000
-0.0156264000000
-0.0163772000000
-0.0153737000000
-0.0133905000000
-0.0115350000000
-0.0093478200000
-0.0067704100000
-0.0031814800000
0.0007323130000
0.0038280600000
0.0061708300000
0.0068459800000
0.0060417800000
0.0043996100000
0.0017625700000
-0.0015617600000
-0.0038749300000
-0.0048406800000
-0.0055086600000
-0.0069022600000
-0.0079087300000
-0.0078359400000
-0.0062956100000
-0.0042780500000
-0.0037706300000
-0.0039891900000
-0.0050545700000
-0.0056585700000
-0.0037834700000
-0.0010781900000
-0.0004393980000
-0.0014604200000
-0.0023350300000
-0.0037894800000
-0.0063885000000
-0.0080813400000
-0.0088265800000
-0.0081587500000
-0.0051189900000
-0.0007151550000
0.0037155700000
0.0092937700000
0.0160658000000
0.0218091000000
0.0249373000000
0.0248942000000
0.0204034000000
0.0124735000000
0.0042935400000
-0.0028801600000
-0.0082410200000
-0.0117408000000
-0.0135207000000
-0.0142407000000
-0.0136025000000
-0.0118238000000
-0.0085046200000
-0.0029359900000
0.0026992200000
0.0055736400000
0.0062589400000
0.0066437700000
0.0083181100000
0.0108197000000
0.0114543000000
0.0101744000000
0.0075534000000
0.0043872400000
0.0023745300000
0.0019181200000
0.0016547400000
0.0012498100000
0.0015463300000
0.0023808300000
0.0032557000000
0.0035038400000
0.0023437100000
0.0006810810000
-0.0002205630000
-0.0022263400000
-0.0060385700000
-0.0100998000000
-0.0125174000000
-0.0133443000000
-0.0139411000000
-0.0136353000000
-0.0119192000000
-0.0086136700000
-0.0045919600000
-0.0011630600000
0.0004247230000
-0.0002273360000
-0.0003578400000
0.0023248600000
0.0050772000000
0.0057676700000
0.0049476200000
0.0046670500000
0.0050879100000
0.0051392200000
0.0040598200000
0.0010076400000
-0.0028475700000
-0.0059334600000
-0.0083586100000
-0.0095198100000
-0.0089581500000
-0.0066213100000
-0.0030839800000
-0.0006316040000
-0.0011993000000
-0.0042752000000
-0.0064582600000
-0.0060318400000
-0.0047936400000
-0.0033154600000
-0.0013381800000
0.0022131900000
0.0073611400000
0.0115889000000
0.0133799000000
0.0121850000000
0.0100940000000
0.0087237700000
0.0069986100000
0.0035480900000
0.0001703750000
-0.0004902890000
-0.0001215030000
-0.0012083300000
-0.0039448500000
-0.0064050300000
-0.0061234300000
-0.0041774000000
-0.0022364500000
-0.0010558700000
-0.0008119910000
-0.0000841837000
0.0015790600000
0.0028420600000
0.0030806100000
0.0019446900000
0.0012720900000
0.0020003200000
0.0033542200000
0.0030474300000
0.0011334100000
0.0004282060000
0.0004489810000
-0.0002116170000
-0.0019432100000
-0.0040137900000
-0.0043328600000
-0.0026896200000
0.0000547325000
0.0032907600000
0.0059387100000
0.0082477300000
0.0098202000000
0.0091991500000
0.0056946800000
0.0008977450000
-0.0024404200000
-0.0039954200000
-0.0039679800000
-0.0035427700000
-0.0038196400000
-0.0037371100000
-0.0033268800000
-0.0032043500000
-0.0030484400000
-0.0036133500000
-0.0042117400000
-0.0040069900000
-0.0034429300000
-0.0031622200000
-0.0034987100000
-0.0024715400000
0.0005727610000
0.0037858200000
0.0064046500000
0.0069213100000
0.0061718700000
0.0062333000000
0.0068869700000
0.0063623200000
0.0049370500000
0.0036635400000
0.0004672060000
-0.0042771200000
-0.0074078800000
-0.0096371100000
-0.0114140000000
-0.0117205000000
-0.0100960000000
-0.0070128300000
-0.0042684000000
-0.0011896200000
0.0031772100000
0.0067863000000
0.0084825200000
0.0086506500000
0.0082836600000
0.0073752200000
0.0050670800000
0.0013014100000
-0.0022804700000
-0.0044715200000
-0.0068022700000
-0.0095925200000
-0.0112413000000
-0.0107911000000
-0.0076780100000
-0.0024458700000
0.0031100900000
0.0078203500000
0.0110772000000
0.0138452000000
0.0160721000000
0.0167610000000
0.0155388000000
0.0118815000000
0.0078284800000
0.0048948900000
0.0015059200000
-0.0027056600000
-0.0055256100000
-0.0049845800000
-0.0025541600000
-0.0007341340000
-0.0010893100000
-0.0022134500000
-0.0017366200000
-0.0012290700000
-0.0008926890000
0.0001359890000
0.0001966560000
0.0003109970000
0.0017702200000
0.0035068600000
0.0044886900000
0.0045712600000
0.0047674400000
0.0056738000000
0.0072464000000
0.0085154400000
0.0084590900000
0.0088068600000
0.0100243000000
0.0107051000000
0.0104692000000
0.0080581700000
0.0044848800000
0.0016906700000
-0.0014556600000
-0.0052218600000
-0.0083348300000
-0.0098885500000
-0.0105728000000
-0.0104948000000
-0.0100291000000
-0.0088407500000
-0.0056571800000
-0.0001573870000
0.0053081000000
0.0087055200000
0.0109385000000
0.0138537000000
0.0173912000000
0.0191849000000
0.0175741000000
0.0151319000000
0.0136436000000
0.0121816000000
0.0098757900000
0.0068018400000
0.0025420200000
-0.0012840300000
-0.0045575300000
-0.0096029100000
-0.0154516000000
-0.0193662000000
-0.0200473000000
-0.0193298000000
-0.0185929000000
-0.0188796000000
-0.0198678000000
-0.0186393000000
-0.0149203000000
-0.0108994000000
-0.0068457500000
-0.0025383700000
0.0015462600000
0.0043650500000
0.0048332600000
0.0025560600000
-0.0008795070000
-0.0035606000000
-0.0054683300000
-0.0066463500000
-0.0083328600000
-0.0108353000000
-0.0119134000000
-0.0117681000000
-0.0116727000000
-0.0120215000000
-0.0128558000000
-0.0125049000000
-0.0107461000000
-0.0083570200000
-0.0048597900000
-0.0006955240000
0.0039807300000
0.0080888800000
0.0092524600000
0.0068590600000
0.0031178200000
0.0008397360000
-0.0004603830000
-0.0021215300000
-0.0042809500000
-0.0075874200000
-0.0107374000000
-0.0129180000000
-0.0143776000000
-0.0140653000000
-0.0122940000000
-0.0098907800000
-0.0075717200000
-0.0061979900000
-0.0053399900000
-0.0039354600000
-0.0018965800000
-0.0010143600000
-0.0010656200000
0.0000121464000
0.0011557000000
0.0024181800000
0.0047068600000
0.0070026900000
0.0073453100000
0.0055836100000
0.0060166000000
0.0097801600000
0.0129097000000
0.0128388000000
0.0104102000000
0.0078901400000
0.0057587600000
0.0046595600000
0.0048334700000
0.0039000400000
0.0021312400000
0.0011605400000
0.0009896360000
0.0014258400000
0.0030035000000
0.0065359500000
0.0115991000000
0.0153842000000
0.0169399000000
0.0186794000000
0.0211922000000
0.0219487000000
0.0203282000000
0.0170071000000
0.0118323000000
0.0073459700000
0.0048917300000
0.0035423900000
0.0022852600000
0.0017006600000
0.0026564400000
0.0043237200000
0.0041446700000
0.0013617900000
-0.0011618400000
-0.0012669600000
-0.0003773260000
0.0011940200000
0.0041860800000
0.0071269900000
0.0097404100000
0.0116242000000
0.0110253000000
0.0074556300000
0.0020692600000
-0.0029409100000
-0.0063613000000
-0.0091163100000
-0.0109229000000
-0.0107229000000
-0.0085281300000
-0.0062589600000
-0.0052447900000
-0.0064701100000
-0.0086119300000
-0.0082055700000
-0.0049719500000
-0.0013219200000
0.0009377540000
0.0028895500000
0.0059739600000
0.0093439600000
0.0106013000000
0.0093666400000
0.0069660700000
0.0049985000000
0.0044865400000
0.0034344400000
0.0012825700000
0.0001647340000
0.0001057370000
-0.0014583400000
-0.0045319700000
-0.0071704700000
-0.0090935200000
-0.0094264100000
-0.0073155800000
-0.0049812100000
-0.0044944600000
-0.0059836600000
-0.0064728100000
-0.0058173300000
-0.0068017400000
-0.0094704900000
-0.0116725000000
-0.0113885000000
-0.0098159900000
-0.0087106100000
-0.0087992500000
-0.0100117000000
-0.0107595000000
-0.0094291900000
-0.0058423400000
-0.0015711900000
0.0011975900000
0.0038445600000
0.0069917300000
0.0087175500000
0.0080779800000
0.0068700300000
0.0070354100000
0.0078003000000
0.0075642600000
0.0058355300000
0.0032617600000
0.0013064300000
-0.0010744300000
-0.0046754900000
-0.0085470700000
-0.0119773000000
-0.0142497000000
-0.0162694000000
-0.0175661000000
-0.0164197000000
-0.0134051000000
-0.0102792000000
-0.0063732400000
-0.0021722400000
0.0010368300000
0.0034482300000
0.0053857700000
0.0063307700000
0.0058484000000
0.0036443200000
0.0008392540000
-0.0012207900000
-0.0033033300000
-0.0052279600000
-0.0067253800000
-0.0091715500000
-0.0113629000000
-0.0114343000000
-0.0101707000000
-0.0086735600000
-0.0066828900000
-0.0031973300000
0.0012767000000
0.0043531900000
0.0050337500000
0.0044603700000
0.0056397200000
0.0081885100000
0.0086888900000
0.0060049200000
0.0022157100000
0.0004371340000
0.0011517200000
0.0017337800000
0.0009473870000
-0.0001584680000
-0.0013328900000
-0.0024974300000
-0.0025425400000
-0.0016562000000
-0.0014362100000
-0.0016138400000
-0.0011031100000
-0.0004544860000
-0.0000518697000
0.0010574100000
0.0036879000000
0.0061277000000
0.0067082400000
0.0060077900000
0.0055208900000
0.0063899800000
0.0074925200000
0.0082174900000
0.0083715700000
0.0065105800000
0.0044116500000
0.0035626900000
0.0024139300000
-0.0000098876600
-0.0025294000000
-0.0027961000000
-0.0006377580000
0.0023859200000
0.0042958600000
0.0046406900000
0.0044980000000
0.0034976000000
0.0019678000000
0.0016493400000
0.0022132500000
0.0029805700000
0.0031247400000
0.0021855600000
0.0004999960000
-0.0017628100000
-0.0030304700000
-0.0027257200000
-0.0012976500000
0.0001900630000
0.0005142320000
0.0010373100000
0.0030199600000
0.0044668800000
0.0043139200000
0.0037251600000
0.0042246100000
0.0051513800000
0.0049252100000
0.0027953000000
-0.0007541530000
-0.0036381000000
-0.0056173500000
-0.0063648800000
-0.0058501200000
-0.0055832700000
-0.0045280200000
-0.0025698800000
-0.0015883600000
-0.0016851300000
-0.0026377100000
-0.0029394200000
-0.0017583000000
0.0000869518000
0.0012632300000
0.0022482300000
0.0043588500000
0.0060717100000
0.0058797400000
0.0037192200000
0.0000674182000
-0.0029756900000
-0.0039611100000
-0.0039515600000
-0.0039275300000
-0.0038385900000
-0.0026321600000
-0.0007512080000
-0.0001060760000
-0.0014811600000
-0.0034899000000
-0.0033258300000
-0.0013816700000
0.0007310150000
0.0026102100000
0.0035374700000
0.0043193700000
0.0059801900000
0.0059897000000
0.0032887100000
-0.0003798500000
-0.0023207200000
-0.0018175900000
-0.0004518570000
0.0003001220000
0.0003033160000
0.0006334150000
0.0007805540000
0.0002371340000
-0.0004785090000
-0.0016906200000
-0.0024786600000
-0.0028497400000
-0.0042368200000
-0.0060144600000
-0.0066110900000
-0.0047546400000
-0.0016337600000
0.0007773110000
0.0009130260000
-0.0006703890000
-0.0012445800000
-0.0007696430000
-0.0010715200000
-0.0025081000000
-0.0043013200000
-0.0047664200000
-0.0036824300000
-0.0025094100000
-0.0024940800000
-0.0031522000000
-0.0030446100000
-0.0020494500000
-0.0008364590000
-0.0004335490000
-0.0002521920000
0.0008055850000
0.0023267500000
0.0033540700000
0.0038754000000
0.0033768400000
0.0031205200000
0.0040970100000
0.0037790900000
0.0015631900000
-0.0006195640000
-0.0012416800000
-0.0008160810000
-0.0002543960000
-0.0005438720000
-0.0017611100000
-0.0027363100000
-0.0030582100000
-0.0030262600000
-0.0033747200000
-0.0052230300000
-0.0069719400000
-0.0069269700000
-0.0062180300000
-0.0051980900000
-0.0044255300000
-0.0039619700000
-0.0033636100000
-0.0020061500000
0.0002901730000
0.0036280200000
0.0078384000000
0.0107438000000
0.0107943000000
0.0083708000000
0.0052268000000
0.0031215500000
0.0017882700000
0.0004572260000
-0.0009484530000
-0.0024441900000
-0.0030139600000
-0.0028669400000
-0.0027587100000
-0.0025670900000
-0.0029152600000
-0.0026755800000
-0.0018152000000
-0.0015888600000
-0.0024713000000
-0.0035168700000
-0.0037379400000
-0.0037120100000
-0.0039160100000
-0.0048456600000
-0.0061332200000
-0.0058516500000
-0.0027235500000
0.0018589700000
0.0046331300000
0.0046096700000
0.0048403200000
0.0054468600000
0.0057499500000
0.0053910800000
0.0031736400000
0.0018102300000
0.0022732300000
0.0015946100000
-0.0007399560000
-0.0024447100000
-0.0022427700000
-0.0008187400000
0.0011263700000
0.0025465700000
0.0028455600000
0.0031658100000
0.0040571900000
0.0052310400000
0.0058470500000
0.0061921400000
0.0066441400000
0.0069880500000
0.0074789100000
0.0067175200000
0.0047038800000
0.0036169800000
0.0036433800000
0.0026318300000
0.0001601430000
-0.0019666600000
-0.0022553100000
-0.0018424000000
-0.0025463700000
-0.0038667300000
-0.0056194100000
-0.0064215600000
-0.0054104700000
-0.0029670800000
-0.0002306640000
0.0022604800000
0.0041775800000
0.0060595000000
0.0081978100000
0.0091917200000
0.0089538500000
0.0090180200000
0.0082721200000
0.0048408600000
-0.0001604980000
-0.0055251100000
-0.0085845200000
-0.0084883500000
-0.0078888100000
-0.0085712100000
-0.0088579100000
-0.0081065100000
-0.0072804600000
-0.0059783300000
-0.0047109600000
-0.0032564000000
0.0001160470000
0.0039533200000
0.0067061000000
0.0087062600000
0.0087585600000
0.0084281900000
0.0083226500000
0.0068699000000
0.0045125400000
0.0026742700000
0.0009924230000
-0.0011189700000
-0.0032947100000
-0.0059583500000
-0.0089965000000
-0.0101133000000
-0.0092983000000
-0.0080455800000
-0.0068903400000
-0.0064085200000
-0.0063070100000
-0.0063343800000
-0.0063585700000
-0.0071949700000
-0.0074784500000
-0.0058699200000
-0.0044540900000
-0.0032799900000
-0.0022231000000
-0.0019049000000
-0.0002757110000
0.0036233400000
0.0072394200000
0.0093616600000
0.0106136000000
0.0114272000000
0.0109387000000
0.0094256000000
0.0067011500000
0.0028964400000
0.0000040773900
-0.0017313200000
-0.0036677600000
-0.0054612500000
-0.0065873600000
-0.0066640600000
-0.0059888600000
-0.0053319200000
-0.0044029800000
-0.0035811100000
-0.0024125700000
-0.0006975580000
0.0005628910000
0.0004143920000
-0.0003661360000
0.0005892800000
0.0020155100000
0.0017895600000
0.0011065300000
0.0000538827000
-0.0010869600000
-0.0018068600000
-0.0017451500000
-0.0011427000000
-0.0007078800000
-0.0001876900000
0.0000185664000
0.0001121980000
0.0005015240000
0.0001385770000
-0.0001311870000
0.0007502220000
0.0014422900000
0.0021506100000
0.0034856200000
0.0045040900000
0.0051858000000
0.0064162300000
0.0065373000000
0.0052112300000
0.0053955300000
0.0067377100000
0.0059479800000
0.0029499600000
-0.0012243900000
-0.0043227400000
-0.0056896500000
-0.0064015200000
-0.0065831900000
-0.0063248200000
-0.0063011800000
-0.0061368200000
-0.0046038400000
-0.0026351200000
-0.0011297300000
0.0011300900000
0.0039281400000
0.0053500800000
0.0066197300000
0.0068327200000
0.0059817700000
0.0054951500000
0.0050628300000
0.0033173800000
0.0005323540000
-0.0013128000000
-0.0019576100000
-0.0026332200000
-0.0044446900000
-0.0064823900000
-0.0060520300000
-0.0031526700000
-0.0001806270000
0.0023526000000
0.0039597300000
0.0049607600000
0.0063061200000
0.0082554300000
0.0094020700000
0.0095884100000
0.0110074000000
0.0131256000000
0.0145251000000
0.0118011000000
0.0053438800000
0.0006465640000
-0.0008563920000
-0.0014643300000
-0.0022531100000
-0.0033061600000
-0.0044208800000
-0.0052536800000
-0.0059017700000
-0.0057979000000
-0.0055818800000
-0.0061192600000
-0.0066688200000
-0.0055903900000
-0.0032973200000
-0.0008216220000
0.0027036600000
0.0058663700000
0.0065251700000
0.0050801800000
0.0018366600000
0.0002876730000
0.0019995300000
0.0033467900000
0.0024327600000
0.0012787400000
0.0006236150000
-0.0003700860000
-0.0021627500000
-0.0034021100000
-0.0030393400000
-0.0026429000000
-0.0031181200000
-0.0033259400000
-0.0036403300000
-0.0047358700000
-0.0048433300000
-0.0043738300000
-0.0044698300000
-0.0050149300000
-0.0058536800000
-0.0054964400000
-0.0026138600000
0.0005229040000
0.0019283600000
0.0021342400000
0.0007035670000
-0.0016262000000
-0.0031779600000
-0.0046783800000
-0.0061401200000
-0.0060944100000
-0.0056277200000
-0.0051333600000
-0.0045805100000
-0.0048993000000
-0.0046346200000
-0.0035097800000
-0.0037020600000
-0.0042252100000
-0.0045002000000
-0.0037816200000
-0.0007557850000
0.0026852000000
0.0045418800000
0.0049930800000
0.0050126900000
0.0043889900000
0.0033644900000
0.0011838900000
-0.0012901900000
-0.0019132800000
-0.0010367100000
0.0000251299000
-0.0002262250000
-0.0011974000000
-0.0006829260000
0.0009023760000
0.0022434600000
0.0025423400000
0.0013406900000
0.0003538860000
-0.0002507100000
-0.0016141300000
-0.0028990400000
-0.0024886500000
-0.0009860380000
0.0006265290000
0.0020652100000
0.0030055100000
0.0034751600000
0.0043143800000
0.0055833500000
0.0064635300000
0.0051969400000
0.0023813900000
0.0021992600000
0.0041429500000
0.0053131500000
0.0043291200000
0.0017880800000
-0.0003817540000
-0.0027190600000
-0.0046087800000
-0.0053492500000
-0.0066015600000
-0.0068435100000
-0.0056925700000
-0.0047558200000
-0.0031900700000
-0.0009623640000
0.0015113000000
0.0041417100000
0.0065393200000
0.0068984000000
0.0054835000000
0.0052882600000
0.0065234800000
0.0077181700000
0.0083674700000
0.0077481600000
0.0068033000000
0.0065693600000
0.0054553600000
0.0026903300000
-0.0000324666000
-0.0024101600000
-0.0037584100000
-0.0041100800000
-0.0057654500000
-0.0085132500000
-0.0089959300000
-0.0069833700000
-0.0046631700000
-0.0033477100000
-0.0035942700000
-0.0033775000000
-0.0014973800000
0.0000668879000
0.0003046580000
0.0008351780000
0.0014319900000
0.0014787600000
0.0003633570000
-0.0025401700000
-0.0060215000000
-0.0067694600000
-0.0051139100000
-0.0038404400000
-0.0030669000000
-0.0030761500000
-0.0018870100000
0.0015948700000
0.0049995900000
0.0060778400000
0.0058036300000
0.0068100500000
0.0082181300000
0.0079043400000
0.0066321900000
0.0052224500000
0.0047403400000
0.0044532600000
0.0029501700000
0.0009469150000
-0.0009016000000
-0.0013266400000
0.0001465230000
0.0013280600000
0.0003325790000
-0.0009917830000
-0.0003154440000
0.0020139200000
0.0046743500000
0.0069370100000
0.0080519700000
0.0089413100000
0.0088616600000
0.0077438700000
0.0065582000000
0.0042675200000
0.0025964900000
0.0019689500000
0.0010010000000
-0.0011635200000
-0.0038802000000
-0.0054710200000
-0.0058119100000
-0.0050479600000
-0.0035271800000
-0.0021962200000
-0.0005566630000
0.0008589430000
0.0018730900000
0.0032124900000
0.0037628900000
0.0032017500000
0.0031060900000
0.0032269600000
0.0025421200000
0.0010687900000
-0.0004797240000
-0.0016739300000
-0.0030292100000
-0.0051694800000
-0.0075299700000
-0.0080020400000
-0.0070083200000
-0.0057131300000
-0.0044310000000
-0.0028193300000
-0.0006173340000
0.0019206700000
0.0037270000000
0.0034106400000
0.0010970200000
-0.0010410500000
-0.0022610600000
-0.0037784200000
-0.0050409200000
-0.0061550900000
-0.0067167300000
-0.0075070300000
-0.0089336400000
-0.0091184700000
-0.0072606500000
-0.0035966300000
0.0008723380000
0.0048438800000
0.0061013500000
0.0047982800000
0.0036116600000
0.0027492000000
0.0015535200000
-0.0002057690000
-0.0027083200000
-0.0043625700000
-0.0046189400000
-0.0045731200000
-0.0049807600000
-0.0056789900000
-0.0048236000000
-0.0025255400000
-0.0007332910000
-0.0003310770000
-0.0005228500000
0.0010406900000
0.0036121000000
0.0051406200000
0.0052614600000
0.0040091400000
0.0027887900000
0.0021850500000
0.0020051200000
0.0011373700000
-0.0003253240000
-0.0008608070000
0.0001003060000
0.0005520590000
-0.0009312020000
-0.0032757400000
-0.0050852700000
-0.0058743100000
-0.0062430500000
-0.0068795300000
-0.0075250800000
-0.0058789600000
-0.0029716500000
-0.0002553360000
0.0024513500000
0.0044235900000
0.0055058200000
0.0069007200000
0.0078951300000
0.0076621300000
0.0071145400000
0.0059415300000
0.0037029400000
0.0010689500000
-0.0016613300000
-0.0041681700000
-0.0049977400000
-0.0049218200000
-0.0051131100000
-0.0052464800000
-0.0040091900000
-0.0005462330000
0.0029376300000
0.0054588700000
0.0080032700000
0.0094078300000
0.0102088000000
0.0113936000000
0.0106928000000
0.0076253400000
0.0043235100000
0.0015561100000
-0.0014517600000
-0.0042137300000
-0.0062382400000
-0.0073178200000
-0.0061661200000
-0.0040511400000
-0.0025579100000
-0.0011633600000
0.0000447224000
0.0014610500000
0.0022350300000
0.0027391200000
0.0033042500000
0.0025579400000
0.0016841600000
0.0012952800000
0.0006066320000
-0.0012530300000
-0.0032965900000
-0.0044469700000
-0.0052465300000
-0.0055303700000
-0.0050250700000
-0.0039339600000
-0.0018437300000
0.0002402580000
0.0018220800000
0.0030815300000
0.0032916000000
0.0030232400000
0.0020353900000
0.0005719640000
-0.0003243010000
-0.0018467400000
-0.0037385100000
-0.0045750100000
-0.0043636300000
-0.0047809200000
-0.0060744300000
-0.0063409700000
-0.0051184400000
-0.0032278500000
-0.0012457700000
0.0006227760000
0.0035506500000
0.0063080700000
0.0076892300000
0.0081904300000
0.0072358000000
0.0057304300000
0.0053526600000
0.0058559000000
0.0058816500000
0.0047570200000
0.0040016100000
0.0050220300000
0.0064220200000
0.0059240300000
0.0044776700000
0.0045462100000
0.0050286200000
0.0046142200000
0.0036004600000
0.0017542100000
0.0001167990000
0.0001823140000
0.0001287460000
-0.0018756100000
-0.0036604500000
-0.0036733000000
-0.0040155000000
-0.0054561000000
-0.0061668900000
-0.0057976900000
-0.0042837600000
-0.0022959600000
-0.0013283400000
-0.0012176100000
-0.0026256800000
-0.0043825800000
-0.0041996100000
-0.0025852500000
-0.0018689700000
-0.0017175100000
-0.0008597530000
-0.0005342310000
-0.0011891200000
-0.0018741800000
-0.0023140400000
-0.0018712300000
-0.0003706510000
0.0011134000000
0.0019572000000
0.0019151700000
0.0020210700000
0.0019999600000
0.0011734600000
-0.0006941220000
-0.0031149700000
-0.0046534900000
-0.0044196000000
-0.0040956300000
-0.0053861800000
-0.0080590200000
-0.0090850700000
-0.0076458600000
-0.0058339900000
-0.0060290800000
-0.0072416200000
-0.0071799900000
-0.0061655800000
-0.0048501300000
-0.0039286500000
-0.0040890100000
-0.0036028000000
-0.0017136200000
-0.0002513900000
0.0000461104000
-0.0001111120000
0.0006923930000
0.0011444500000
0.0002134740000
-0.0006627610000
-0.0014518600000
-0.0021345700000
-0.0022368100000
-0.0022712400000
-0.0026257800000
-0.0034644300000
-0.0031827900000
-0.0013147200000
0.0007973070000
0.0018336000000
0.0012548200000
0.0009977070000
0.0016959600000
0.0028567600000
0.0042030700000
0.0049975400000
0.0057765000000
0.0068188000000
0.0069906900000
0.0058299300000
0.0035229600000
0.0024359900000
0.0040701500000
0.0063196800000
0.0068505200000
0.0062937600000
0.0068386700000
0.0074535400000
0.0069040400000
0.0057188800000
0.0043382300000
0.0025455600000
0.0006089530000
-0.0001846100000
-0.0000550103000
-0.0003062900000
-0.0000480710000
0.0008522250000
0.0016079800000
0.0018459700000
0.0001957410000
-0.0014140100000
-0.0005891830000
0.0009578590000
0.0009607490000
0.0004769330000
0.0003813950000
-0.0003995660000
-0.0012534900000
-0.0012683900000
-0.0013415900000
-0.0007671840000
0.0012427500000
0.0029152300000
0.0034491700000
0.0025164300000
0.0011811100000
0.0005868810000
0.0010880900000
0.0014395700000
0.0012383500000
0.0018220500000
0.0031459300000
0.0040818600000
0.0033946100000
0.0007914030000
-0.0008184870000
-0.0002660400000
0.0005133860000
-0.0004786010000
-0.0033587700000
-0.0055940500000
-0.0055704500000
-0.0045362600000
-0.0051199000000
-0.0065113900000
-0.0060704800000
-0.0043744200000
-0.0033693000000
-0.0027858200000
-0.0026727900000
-0.0022965000000
-0.0007135290000
0.0010199400000
0.0015165400000
0.0002257780000
-0.0003135340000
0.0002810110000
-0.0001510450000
-0.0017442300000
-0.0031016500000
-0.0035018000000
-0.0041698800000
-0.0049019400000
-0.0044376800000
-0.0036304600000
-0.0032571200000
-0.0034811900000
-0.0035728200000
-0.0030902700000
-0.0025830100000
-0.0016068200000
0.0002250210000
0.0023545500000
0.0040107500000
0.0041343100000
0.0046194800000
0.0063814700000
0.0068501300000
0.0059572500000
0.0044718400000
0.0030110500000
0.0028385300000
0.0034848000000
0.0027265700000
0.0003857210000
-0.0014399600000
-0.0017800700000
-0.0014682800000
-0.0010398100000
-0.0006866310000
0.0001082090000
0.0011830200000
0.0019234400000
0.0023026200000
0.0010601200000
-0.0007969490000
-0.0005181270000
0.0003700480000
-0.0000352816000
-0.0008956740000
-0.0008848160000
-0.0005945290000
-0.0006854350000
-0.0011323900000
-0.0008884070000
0.0003709220000
0.0009395440000
0.0000540236000
-0.0012465700000
-0.0014828500000
-0.0003232930000
0.0011394200000
0.0021876300000
0.0033782200000
0.0035504300000
0.0031662000000
0.0036216400000
0.0037682200000
0.0029131400000
0.0025760400000
0.0035735200000
0.0039762900000
0.0036171000000
0.0034296400000
0.0026618300000
0.0013699200000
0.0003849370000
-0.0006234130000
-0.0018530900000
-0.0038258800000
-0.0054719100000
-0.0051592300000
-0.0045113600000
-0.0045749900000
-0.0049446500000
-0.0038168400000
-0.0016522000000
-0.0003079890000
-0.0000857902000
-0.0002349350000
0.0004544040000
0.0020292500000
0.0028886100000
0.0022784800000
0.0022488200000
0.0036588600000
0.0048302900000
0.0051925100000
0.0043872600000
0.0018110300000
-0.0004010540000
-0.0005819340000
-0.0005058690000
-0.0017603400000
-0.0040124200000
-0.0046777700000
-0.0031525800000
-0.0015343500000
-0.0011284700000
-0.0009532130000
0.0002284630000
0.0011644300000
0.0009766680000
0.0003055770000
-0.0005192390000
-0.0009898750000
-0.0006141980000
0.0000783464000
0.0003333220000
-0.0000945894000
0.0004032630000
0.0024838400000
0.0032156200000
0.0015392900000
-0.0001163140000
-0.0002747270000
0.0003640260000
0.0013349700000
0.0022222100000
0.0019455200000
0.0014069100000
0.0014833500000
0.0014805400000
0.0007793900000
-0.0001565520000
-0.0008255440000
-0.0013780300000
-0.0022410500000
-0.0040220100000
-0.0058210700000
-0.0064354000000
-0.0064085200000
-0.0064688200000
-0.0064515700000
-0.0057959000000
-0.0031712800000
0.0004185040000
0.0022087000000
0.0016292600000
0.0004898100000
0.0003621790000
0.0004936330000
0.0007324170000
0.0013095100000
0.0010375600000
0.0000566617000
-0.0003779310000
-0.0007060140000
-0.0015265800000
-0.0022934600000
-0.0024927600000
-0.0023454900000
-0.0018726300000
-0.0012148300000
-0.0008128990000
0.0000687195000
0.0015293000000
0.0025809300000
0.0026639200000
0.0019320200000
0.0017819300000
0.0029930600000
0.0041530300000
0.0038970700000
0.0030480800000
0.0023977800000
0.0012608200000
-0.0001071440000
-0.0006693400000
-0.0011117100000
-0.0015338500000
-0.0015832700000
-0.0017403800000
-0.0024162800000
-0.0028466500000
-0.0018743800000
-0.0003852140000
0.0001530970000
-0.0001509060000
0.0000058188600
0.0007463630000
0.0008117040000
0.0004929260000
0.0003939630000
0.0000071577600
-0.0005742250000
-0.0006906540000
-0.0005139640000
-0.0004137730000
-0.0007105660000
-0.0008257370000
-0.0003889180000
-0.0003066500000
-0.0008911480000
-0.0013945800000
-0.0011854600000
-0.0008598990000
-0.0004803030000
-0.0001962100000
-0.0004971500000
-0.0005722410000
0.0000099848700
0.0004025390000
0.0003748800000
0.0000810196000
0.0001804780000
0.0008634720000
0.0010439800000
0.0005350500000
0.0001755520000
0.0005278150000
0.0010572900000
0.0011298000000
0.0006478830000
-0.0000747525000
-0.0003326810000
-0.0002034930000
-0.0000121722000
0.0000903873000
-0.0001965210000
-0.0003790660000
-0.0000831446000
0.0002123540000
0.0002395100000
0.0003400110000
0.0007740640000
0.0013174300000
0.0015149000000
0.0012746700000
0.0010839200000
0.0012801800000
0.0015293500000
0.0015504000000
0.0014692900000
0.0012938000000
0.0011275700000
0.0010635600000
0.0010132900000
0.0007537290000
0.0002124520000
-0.0001386520000
-0.0000152257000
0.0001771350000
0.0000148240000
-0.0002204670000
-0.0002316520000
-0.0002131250000
-0.0001968990000
-0.0001404430000
-0.0001704240000
-0.0001796950000
-0.0000214924000
0.0002077650000
0.0002988220000
0.0002530230000
0.0003086930000
0.0004363120000
0.0004482980000
0.0002760080000
0.0000656837000
0.0001122290000
0.0003516040000
0.0004328510000
0.0001976190000
-0.0000960201000
-0.0002549500000
-0.0004102510000
-0.0005383390000
-0.0005658210000
-0.0006171040000
-0.0006235240000
-0.0004949830000
-0.0003321400000
-0.0002524460000
-0.0002587650000
-0.0001991080000
-0.0000388034000
0.0000824233000
0.0000613282000
-0.0000436264000
-0.0000654322000
0.0000080642300
0.0000460553000
-0.0000182882000
-0.0000887347000
-0.0000798916000
-0.0000527801000
-0.0000321674000
-0.0000145073000
-0.0000423679000
-0.0000542703000
-0.0000227227000
-0.0000151790000
-0.0000559492000
-0.0001258710000
-0.0001451330000
-0.0000958241000
-0.0000792673000
-0.0001156270000
-0.0001619250000
-0.0001673420000
-0.0001281290000
-0.0000946673000
-0.0000802489000
-0.0000916598000
-0.0001028150000
-0.0000876268000
-0.0000479216000
-0.0000240617000
-0.0000279833000
-0.0000214060000
-0.0000052135100
-0.0000067906900
-0.0000268353000
-0.0000473621000
-0.0000527595000
-0.0000515354000
-0.0000614618000
-0.0000769958000
-0.0000885232000
-0.0000897604000
-0.0000803712000
-0.0000593757000
-0.0000430478000
-0.0000446015000
-0.0000499319000
-0.0000483427000
-0.0000427426000
-0.0000365238000
-0.0000359998000
-0.0000381944000
-0.0000357852000
-0.0000355216000
-0.0000412120000
-0.0000463815000
-0.0000448169000
-0.0000392073000
-0.0000331714000
-0.0000308449000
-0.0000325009000
-0.0000332923000
-0.0000321602000
-0.0000305791000
-0.0000296967000
-0.0000299911000
-0.0000287125000
-0.0000252992000
-0.0000224685000
-0.0000209478000
-0.0000197236000
-0.0000181327000
-0.0000167040000
-0.0000155506000
-0.0000144163000
-0.0000132516000
-0.0000119576000
-0.0000105500000
-0.0000091754500
-0.0000078250900
-0.0000065454500
-0.0000052877600
-0.0000040551300
-0.0000028947600
-0.0000018329900
-0.0000008312660
0.0000001913680
0.0000012432500
0.0000023013400
0.0000033437100
0.0000043763600
0.0000054020600
0.0000064143000
0.0000074117300
0.0000083954300
0.0000093636300
0.0000103138000
0.0000112454000
0.0000000000000
0.0000000000000
0.0000000000000
0.0000000000000
