-0.0001173160000
-0.0001167210000
-0.0001161970000
-0.0001155540000
-0.0001148730000
-0.0001139040000
-0.0001127110000
-0.0001110140000
-0.0001088870000
-0.0001063510000
-0.0001038640000
-0.0001014330000
-0.0000992595000
-0.0000972366000
-0.0000953572000
-0.0000932777000
-0.0000913649000
-0.0000895239000
-0.0000872060000
-0.0000840787000
-0.0000812228000
-0.0000790004000
-0.0000775138000
-0.0000770965000
-0.0000787674000
-0.0000829016000
-0.0000897795000
-0.0000990922000
-0.0001106970000
-0.0001237160000
-0.0001362420000
-0.0001441240000
-0.0001424080000
-0.0001274020000
-0.0000997131000
-0.0000657424000
-0.0000346310000
-0.0000120593000
-0.0000010904900
-0.0000029843300
-0.0000195333000
-0.0000511080000
-0.0000941773000
-0.0001451050000
-0.0002058030000
-0.0002716930000
-0.0003284800000
-0.0003696010000
-0.0004029580000
-0.0004424000000
-0.0004966890000
-0.0005611280000
-0.0006280760000
-0.0006939520000
-0.0007552270000
-0.0008085120000
-0.0008582130000
-0.0009127100000
-0.0009763250000
-0.0010320300000
-0.0010465400000
-0.0009946790000
-0.0008735770000
-0.0007018750000
-0.0005034810000
-0.0002926620000
-0.0000794421000
0.0001292400000
0.0003379970000
0.0005546870000
0.0007702690000
0.0009525660000
0.0010587100000
0.0010694900000
0.0009954160000
0.0008483220000
0.0006385490000
0.0003904790000
0.0001440940000
-0.0000589058000
-0.0002129390000
-0.0003480750000
-0.0004995740000
-0.0006800170000
-0.0008687590000
-0.0010326400000
-0.0011504900000
-0.0012173900000
-0.0012312300000
-0.0011658500000
-0.0010019500000
-0.0007642640000
-0.0005006060000
-0.0002492830000
-0.0000155370000
0.0002210140000
0.0004805400000
0.0007583580000
0.0010180400000
0.0012208200000
0.0013464300000
0.0013830100000
0.0013214000000
0.0011577800000
0.0009058290000
0.0006021900000
0.0002766010000
-0.0000571244000
-0.0003842370000
-0.0006961600000
-0.0010051100000
-0.0012977700000
-0.0015175300000
-0.0016109400000
-0.0015631500000
-0.0013934700000
-0.0011230100000
-0.0007461740000
-0.0002640380000
0.0002921230000
0.0008777650000
0.0014312500000
0.0018315800000
0.0019477000000
0.0017135700000
0.0011305300000
0.0002616250000
-0.0007543150000
-0.0017735900000
-0.0027414900000
-0.0036222600000
-0.0043287000000
-0.0047263200000
-0.0047080000000
-0.0042665900000
-0.0034881100000
-0.0025091500000
-0.0014968200000
-0.0006184000000
-0.0000238863000
0.0001579750000
-0.0002080100000
-0.0011562600000
-0.0025298200000
-0.0041511100000
-0.0059072500000
-0.0076318900000
-0.0091348100000
-0.0103196000000
-0.0111465000000
-0.0115877000000
-0.0115781000000
-0.0110573000000
-0.0100196000000
-0.0085324200000
-0.0067211500000
-0.0047264600000
-0.0026737800000
-0.0007156510000
0.0009614140000
0.0021281000000
0.0025996900000
0.0023471900000
0.0015179900000
0.0003659810000
-0.0009012720000
-0.0021999800000
-0.0035668900000
-0.0050260900000
-0.0064923700000
-0.0077838200000
-0.0087054400000
-0.0091224900000
-0.0090363600000
-0.0086263100000
-0.0081333600000
-0.0077350300000
-0.0074294400000
-0.0070382900000
-0.0062675300000
-0.0049550100000
-0.0032432700000
-0.0014233800000
0.0002539600000
0.0016542900000
0.0027161600000
0.0033641900000
0.0035299800000
0.0032131700000
0.0024960200000
0.0015266600000
0.0005031130000
-0.0003386900000
-0.0007485340000
-0.0005164560000
0.0004275320000
0.0018677500000
0.0033994400000
0.0046403800000
0.0052923500000
0.0051800200000
0.0043385700000
0.0029946500000
0.0013813600000
-0.0004135690000
-0.0024801500000
-0.0047290200000
-0.0067399700000
-0.0080927600000
-0.0086007100000
-0.0083029600000
-0.0074123800000
-0.0062660400000
-0.0052788900000
-0.0048177300000
-0.0049985300000
-0.0056885900000
-0.0066339700000
-0.0075331000000
-0.0081076800000
-0.0082461800000
-0.0080031700000
-0.0074428700000
-0.0066312000000
-0.0056899700000
-0.0047069100000
-0.0036731300000
-0.0024544000000
-0.0009156940000
0.0009308750000
0.0028897400000
0.0046534900000
0.0058507600000
0.0062078100000
0.0057012000000
0.0044807600000
0.0027860300000
0.0009612570000
-0.0006500130000
-0.0018606300000
-0.0026218800000
-0.0029653900000
-0.0028822500000
-0.0023110000000
-0.0011666900000
0.0006139570000
0.0029987600000
0.0057565900000
0.0085314300000
0.0110159000000
0.0130455000000
0.0146245000000
0.0158718000000
0.0169337000000
0.0178734000000
0.0186045000000
0.0189078000000
0.0184724000000
0.0170857000000
0.0148678000000
0.0121810000000
0.0094093600000
0.0068150400000
0.0045118600000
0.0025496300000
0.0010351100000
0.0001654870000
0.0000796369000
0.0007544370000
0.0021111000000
0.0039649600000
0.0059457300000
0.0076352200000
0.0087556700000
0.0092398300000
0.0091357100000
0.0084639200000
0.0072905400000
0.0057890800000
0.0041738100000
0.0027010600000
0.0017129400000
0.0014399700000
0.0018342600000
0.0026085300000
0.0033634500000
0.0037055500000
0.0033557200000
0.0022439000000
0.0005412670000
-0.0014515400000
-0.0034966800000
-0.0054414200000
-0.0071645300000
-0.0084736300000
-0.0091738500000
-0.0092261300000
-0.0087817100000
-0.0080976600000
-0.0072861900000
-0.0062917600000
-0.0050855700000
-0.0037143900000
-0.0022390700000
-0.0006332960000
0.0011274600000
0.0027357700000
0.0037212200000
0.0038140700000
0.0029447900000
0.0012094400000
-0.0011149200000
-0.0036658700000
-0.0061636800000
-0.0085398700000
-0.0108649000000
-0.0129210000000
-0.0142442000000
-0.0144321000000
-0.0132601000000
-0.0107527000000
-0.0071722300000
-0.0029260400000
0.0015803900000
0.0060457500000
0.0102717000000
0.0139334000000
0.0167185000000
0.0185700000000
0.0193623000000
0.0187853000000
0.0165450000000
0.0127009000000
0.0078408500000
0.0026977800000
-0.0022708400000
-0.0071335300000
-0.0120429000000
-0.0166572000000
-0.0202583000000
-0.0222188000000
-0.0223528000000
-0.0209107000000
-0.0183721000000
-0.0152157000000
-0.0118024000000
-0.0083633900000
-0.0050915300000
-0.0021967000000
0.0002252470000
0.0022229600000
0.0037851200000
0.0048566700000
0.0054458100000
0.0055541900000
0.0051834000000
0.0044326300000
0.0034175600000
0.0021770400000
0.0008011530000
-0.0005216090000
-0.0015830400000
-0.0022182100000
-0.0023492500000
-0.0019580700000
-0.0010605400000
0.0003649200000
0.0023878900000
0.0050551500000
0.0082314500000
0.0116203000000
0.0149411000000
0.0180257000000
0.0208295000000
0.0233457000000
0.0254928000000
0.0269900000000
0.0275137000000
0.0269378000000
0.0253298000000
0.0228925000000
0.0198649000000
0.0164756000000
0.0129580000000
0.0097387900000
0.0072921400000
0.0058293400000
0.0052588800000
0.0052901900000
0.0055766300000
0.0057723000000
0.0055284800000
0.0046508000000
0.0032261100000
0.0016093600000
0.0002695410000
-0.0003797060000
-0.0000216261000
0.0014630800000
0.0037968600000
0.0064548000000
0.0090164900000
0.0112343000000
0.0129723000000
0.0139709000000
0.0139879000000
0.0130593000000
0.0113363000000
0.0089479700000
0.0060361600000
0.0027719100000
-0.0006402070000
-0.0037923700000
-0.0061605400000
-0.0074859100000
-0.0078722700000
-0.0076423000000
-0.0071648700000
-0.0067311200000
-0.0064948500000
-0.0064780800000
-0.0066065500000
-0.0067322800000
-0.0066902600000
-0.0063834800000
-0.0058093100000
-0.0050387900000
-0.0041724700000
-0.0033127700000
-0.0025795700000
-0.0020727100000
-0.0018133800000
-0.0017545500000
-0.0018205700000
-0.0019868800000
-0.0022483800000
-0.0025410600000
-0.0027397100000
-0.0027188800000
-0.0024169900000
-0.0018341100000
-0.0009947470000
-0.0000140973000
0.0008981090000
0.0015588500000
0.0018511700000
0.0016692800000
0.0008957260000
-0.0005256460000
-0.0024355400000
-0.0044929200000
-0.0063459500000
-0.0077305000000
-0.0084564200000
-0.0080004600000
-0.0057500600000
-0.0015987900000
0.0039903700000
0.0102456000000
0.0165410000000
0.0225193000000
0.0278819000000
0.0320953000000
0.0344373000000
0.0344097000000
0.0320626000000
0.0279598000000
0.0227780000000
0.0169913000000
0.0110166000000
0.0052900400000
0.0002280390000
-0.0038317200000
-0.0066991100000
-0.0082852700000
-0.0086575200000
-0.0081222500000
-0.0071107800000
-0.0060189800000
-0.0051862900000
-0.0048143000000
-0.0048200000000
-0.0049372500000
-0.0049153300000
-0.0046125000000
-0.0039997300000
-0.0030982000000
-0.0020139700000
-0.0009792620000
-0.0003057840000
-0.0002603580000
-0.0009649720000
-0.0023154400000
-0.0039732000000
-0.0055166900000
-0.0066215100000
-0.0071644300000
-0.0071866900000
-0.0068035300000
-0.0061566700000
-0.0054011300000
-0.0047088100000
-0.0042185900000
-0.0039797800000
-0.0039982400000
-0.0042510700000
-0.0046256100000
-0.0048895500000
-0.0047330700000
-0.0039274400000
-0.0024528700000
-0.0004639870000
0.0017768400000
0.0039695900000
0.0058100300000
0.0070370200000
0.0073556800000
0.0066094900000
0.0049865800000
0.0027757200000
0.0001394440000
-0.0029446600000
-0.0065563600000
-0.0106695000000
-0.0151262000000
-0.0196755000000
-0.0239939000000
-0.0277826000000
-0.0308784000000
-0.0332095000000
-0.0347295000000
-0.0351865000000
-0.0342759000000
-0.0319504000000
-0.0284790000000
-0.0243034000000
-0.0196532000000
-0.0145203000000
-0.0088798600000
-0.0029724200000
0.0027073900000
0.0077022900000
0.0117905000000
0.0150266000000
0.0175626000000
0.0195097000000
0.0208119000000
0.0212970000000
0.0207970000000
0.0191527000000
0.0163692000000
0.0128816000000
0.0091873900000
0.0053896200000
0.0014321700000
-0.0026108000000
-0.0064124700000
-0.0095353600000
-0.0116692000000
-0.0127098000000
-0.0127628000000
-0.0120477000000
-0.0108271000000
-0.0093707100000
-0.0079801500000
-0.0069052500000
-0.0062049400000
-0.0058324200000
-0.0057834800000
-0.0061885700000
-0.0071503400000
-0.0084522100000
-0.0096949900000
-0.0105606000000
-0.0108235000000
-0.0103442000000
-0.0090663600000
-0.0070456000000
-0.0044539700000
-0.0014320600000
0.0018492900000
0.0049842900000
0.0074911000000
0.0090674500000
0.0095433700000
0.0089064100000
0.0073592300000
0.0052362500000
0.0028805500000
0.0005504130000
-0.0016006400000
-0.0034683900000
-0.0048743300000
-0.0055645800000
-0.0053085300000
-0.0040764400000
-0.0021496300000
0.0000828967000
0.0023163800000
0.0042735200000
0.0056347800000
0.0060522100000
0.0054320900000
0.0040587700000
0.0022122500000
0.0000425783000
-0.0023412900000
-0.0048041300000
-0.0071904300000
-0.0093557400000
-0.0111947000000
-0.0126443000000
-0.0137103000000
-0.0144732000000
-0.0150400000000
-0.0154070000000
-0.0153823000000
-0.0147918000000
-0.0136546000000
-0.0121273000000
-0.0104148000000
-0.0087266900000
-0.0074559800000
-0.0071047000000
-0.0079919800000
-0.0100577000000
-0.0128908000000
-0.0160794000000
-0.0193175000000
-0.0219761000000
-0.0233136000000
-0.0229676000000
-0.0209655000000
-0.0176121000000
-0.0133222000000
-0.0085110100000
-0.0035468300000
0.0011581300000
0.0052198100000
0.0085140500000
0.0111394000000
0.0132310000000
0.0148835000000
0.0161554000000
0.0170628000000
0.0176157000000
0.0178525000000
0.0177611000000
0.0172807000000
0.0163946000000
0.0151632000000
0.0136945000000
0.0120653000000
0.0103115000000
0.0085056000000
0.0067473000000
0.0050998200000
0.0035789700000
0.0021836600000
0.0010075600000
0.0002562060000
0.0001687620000
0.0008336880000
0.0020954100000
0.0036361300000
0.0051772400000
0.0066350300000
0.0079841300000
0.0091654700000
0.0101314000000
0.0108071000000
0.0110517000000
0.0108383000000
0.0103108000000
0.0095803400000
0.0087537400000
0.0080851400000
0.0080318200000
0.0090269900000
0.0110636000000
0.0137166000000
0.0164464000000
0.0188722000000
0.0208479000000
0.0222527000000
0.0228726000000
0.0224306000000
0.0207842000000
0.0180921000000
0.0147944000000
0.0113135000000
0.0077680100000
0.0041997600000
0.0008263410000
-0.0017467500000
-0.0029178300000
-0.0025994700000
-0.0010659200000
0.0012614500000
0.0038545200000
0.0062330100000
0.0081245000000
0.0092800600000
0.0094548500000
0.0085794700000
0.0067783300000
0.0042500700000
0.0011299400000
-0.0024736300000
-0.0062378100000
-0.0097350500000
-0.0126984000000
-0.0150389000000
-0.0167512000000
-0.0176778000000
-0.0176208000000
-0.0166026000000
-0.0149260000000
-0.0130302000000
-0.0111943000000
-0.0095750200000
-0.0083883700000
-0.0078459100000
-0.0080202500000
-0.0088193400000
-0.0100358000000
-0.0114460000000
-0.0129237000000
-0.0144898000000
-0.0161498000000
-0.0178001000000
-0.0192852000000
-0.0204372000000
-0.0210227000000
-0.0207434000000
-0.0193397000000
-0.0167988000000
-0.0133465000000
-0.0089011100000
-0.0033183500000
0.0029209700000
0.0090191300000
0.0144232000000
0.0189238000000
0.0225153000000
0.0249819000000
0.0260235000000
0.0256376000000
0.0241153000000
0.0218668000000
0.0190321000000
0.0155190000000
0.0114701000000
0.0073634200000
0.0038440400000
0.0014087000000
0.0001297840000
-0.0004830290000
-0.0012940400000
-0.0032541800000
-0.0069966300000
-0.0124882000000
-0.0191100000000
-0.0259679000000
-0.0323707000000
-0.0379496000000
-0.0424305000000
-0.0455234000000
-0.0470075000000
-0.0469140000000
-0.0455900000000
-0.0432797000000
-0.0399805000000
-0.0354912000000
-0.0299677000000
-0.0242913000000
-0.0194532000000
-0.0159657000000
-0.0138563000000
-0.0128141000000
-0.0124297000000
-0.0126921000000
-0.0141275000000
-0.0169117000000
-0.0205153000000
-0.0241854000000
-0.0272526000000
-0.0290875000000
-0.0288136000000
-0.0254273000000
-0.0186737000000
-0.0093062400000
0.0015587500000
0.0130564000000
0.0248748000000
0.0367685000000
0.0480711000000
0.0573500000000
0.0629710000000
0.0639812000000
0.0604962000000
0.0536910000000
0.0450226000000
0.0356363000000
0.0261082000000
0.0165256000000
0.0065837600000
-0.0039235300000
-0.0146847000000
-0.0248015000000
-0.0332182000000
-0.0391765000000
-0.0423434000000
-0.0423471000000
-0.0383743000000
-0.0294314000000
-0.0162663000000
-0.0014506200000
0.0136353000000
0.0285625000000
0.0412361000000
0.0490381000000
0.0509521000000
0.0479523000000
0.0421922000000
0.0355304000000
0.0292273000000
0.0246973000000
0.0230050000000
0.0241373000000
0.0272759000000
0.0312944000000
0.0348108000000
0.0366286000000
0.0363189000000
0.0341876000000
0.0308942000000
0.0270490000000
0.0231304000000
0.0202461000000
0.0197680000000
0.0221107000000
0.0266284000000
0.0322950000000
0.0387907000000
0.0466827000000
0.0555170000000
0.0634021000000
0.0678639000000
0.0668863000000
0.0595576000000
0.0461209000000
0.0278740000000
0.0069519600000
-0.0141695000000
-0.0329951000000
-0.0474182000000
-0.0559363000000
-0.0581116000000
-0.0550028000000
-0.0485635000000
-0.0407941000000
-0.0324801000000
-0.0233669000000
-0.0131471000000
-0.0020544200000
0.0090421100000
0.0190855000000
0.0273543000000
0.0335515000000
0.0377306000000
0.0400032000000
0.0403947000000
0.0388191000000
0.0350402000000
0.0288260000000
0.0200983000000
0.0091050500000
-0.0034726600000
-0.0166707000000
-0.0295000000000
-0.0412030000000
-0.0513600000000
-0.0593569000000
-0.0643624000000
-0.0653321000000
-0.0613346000000
-0.0519660000000
-0.0381371000000
-0.0222130000000
-0.0060040100000
0.0100276000000
0.0253133000000
0.0385509000000
0.0476606000000
0.0502710000000
0.0447939000000
0.0318532000000
0.0143292000000
-0.0045550100000
-0.0222057000000
-0.0364458000000
-0.0458378000000
-0.0502098000000
-0.0504473000000
-0.0480776000000
-0.0446047000000
-0.0412051000000
-0.0387204000000
-0.0376085000000
-0.0377693000000
-0.0384451000000
-0.0380811000000
-0.0333985000000
-0.0211400000000
-0.0022399400000
0.0196162000000
0.0415177000000
0.0609267000000
0.0749229000000
0.0819277000000
0.0823347000000
0.0772918000000
0.0682581000000
0.0573140000000
0.0467940000000
0.0386311000000
0.0332405000000
0.0296509000000
0.0259232000000
0.0187032000000
0.0037438600000
-0.0208580000000
-0.0529948000000
-0.0859907000000
-0.1098940000000
-0.1142730000000
-0.0934390000000
-0.0497139000000
0.0059370000000
0.0586558000000
0.0958541000000
0.1108760000000
0.1042350000000
0.0813457000000
0.0501844000000
0.0199061000000
-0.0018275300000
-0.0114164000000
-0.0097667300000
-0.0009104640000
0.0109782000000
0.0225960000000
0.0311478000000
0.0342238000000
0.0304576000000
0.0207000000000
0.0073707900000
-0.0075247200000
-0.0220309000000
-0.0335964000000
-0.0401365000000
-0.0411021000000
-0.0374756000000
-0.0307795000000
-0.0219886000000
-0.0117262000000
-0.0007318710000
0.0098857700000
0.0189463000000
0.0256078000000
0.0293123000000
0.0296493000000
0.0257590000000
0.0169926000000
0.0044643900000
-0.0097450300000
-0.0241953000000
-0.0377699000000
-0.0493552000000
-0.0579807000000
-0.0631885000000
-0.0651871000000
-0.0646527000000
-0.0624084000000
-0.0589777000000
-0.0546003000000
-0.0496998000000
-0.0446929000000
-0.0395824000000
-0.0333990000000
-0.0244477000000
-0.0105238000000
0.0096097700000
0.0347251000000
0.0618047000000
0.0870627000000
0.1043440000000
0.1074010000000
0.0943805000000
0.0685709000000
0.0368275000000
0.0069441500000
-0.0149734000000
-0.0261201000000
-0.0270803000000
-0.0209855000000
-0.0116336000000
-0.0021041000000
0.0058278500000
0.0115220000000
0.0149887000000
0.0163251000000
0.0156177000000
0.0132720000000
0.0101201000000
0.0069539000000
0.0044052000000
0.0030476700000
0.0040612000000
0.0087788600000
0.0167639000000
0.0262614000000
0.0363042000000
0.0466137000000
0.0567313000000
0.0645343000000
0.0672047000000
0.0632462000000
0.0526077000000
0.0361440000000
0.0154329000000
-0.0073527600000
-0.0295087000000
-0.0485165000000
-0.0627366000000
-0.0708568000000
-0.0722543000000
-0.0682809000000
-0.0616254000000
-0.0547937000000
-0.0494239000000
-0.0461586000000
-0.0449251000000
-0.0452012000000
-0.0462159000000
-0.0470573000000
-0.0467898000000
-0.0443177000000
-0.0391061000000
-0.0320217000000
-0.0239707000000
-0.0149912000000
-0.0058942600000
0.0015895600000
0.0060940900000
0.0071213000000
0.0050112600000
0.0004068930000
-0.0057783400000
-0.0118833000000
-0.0161840000000
-0.0179209000000
-0.0175011000000
-0.0164254000000
-0.0175049000000
-0.0228783000000
-0.0318041000000
-0.0417366000000
-0.0499384000000
-0.0537854000000
-0.0519187000000
-0.0453812000000
-0.0356370000000
-0.0233255000000
-0.0095534800000
0.0036087600000
0.0137737000000
0.0193323000000
0.0203141000000
0.0178407000000
0.0135727000000
0.0092364800000
0.0061840000000
0.0049679900000
0.0054864400000
0.0070848200000
0.0085549400000
0.0074683800000
0.0005113990000
-0.0137943000000
-0.0340816000000
-0.0584341000000
-0.0842238000000
-0.1069460000000
-0.1199810000000
-0.1176340000000
-0.1001300000000
-0.0724254000000
-0.0396795000000
-0.0081387200000
0.0149754000000
0.0240990000000
0.0175715000000
-0.0021419600000
-0.0291732000000
-0.0558410000000
-0.0732753000000
-0.0743276000000
-0.0566197000000
-0.0231220000000
0.0188828000000
0.0588358000000
0.0868374000000
0.0985373000000
0.0950027000000
0.0803128000000
0.0602555000000
0.0408752000000
0.0267652000000
0.0199873000000
0.0198304000000
0.0238158000000
0.0289498000000
0.0328084000000
0.0340808000000
0.0326411000000
0.0290439000000
0.0239438000000
0.0173296000000
0.0087314300000
-0.0018889500000
-0.0136384000000
-0.0247636000000
-0.0335803000000
-0.0392477000000
-0.0416724000000
-0.0411005000000
-0.0374196000000
-0.0286205000000
-0.0112766000000
0.0159121000000
0.0506007000000
0.0878291000000
0.1217460000000
0.1475110000000
0.1621000000000
0.1634900000000
0.1447140000000
0.1013130000000
0.0430386000000
-0.0130013000000
-0.0531374000000
-0.0709236000000
-0.0674061000000
-0.0497213000000
-0.0262592000000
-0.0027839800000
0.0166213000000
0.0293377000000
0.0367293000000
0.0428631000000
0.0514583000000
0.0644690000000
0.0819483000000
0.1026020000000
0.1246260000000
0.1462160000000
0.1648670000000
0.1773310000000
0.1819080000000
0.1794690000000
0.1723840000000
0.1632040000000
0.1536950000000
0.1439560000000
0.1325820000000
0.1171960000000
0.0962633000000
0.0710445000000
0.0447498000000
0.0207909000000
0.0021660700000
-0.0088166000000
-0.0101600000000
-0.0017586200000
0.0131935000000
0.0312933000000
0.0507160000000
0.0695750000000
0.0853278000000
0.0955186000000
0.0988790000000
0.0948833000000
0.0763615000000
0.0341939000000
-0.0291640000000
-0.1003800000000
-0.1635550000000
-0.2073080000000
-0.2282130000000
-0.2292030000000
-0.2154740000000
-0.1902040000000
-0.1540230000000
-0.1075280000000
-0.0563806000000
-0.0095885100000
0.0263820000000
0.0487160000000
0.0574906000000
0.0551221000000
0.0457306000000
0.0337848000000
0.0225375000000
0.0130311000000
0.0057107600000
0.0014335700000
0.0010143800000
0.0044020500000
0.0103493000000
0.0174104000000
0.0248952000000
0.0324380000000
0.0395523000000
0.0453213000000
0.0488973000000
0.0501256000000
0.0493744000000
0.0471270000000
0.0433466000000
0.0376733000000
0.0300446000000
0.0207174000000
0.0099763900000
-0.0028216700000
-0.0185684000000
-0.0364897000000
-0.0548930000000
-0.0727101000000
-0.0889284000000
-0.1022990000000
-0.1117950000000
-0.1170450000000
-0.1184500000000
-0.1167750000000
-0.1127590000000
-0.1064080000000
-0.0973714000000
-0.0856244000000
-0.0697558000000
-0.0458414000000
-0.0099403200000
0.0383199000000
0.0916675000000
0.1388870000000
0.1716510000000
0.1864950000000
0.1845460000000
0.1687940000000
0.1422600000000
0.1063510000000
0.0604284000000
0.0036574300000
-0.0589040000000
-0.1169240000000
-0.1616570000000
-0.1890530000000
-0.1993370000000
-0.1937710000000
-0.1730020000000
-0.1358390000000
-0.0835902000000
-0.0262396000000
0.0228533000000
0.0546759000000
0.0646334000000
0.0522783000000
0.0215919000000
-0.0193735000000
-0.0599487000000
-0.0903092000000
-0.1046950000000
-0.1015890000000
-0.0831980000000
-0.0545665000000
-0.0226165000000
0.0053370600000
0.0233767000000
0.0285212000000
0.0209102000000
0.0028866900000
-0.0219063000000
-0.0483809000000
-0.0706217000000
-0.0823508000000
-0.0799620000000
-0.0655259000000
-0.0434074000000
-0.0171524000000
0.0094007100000
0.0319645000000
0.0470368000000
0.0530214000000
0.0508711000000
0.0426164000000
0.0305068000000
0.0170033000000
0.0044095200000
-0.0058863500000
-0.0134616000000
-0.0185367000000
-0.0202699000000
-0.0175007000000
-0.0106863000000
-0.0014581100000
0.0087398800000
0.0192031000000
0.0297004000000
0.0393073000000
0.0468181000000
0.0516805000000
0.0541573000000
0.0550002000000
0.0550193000000
0.0545003000000
0.0528018000000
0.0484764000000
0.0401124000000
0.0270847000000
0.0094685600000
-0.0127815000000
-0.0380455000000
-0.0620689000000
-0.0804648000000
-0.0910636000000
-0.0944222000000
-0.0935220000000
-0.0925560000000
-0.0941996000000
-0.0985293000000
-0.1046360000000
-0.1115700000000
-0.1186070000000
-0.1251120000000
-0.1304060000000
-0.1329460000000
-0.1310920000000
-0.1244030000000
-0.1137090000000
-0.1005380000000
-0.0864858000000
-0.0726694000000
-0.0595525000000
-0.0474378000000
-0.0367036000000
-0.0259419000000
-0.0126810000000
0.0031979900000
0.0200947000000
0.0369945000000
0.0518947000000
0.0616065000000
0.0636245000000
0.0569529000000
0.0417543000000
0.0207769000000
-0.0002171460000
-0.0126260000000
-0.0092304700000
0.0107775000000
0.0426320000000
0.0789291000000
0.1106210000000
0.1300880000000
0.1352410000000
0.1284590000000
0.1136550000000
0.0952914000000
0.0776146000000
0.0634297000000
0.0535544000000
0.0469198000000
0.0413096000000
0.0345226000000
0.0260833000000
0.0168757000000
0.0076116000000
-0.0013425500000
-0.0095129000000
-0.0150844000000
-0.0150953000000
-0.0062205900000
0.0133685000000
0.0423178000000
0.0760118000000
0.1081530000000
0.1325860000000
0.1451880000000
0.1446340000000
0.1284400000000
0.0933662000000
0.0412812000000
-0.0197621000000
-0.0786165000000
-0.1256720000000
-0.1565200000000
-0.1718630000000
-0.1755340000000
-0.1716340000000
-0.1633520000000
-0.1527170000000
-0.1396960000000
-0.1212310000000
-0.0901338000000
-0.0429842000000
0.0129765000000
0.0668657000000
0.1108510000000
0.1407660000000
0.1555760000000
0.1571710000000
0.1488940000000
0.1329520000000
0.1014380000000
0.0460686000000
-0.0244593000000
-0.0921388000000
-0.1434110000000
-0.1724230000000
-0.1796820000000
-0.1678360000000
-0.1366030000000
-0.0825481000000
-0.0113828000000
0.0603482000000
0.1169820000000
0.1500270000000
0.1583340000000
0.1446330000000
0.1134280000000
0.0709321000000
0.0246799000000
-0.0175233000000
-0.0499450000000
-0.0708942000000
-0.0818022000000
-0.0857019000000
-0.0853915000000
-0.0826936000000
-0.0784438000000
-0.0729070000000
-0.0661641000000
-0.0583900000000
-0.0495242000000
-0.0389201000000
-0.0257585000000
-0.0098796700000
0.0073661200000
0.0236768000000
0.0372437000000
0.0472163000000
0.0536530000000
0.0563258000000
0.0545357000000
0.0472605000000
0.0340773000000
0.0159017000000
-0.0053112100000
-0.0270281000000
-0.0451286000000
-0.0546090000000
-0.0512472000000
-0.0342631000000
-0.0073796300000
0.0235702000000
0.0526540000000
0.0743471000000
0.0844465000000
0.0808677000000
0.0615610000000
0.0262544000000
-0.0180348000000
-0.0600135000000
-0.0906092000000
-0.1037330000000
-0.0962597000000
-0.0665693000000
-0.0176175000000
0.0392200000000
0.0894691000000
0.1228890000000
0.1362860000000
0.1307320000000
0.1052050000000
0.0614911000000
0.0097561000000
-0.0375239000000
-0.0718377000000
-0.0897918000000
-0.0923389000000
-0.0835379000000
-0.0688080000000
-0.0532670000000
-0.0396937000000
-0.0286569000000
-0.0198666000000
-0.0130557000000
-0.0080903900000
-0.0049275100000
-0.0033822300000
-0.0030836800000
-0.0032919300000
-0.0029274400000
-0.0006396890000
0.0044742500000
0.0118424000000
0.0197788000000
0.0267068000000
0.0317361000000
0.0347472000000
0.0353789000000
0.0331627000000
0.0281042000000
0.0206289000000
0.0112969000000
0.0010768600000
-0.0084608200000
-0.0143704000000
-0.0133705000000
-0.0033721300000
0.0160999000000
0.0434512000000
0.0729668000000
0.0969417000000
0.1097250000000
0.1099850000000
0.1007010000000
0.0856097000000
0.0676876000000
0.0501425000000
0.0359488000000
0.0267442000000
0.0225993000000
0.0221560000000
0.0225909000000
0.0203273000000
0.0121367000000
-0.0032583800000
-0.0243930000000
-0.0481371000000
-0.0709121000000
-0.0892732000000
-0.1004490000000
-0.1030560000000
-0.0972982000000
-0.0847237000000
-0.0667972000000
-0.0445966000000
-0.0192376000000
0.0074223800000
0.0328878000000
0.0549869000000
0.0724808000000
0.0847970000000
0.0913555000000
0.0914345000000
0.0847197000000
0.0717150000000
0.0533676000000
0.0318327000000
0.0112035000000
-0.0044791100000
-0.0132615000000
-0.0155532000000
-0.0133945000000
-0.0095461900000
-0.0073966500000
-0.0102763000000
-0.0189144000000
-0.0313990000000
-0.0458261000000
-0.0602463000000
-0.0714343000000
-0.0747103000000
-0.0658769000000
-0.0441319000000
-0.0129501000000
0.0207804000000
0.0494187000000
0.0674215000000
0.0721065000000
0.0634171000000
0.0425234000000
0.0117556000000
-0.0248350000000
-0.0616507000000
-0.0931717000000
-0.1162710000000
-0.1303410000000
-0.1358540000000
-0.1323930000000
-0.1185920000000
-0.0935202000000
-0.0587058000000
-0.0197619000000
0.0158920000000
0.0425070000000
0.0569540000000
0.0591869000000
0.0523223000000
0.0410196000000
0.0292956000000
0.0199896000000
0.0146256000000
0.0133730000000
0.0152467000000
0.0187164000000
0.0222690000000
0.0247351000000
0.0245816000000
0.0204772000000
0.0128626000000
0.0033389200000
-0.0069181000000
-0.0167591000000
-0.0246668000000
-0.0282893000000
-0.0251689000000
-0.0135054000000
0.0069638200000
0.0343723000000
0.0646701000000
0.0927075000000
0.1130020000000
0.1213070000000
0.1160440000000
0.0982637000000
0.0712419000000
0.0400996000000
0.0103536000000
-0.0138131000000
-0.0303201000000
-0.0393040000000
-0.0421316000000
-0.0407235000000
-0.0372087000000
-0.0334689000000
-0.0306527000000
-0.0291158000000
-0.0285329000000
-0.0280835000000
-0.0268118000000
-0.0240721000000
-0.0197044000000
-0.0140736000000
-0.0078653600000
-0.0018361400000
0.0034616800000
0.0077432500000
0.0109944000000
0.0134421000000
0.0155004000000
0.0174650000000
0.0194673000000
0.0215927000000
0.0239960000000
0.0268461000000
0.0301264000000
0.0335333000000
0.0366006000000
0.0389702000000
0.0406609000000
0.0416106000000
0.0413661000000
0.0389321000000
0.0334141000000
0.0248726000000
0.0142474000000
0.0027550600000
-0.0086959900000
-0.0196236000000
-0.0291392000000
-0.0360974000000
-0.0397554000000
-0.0401459000000
-0.0380501000000
-0.0341775000000
-0.0288755000000
-0.0223671000000
-0.0148290000000
-0.0063978300000
0.0029056900000
0.0129829000000
0.0230090000000
0.0319207000000
0.0394681000000
0.0456428000000
0.0500102000000
0.0513562000000
0.0481895000000
0.0390792000000
0.0233172000000
0.0015981800000
-0.0234730000000
-0.0479727000000
-0.0677708000000
-0.0801138000000
-0.0847051000000
-0.0825664000000
-0.0750272000000
-0.0643894000000
-0.0536332000000
-0.0447895000000
-0.0382748000000
-0.0331050000000
-0.0281167000000
-0.0227913000000
-0.0173838000000
-0.0125110000000
-0.0086888800000
-0.0061159400000
-0.0046662100000
-0.0040477500000
-0.0040213500000
-0.0046717000000
-0.0062737700000
-0.0089556900000
-0.0125918000000
-0.0168078000000
-0.0210336000000
-0.0246394000000
-0.0270022000000
-0.0270212000000
-0.0233583000000
-0.0161461000000
-0.0069651700000
0.0030811300000
0.0133984000000
0.0230859000000
0.0305589000000
0.0341558000000
0.0331016000000
0.0279706000000
0.0204909000000
0.0124324000000
0.0047944000000
-0.0017527800000
-0.0065405000000
-0.0087421400000
-0.0078873400000
-0.0043945300000
0.0007547500000
0.0065380900000
0.0123046000000
0.0174593000000
0.0209244000000
0.0215563000000
0.0188362000000
0.0131040000000
0.0052179100000
-0.0041032900000
-0.0142943000000
-0.0247089000000
-0.0345968000000
-0.0432535000000
-0.0500763000000
-0.0546903000000
-0.0570081000000
-0.0566472000000
-0.0529806000000
-0.0459574000000
-0.0365635000000
-0.0265965000000
-0.0170231000000
-0.0071092800000
0.0034585000000
0.0136645000000
0.0217971000000
0.0263977000000
0.0268557000000
0.0229195000000
0.0146907000000
0.0037922100000
-0.0071551900000
-0.0160351000000
-0.0219960000000
-0.0255858000000
-0.0284332000000
-0.0322236000000
-0.0372851000000
-0.0426982000000
-0.0471857000000
-0.0498612000000
-0.0505591000000
-0.0496875000000
-0.0479509000000
-0.0460839000000
-0.0446584000000
-0.0439640000000
-0.0440050000000
-0.0446354000000
-0.0457719000000
-0.0471123000000
-0.0476968000000
-0.0451792000000
-0.0370518000000
-0.0237113000000
-0.0077232200000
0.0087556500000
0.0241727000000
0.0371843000000
0.0462405000000
0.0502862000000
0.0497500000000
0.0458873000000
0.0398563000000
0.0326051000000
0.0250415000000
0.0182588000000
0.0129633000000
0.0088495100000
0.0053159700000
0.0020359600000
-0.0012591700000
-0.0049372600000
-0.0093731400000
-0.0144716000000
-0.0195019000000
-0.0234941000000
-0.0258569000000
-0.0269131000000
-0.0278038000000
-0.0298601000000
-0.0334698000000
-0.0379884000000
-0.0425037000000
-0.0463155000000
-0.0490444000000
-0.0501481000000
-0.0489288000000
-0.0448875000000
-0.0381450000000
-0.0295681000000
-0.0199709000000
-0.0098506300000
-0.0000997266000
0.0079877500000
0.0132304000000
0.0149034000000
0.0130600000000
0.0085938800000
0.0027873100000
-0.0033645200000
-0.0092792100000
-0.0146711000000
-0.0191717000000
-0.0224099000000
-0.0242717000000
-0.0248765000000
-0.0245249000000
-0.0239304000000
-0.0240442000000
-0.0256428000000
-0.0289925000000
-0.0337542000000
-0.0393649000000
-0.0453672000000
-0.0515804000000
-0.0579512000000
-0.0643110000000
-0.0702517000000
-0.0752686000000
-0.0789961000000
-0.0813074000000
-0.0823103000000
-0.0822495000000
-0.0814288000000
-0.0800362000000
-0.0780656000000
-0.0752834000000
-0.0712801000000
-0.0657476000000
-0.0590401000000
-0.0520398000000
-0.0455402000000
-0.0397750000000
-0.0344297000000
-0.0295219000000
-0.0255428000000
-0.0229599000000
-0.0219904000000
-0.0225249000000
-0.0240695000000
-0.0258287000000
-0.0268269000000
-0.0261307000000
-0.0231967000000
-0.0183093000000
-0.0124552000000
-0.0064404800000
-0.0005951040000
0.0050533000000
0.0103034000000
0.0146522000000
0.0173965000000
0.0180154000000
0.0164768000000
0.0130851000000
0.0082830500000
0.0025285300000
-0.0037309700000
-0.0100424000000
-0.0160243000000
-0.0214802000000
-0.0265076000000
-0.0313407000000
-0.0359996000000
-0.0403067000000
-0.0441093000000
-0.0474995000000
-0.0507701000000
-0.0541366000000
-0.0576088000000
-0.0610003000000
-0.0640093000000
-0.0663355000000
-0.0676443000000
-0.0672038000000
-0.0637935000000
-0.0567572000000
-0.0466884000000
-0.0349790000000
-0.0228973000000
-0.0108550000000
0.0010146300000
0.0122897000000
0.0218939000000
0.0286742000000
0.0321864000000
0.0327134000000
0.0310103000000
0.0279146000000
0.0242123000000
0.0206660000000
0.0178194000000
0.0158377000000
0.0146141000000
0.0139049000000
0.0134258000000
0.0129466000000
0.0123380000000
0.0115810000000
0.0107629000000
0.0100940000000
0.0097866100000
0.0099282600000
0.0104677000000
0.0112532000000
0.0120589000000
0.0126526000000
0.0128729000000
0.0127260000000
0.0123910000000
0.0121765000000
0.0123395000000
0.0129143000000
0.0136784000000
0.0142579000000
0.0142291000000
0.0133238000000
0.0116043000000
0.0094368600000
0.0073289900000
0.0057708400000
0.0050648500000
0.0052082400000
0.0059361800000
0.0068831700000
0.0078928000000
0.0089786300000
0.0100851000000
0.0110362000000
0.0116323000000
0.0118183000000
0.0116723000000
0.0112674000000
0.0106458000000
0.0098701000000
0.0091327100000
0.0086698900000
0.0085312900000
0.0084152500000
0.0077535400000
0.0061324800000
0.0034946500000
0.0000224185000
-0.0039915700000
-0.0082276000000
-0.0123809000000
-0.0161213000000
-0.0188955000000
-0.0199705000000
-0.0187562000000
-0.0152745000000
-0.0102144000000
-0.0043817100000
0.0016036800000
0.0073012700000
0.0118428000000
0.0140746000000
0.0133899000000
0.0101291000000
0.0053793700000
0.0002448330000
-0.0044701600000
-0.0072893200000
-0.0063270600000
-0.0003097340000
0.0105519000000
0.0245318000000
0.0396865000000
0.0543269000000
0.0666945000000
0.0750066000000
0.0780944000000
0.0761891000000
0.0706143000000
0.0625912000000
0.0534211000000
0.0447983000000
0.0381735000000
0.0342130000000
0.0329007000000
0.0337691000000
0.0361046000000
0.0390427000000
0.0416872000000
0.0431008000000
0.0424533000000
0.0393048000000
0.0340692000000
0.0279477000000
0.0221589000000
0.0174534000000
0.0140715000000
0.0123319000000
0.0127466000000
0.0153833000000
0.0196410000000
0.0245958000000
0.0297568000000
0.0353005000000
0.0409913000000
0.0459890000000
0.0494279000000
0.0507544000000
0.0498679000000
0.0470423000000
0.0429601000000
0.0388979000000
0.0360776000000
0.0348876000000
0.0348770000000
0.0351358000000
0.0347220000000
0.0331104000000
0.0304380000000
0.0270382000000
0.0231252000000
0.0189010000000
0.0146573000000
0.0107618000000
0.0075712200000
0.0053056900000
0.0041264000000
0.0041632000000
0.0055532400000
0.0083818800000
0.0125340000000
0.0175133000000
0.0226078000000
0.0272633000000
0.0311858000000
0.0342696000000
0.0362793000000
0.0368822000000
0.0358798000000
0.0333151000000
0.0294742000000
0.0247396000000
0.0195323000000
0.0144170000000
0.0100544000000
0.0070182000000
0.0055927400000
0.0056580000000
0.0068598600000
0.0087575800000
0.0109416000000
0.0131146000000
0.0151264000000
0.0168990000000
0.0183761000000
0.0194816000000
0.0202052000000
0.0206892000000
0.0213173000000
0.0225182000000
0.0244423000000
0.0268648000000
0.0293042000000
0.0312611000000
0.0323926000000
0.0324470000000
0.0310416000000
0.0276011000000
0.0217107000000
0.0134944000000
0.0037634000000
-0.0062088700000
-0.0150572000000
-0.0215052000000
-0.0247049000000
-0.0244935000000
-0.0214084000000
-0.0164344000000
-0.0104874000000
-0.0041391500000
0.0021234000000
0.0075753200000
0.0109708000000
0.0113015000000
0.0086521700000
0.0040320300000
-0.0011857200000
-0.0058350700000
-0.0090719400000
-0.0102788000000
-0.0086706000000
-0.0036641700000
0.0041076800000
0.0132066000000
0.0224843000000
0.0308742000000
0.0371789000000
0.0398504000000
0.0379573000000
0.0323111000000
0.0245339000000
0.0159600000000
0.0080291200000
0.0023187000000
0.0002012780000
0.0020811700000
0.0070256900000
0.0138967000000
0.0217687000000
0.0290321000000
0.0338345000000
0.0351184000000
0.0327893000000
0.0276543000000
0.0215785000000
0.0170095000000
0.0160907000000
0.0194512000000
0.0258978000000
0.0341022000000
0.0432106000000
0.0523294000000
0.0599814000000
0.0643280000000
0.0643703000000
0.0604966000000
0.0539355000000
0.0460777000000
0.0380178000000
0.0307240000000
0.0250811000000
0.0219230000000
0.0216211000000
0.0237001000000
0.0272494000000
0.0314023000000
0.0355321000000
0.0391497000000
0.0416911000000
0.0427491000000
0.0423439000000
0.0407907000000
0.0384733000000
0.0356327000000
0.0324676000000
0.0292257000000
0.0258597000000
0.0219814000000
0.0171275000000
0.0110736000000
0.0040611100000
-0.0032226800000
-0.0099762600000
-0.0158675000000
-0.0208650000000
-0.0246877000000
-0.0265925000000
-0.0257577000000
-0.0219271000000
-0.0154957000000
-0.0070794700000
0.0025234200000
0.0122928000000
0.0209448000000
0.0272334000000
0.0302346000000
0.0297623000000
0.0265832000000
0.0218387000000
0.0165950000000
0.0118536000000
0.0084834100000
0.0070351600000
0.0075448000000
0.0095128200000
0.0122312000000
0.0151340000000
0.0179864000000
0.0205571000000
0.0225023000000
0.0235608000000
0.0236717000000
0.0229634000000
0.0217229000000
0.0203166000000
0.0190985000000
0.0183755000000
0.0184209000000
0.0195548000000
0.0219833000000
0.0254358000000
0.0292710000000
0.0328665000000
0.0358700000000
0.0381203000000
0.0389787000000
0.0374497000000
0.0328214000000
0.0253053000000
0.0160305000000
0.0062504900000
-0.0028605400000
-0.0100857000000
-0.0142526000000
-0.0147404000000
-0.0119911000000
-0.0071439300000
-0.0013079900000
0.0045133200000
0.0094410800000
0.0127543000000
0.0140825000000
0.0135476000000
0.0115561000000
0.0085694900000
0.0048816100000
0.0007607710000
-0.0033519300000
-0.0070888000000
-0.0102704000000
-0.0125452000000
-0.0135980000000
-0.0135702000000
-0.0129109000000
-0.0121148000000
-0.0115819000000
-0.0115340000000
-0.0119805000000
-0.0128234000000
-0.0139003000000
-0.0148749000000
-0.0151950000000
-0.0142262000000
-0.0116632000000
-0.0077928600000
-0.0034031200000
0.0006418540000
0.0038169700000
0.0056874900000
0.0059096100000
0.0045670100000
0.0021077600000
-0.0010023200000
-0.0044259600000
-0.0079299300000
-0.0111304000000
-0.0135790000000
-0.0150154000000
-0.0156633000000
-0.0162852000000
-0.0181861000000
-0.0222593000000
-0.0280728000000
-0.0345943000000
-0.0409029000000
-0.0460000000000
-0.0489433000000
-0.0492527000000
-0.0471732000000
-0.0434798000000
-0.0385854000000
-0.0325552000000
-0.0255914000000
-0.0181190000000
-0.0106442000000
-0.0035918300000
0.0027110600000
0.0080190200000
0.0123015000000
0.0157658000000
0.0185671000000
0.0206515000000
0.0217725000000
0.0216568000000
0.0202141000000
0.0176125000000
0.0142156000000
0.0104244000000
0.0064386300000
0.0022542500000
-0.0019251000000
-0.0057229400000
-0.0088919400000
-0.0112888000000
-0.0128284000000
-0.0134467000000
-0.0130902000000
-0.0116617000000
-0.0090663800000
-0.0053697800000
-0.0010386100000
0.0032707500000
0.0071900400000
0.0105486000000
0.0131224000000
0.0143491000000
0.0135444000000
0.0103070000000
0.0047737500000
-0.0023455700000
-0.0101198000000
-0.0177761000000
-0.0249253000000
-0.0311499000000
-0.0356118000000
-0.0371956000000
-0.0351892000000
-0.0299851000000
-0.0228840000000
-0.0153802000000
-0.0084408700000
-0.0022989200000
0.0031092500000
0.0078214700000
0.0117022000000
0.0143929000000
0.0155485000000
0.0152724000000
0.0140768000000
0.0125345000000
0.0109952000000
0.0095247500000
0.0080974800000
0.0067779000000
0.0058208000000
0.0055916200000
0.0063588100000
0.0081373000000
0.0107666000000
0.0141455000000
0.0181134000000
0.0223209000000
0.0263559000000
0.0299045000000
0.0327682000000
0.0345689000000
0.0346678000000
0.0325589000000
0.0282767000000
0.0225118000000
0.0161298000000
0.0097044800000
0.0038022200000
-0.0009470830000
-0.0040490800000
-0.0053132100000
-0.0049067100000
-0.0031367200000
-0.0003838460000
0.0027446300000
0.0054960100000
0.0072266600000
0.0076287900000
0.0068456700000
0.0054162000000
0.0041672600000
0.0040256200000
0.0056587100000
0.0091544900000
0.0140257000000
0.0195769000000
0.0253556000000
0.0308769000000
0.0354006000000
0.0377341000000
0.0368581000000
0.0327426000000
0.0263310000000
0.0190175000000
0.0118166000000
0.0053357700000
0.0003735880000
-0.0023726900000
-0.0028228900000
-0.0014202000000
0.0011782200000
0.0045558400000
0.0084034000000
0.0120602000000
0.0147781000000
0.0161544000000
0.0161866000000
0.0151692000000
0.0135417000000
0.0117677000000
0.0102628000000
0.0092534500000
0.0086922500000
0.0083305100000
0.0078669700000
0.0070934300000
0.0059280200000
0.0043743500000
0.0024989200000
0.0004272280000
-0.0016672300000
-0.0036413500000
-0.0055759500000
-0.0076765400000
-0.0100292000000
-0.0124966000000
-0.0147891000000
-0.0167476000000
-0.0184139000000
-0.0197928000000
-0.0207563000000
-0.0210854000000
-0.0206792000000
-0.0196833000000
-0.0182470000000
-0.0164119000000
-0.0141647000000
-0.0115529000000
-0.0087840200000
-0.0062099500000
-0.0041970300000
-0.0029478400000
-0.0024619200000
-0.0027161900000
-0.0036935900000
-0.0053154800000
-0.0074078500000
-0.0097172500000
-0.0120135000000
-0.0141339000000
-0.0159251000000
-0.0172789000000
-0.0182012000000
-0.0187251000000
-0.0188321000000
-0.0183456000000
-0.0170682000000
-0.0150568000000
-0.0125466000000
-0.0097500100000
-0.0069720500000
-0.0046629500000
-0.0032879400000
-0.0031084400000
-0.0040152600000
-0.0056786300000
-0.0077810500000
-0.0100270000000
-0.0121077000000
-0.0136851000000
-0.0144734000000
-0.0143249000000
-0.0132923000000
-0.0116736000000
-0.0099500800000
-0.0086466900000
-0.0081753100000
-0.0087159200000
-0.0101576000000
-0.0122290000000
-0.0146380000000
-0.0171256000000
-0.0194870000000
-0.0216931000000
-0.0238796000000
-0.0262864000000
-0.0290716000000
-0.0321650000000
-0.0352721000000
-0.0380258000000
-0.0401279000000
-0.0413899000000
-0.0416003000000
-0.0406611000000
-0.0387673000000
-0.0363367000000
-0.0338264000000
-0.0315709000000
-0.0297547000000
-0.0285317000000
-0.0280045000000
-0.0281480000000
-0.0287404000000
-0.0294167000000
-0.0297631000000
-0.0294817000000
-0.0285088000000
-0.0269562000000
-0.0250164000000
-0.0230134000000
-0.0213407000000
-0.0203554000000
-0.0202567000000
-0.0210357000000
-0.0225097000000
-0.0243543000000
-0.0259495000000
-0.0265313000000
-0.0254780000000
-0.0226188000000
-0.0183956000000
-0.0134930000000
-0.0084962900000
-0.0040206600000
-0.0006945870000
0.0009249710000
0.0005761370000
-0.0015074400000
-0.0047633500000
-0.0085495900000
-0.0123895000000
-0.0159056000000
-0.0184545000000
-0.0194279000000
-0.0187539000000
-0.0168149000000
-0.0141816000000
-0.0112899000000
-0.0084631500000
-0.0061788000000
-0.0049269500000
-0.0049104500000
-0.0059894800000
-0.0077560500000
-0.0096976900000
-0.0114618000000
-0.0131433000000
-0.0150546000000
-0.0173808000000
-0.0200021000000
-0.0225729000000
-0.0246772000000
-0.0260222000000
-0.0265676000000
-0.0264827000000
-0.0260314000000
-0.0254237000000
-0.0247209000000
-0.0237197000000
-0.0220681000000
-0.0195097000000
-0.0161577000000
-0.0125450000000
-0.0092834700000
-0.0067521200000
-0.0049177800000
-0.0035315300000
-0.0024203000000
-0.0015820100000
-0.0011105100000
-0.0011086200000
-0.0016184900000
-0.0026331800000
-0.0040872800000
-0.0058372800000
-0.0075685700000
-0.0088616000000
-0.0093865000000
-0.0090566300000
-0.0080671400000
-0.0067617100000
-0.0054829200000
-0.0046331000000
-0.0046039000000
-0.0055625300000
-0.0073602200000
-0.0095853200000
-0.0118073000000
-0.0137856000000
-0.0153947000000
-0.0165285000000
-0.0169276000000
-0.0163445000000
-0.0148243000000
-0.0126470000000
-0.0101660000000
-0.0076755100000
-0.0053853300000
-0.0035297500000
-0.0023453800000
-0.0019633800000
-0.0023191500000
-0.0031700400000
-0.0043246700000
-0.0056800000000
-0.0071181500000
-0.0084920600000
-0.0096760900000
-0.0106590000000
-0.0115396000000
-0.0124330000000
-0.0133899000000
-0.0143605000000
-0.0152171000000
-0.0158265000000
-0.0161186000000
-0.0160469000000
-0.0155098000000
-0.0144906000000
-0.0131573000000
-0.0116993000000
-0.0102128000000
-0.0086839700000
-0.0070754300000
-0.0054105900000
-0.0037486900000
-0.0021382200000
-0.0005955640000
0.0009340730000
0.0025968400000
0.0045045600000
0.0066367100000
0.0088971000000
0.0112288000000
0.0137232000000
0.0163871000000
0.0189620000000
0.0212116000000
0.0230672000000
0.0243942000000
0.0249839000000
0.0247052000000
0.0236166000000
0.0219730000000
0.0200434000000
0.0180726000000
0.0163787000000
0.0153878000000
0.0155191000000
0.0169975000000
0.0197094000000
0.0232012000000
0.0269132000000
0.0304638000000
0.0336585000000
0.0363525000000
0.0379206000000
0.0376077000000
0.0352743000000
0.0314298000000
0.0269084000000
0.0223931000000
0.0183236000000
0.0152368000000
0.0136491000000
0.0137407000000
0.0153522000000
0.0180766000000
0.0214083000000
0.0247858000000
0.0275842000000
0.0292814000000
0.0296677000000
0.0288760000000
0.0272703000000
0.0252417000000
0.0231782000000
0.0214752000000
0.0204697000000
0.0203033000000
0.0207861000000
0.0215211000000
0.0221393000000
0.0223506000000
0.0219753000000
0.0209986000000
0.0195614000000
0.0178810000000
0.0162026000000
0.0147358000000
0.0135349000000
0.0125615000000
0.0120369000000
0.0123124000000
0.0135401000000
0.0156961000000
0.0186427000000
0.0221084000000
0.0257374000000
0.0291933000000
0.0322356000000
0.0347550000000
0.0366428000000
0.0377818000000
0.0380824000000
0.0375319000000
0.0362309000000
0.0344067000000
0.0323942000000
0.0306859000000
0.0297206000000
0.0295979000000
0.0301257000000
0.0309701000000
0.0317232000000
0.0319721000000
0.0313226000000
0.0295721000000
0.0268842000000
0.0237213000000
0.0206171000000
0.0178461000000
0.0154352000000
0.0133655000000
0.0116374000000
0.0102265000000
0.0089766800000
0.0076311800000
0.0059622800000
0.0038828700000
0.0015081200000
-0.0008741110000
-0.0029125300000
-0.0042620000000
-0.0045149100000
-0.0031628200000
0.0000039984800
0.0046407500000
0.0102540000000
0.0163966000000
0.0225727000000
0.0279737000000
0.0315406000000
0.0326216000000
0.0313516000000
0.0284090000000
0.0246352000000
0.0207411000000
0.0174547000000
0.0154953000000
0.0153534000000
0.0170515000000
0.0201016000000
0.0239312000000
0.0281957000000
0.0324283000000
0.0359967000000
0.0383625000000
0.0393038000000
0.0389933000000
0.0378137000000
0.0362219000000
0.0349041000000
0.0345408000000
0.0354101000000
0.0373791000000
0.0400498000000
0.0429515000000
0.0456413000000
0.0476775000000
0.0486344000000
0.0481895000000
0.0461494000000
0.0425569000000
0.0377592000000
0.0322265000000
0.0262926000000
0.0203378000000
0.0149298000000
0.0108745000000
0.0088372500000
0.0088753300000
0.0105636000000
0.0133180000000
0.0166203000000
0.0200858000000
0.0234127000000
0.0263101000000
0.0284630000000
0.0296074000000
0.0296505000000
0.0286269000000
0.0267255000000
0.0243383000000
0.0219048000000
0.0197505000000
0.0181825000000
0.0174395000000
0.0175010000000
0.0181418000000
0.0191162000000
0.0202665000000
0.0215281000000
0.0228288000000
0.0240103000000
0.0247738000000
0.0248720000000
0.0243016000000
0.0232081000000
0.0217977000000
0.0203647000000
0.0191956000000
0.0184280000000
0.0180438000000
0.0179192000000
0.0179006000000
0.0178596000000
0.0177264000000
0.0174883000000
0.0171756000000
0.0168339000000
0.0164838000000
0.0160289000000
0.0153215000000
0.0142934000000
0.0130086000000
0.0116220000000
0.0102486000000
0.0089985000000
0.0081560800000
0.0079487500000
0.0083042200000
0.0091578100000
0.0105580000000
0.0123769000000
0.0143602000000
0.0163735000000
0.0183733000000
0.0203006000000
0.0219698000000
0.0231837000000
0.0239672000000
0.0244947000000
0.0249243000000
0.0253891000000
0.0259813000000
0.0266331000000
0.0272149000000
0.0277115000000
0.0281015000000
0.0282483000000
0.0279796000000
0.0272281000000
0.0261426000000
0.0249100000000
0.0235389000000
0.0218623000000
0.0196584000000
0.0166711000000
0.0127784000000
0.0081873900000
0.0033551000000
-0.0012119300000
-0.0051279800000
-0.0081644700000
-0.0100941000000
-0.0107318000000
-0.0100770000000
-0.0082947500000
-0.0056510000000
-0.0023151700000
0.0015124800000
0.0053204600000
0.0084066200000
0.0101967000000
0.0104470000000
0.0093021300000
0.0071866800000
0.0046661000000
0.0023098100000
0.0005805080000
-0.0002716440000
-0.0002168820000
0.0005828190000
0.0018560000000
0.0033819300000
0.0050647600000
0.0067539800000
0.0082016800000
0.0091319200000
0.0092984800000
0.0085439500000
0.0069456100000
0.0048297400000
0.0025288400000
0.0002341390000
-0.0020184800000
-0.0042278400000
-0.0063209200000
-0.0081748300000
-0.0097032000000
-0.0109498000000
-0.0120068000000
-0.0128825000000
-0.0135347000000
-0.0139529000000
-0.0141699000000
-0.0142496000000
-0.0142517000000
-0.0141695000000
-0.0139092000000
-0.0134538000000
-0.0129384000000
-0.0126279000000
-0.0127517000000
-0.0133383000000
-0.0142819000000
-0.0154544000000
-0.0166984000000
-0.0178544000000
-0.0188259000000
-0.0195991000000
-0.0202308000000
-0.0208620000000
-0.0216934000000
-0.0229907000000
-0.0250042000000
-0.0278856000000
-0.0315620000000
-0.0357001000000
-0.0399749000000
-0.0442235000000
-0.0483367000000
-0.0520734000000
-0.0548944000000
-0.0561345000000
-0.0553815000000
-0.0528523000000
-0.0492278000000
-0.0450257000000
-0.0405237000000
-0.0359500000000
-0.0313993000000
-0.0267994000000
-0.0220299000000
-0.0170216000000
-0.0117970000000
-0.0065631800000
-0.0016719400000
0.0027070100000
0.0066180900000
0.0098266900000
0.0119400000000
0.0128116000000
0.0125294000000
0.0112893000000
0.0092247200000
0.0064606200000
0.0033275100000
0.0003210920000
-0.0021018800000
-0.0038600400000
-0.0053177900000
-0.0071273700000
-0.0098856900000
-0.0138103000000
-0.0186863000000
-0.0240158000000
-0.0294232000000
-0.0347594000000
-0.0398592000000
-0.0444742000000
-0.0483490000000
-0.0512865000000
-0.0532308000000
-0.0542604000000
-0.0545671000000
-0.0543839000000
-0.0537342000000
-0.0523355000000
-0.0499753000000
-0.0467255000000
-0.0427116000000
-0.0380919000000
-0.0331745000000
-0.0283275000000
-0.0238522000000
-0.0200268000000
-0.0170838000000
-0.0151935000000
-0.0144067000000
-0.0145974000000
-0.0155081000000
-0.0168095000000
-0.0181104000000
-0.0190528000000
-0.0194290000000
-0.0192128000000
-0.0185620000000
-0.0178373000000
-0.0175047000000
-0.0180007000000
-0.0195219000000
-0.0218784000000
-0.0247723000000
-0.0279935000000
-0.0313148000000
-0.0344562000000
-0.0371538000000
-0.0392534000000
-0.0407750000000
-0.0417830000000
-0.0423722000000
-0.0428145000000
-0.0434847000000
-0.0446523000000
-0.0463707000000
-0.0484782000000
-0.0507779000000
-0.0530751000000
-0.0550974000000
-0.0565674000000
-0.0573390000000
-0.0573545000000
-0.0566260000000
-0.0551748000000
-0.0530875000000
-0.0505891000000
-0.0480235000000
-0.0457601000000
-0.0441727000000
-0.0435241000000
-0.0438650000000
-0.0450388000000
-0.0467404000000
-0.0485621000000
-0.0501134000000
-0.0511671000000
-0.0516394000000
-0.0514671000000
-0.0506125000000
-0.0491382000000
-0.0472927000000
-0.0454389000000
-0.0439043000000
-0.0428976000000
-0.0424945000000
-0.0427519000000
-0.0436967000000
-0.0451530000000
-0.0467990000000
-0.0483467000000
-0.0495665000000
-0.0502969000000
-0.0505035000000
-0.0502862000000
-0.0498276000000
-0.0493928000000
-0.0493032000000
-0.0497469000000
-0.0506792000000
-0.0519153000000
-0.0532615000000
-0.0546097000000
-0.0558705000000
-0.0569285000000
-0.0577482000000
-0.0583640000000
-0.0587047000000
-0.0586433000000
-0.0581308000000
-0.0571438000000
-0.0556732000000
-0.0538188000000
-0.0517504000000
-0.0495908000000
-0.0474594000000
-0.0455199000000
-0.0439366000000
-0.0427859000000
-0.0419784000000
-0.0413241000000
-0.0406407000000
-0.0397787000000
-0.0386413000000
-0.0372182000000
-0.0355965000000
-0.0339532000000
-0.0325272000000
-0.0315540000000
-0.0311935000000
-0.0314708000000
-0.0322654000000
-0.0333500000000
-0.0344424000000
-0.0352450000000
-0.0355320000000
-0.0352899000000
-0.0346940000000
-0.0339786000000
-0.0333658000000
-0.0330243000000
-0.0330193000000
-0.0332944000000
-0.0336749000000
-0.0339353000000
-0.0338845000000
-0.0334341000000
-0.0326063000000
-0.0314119000000
-0.0298766000000
-0.0281661000000
-0.0264798000000
-0.0248970000000
-0.0233111000000
-0.0215285000000
-0.0194628000000
-0.0171651000000
-0.0147510000000
-0.0123728000000
-0.0101948000000
-0.0084183300000
-0.0072866100000
-0.0071149100000
-0.0080679800000
-0.0099418200000
-0.0123238000000
-0.0148221000000
-0.0172648000000
-0.0195433000000
-0.0213361000000
-0.0221649000000
-0.0216426000000
-0.0196002000000
-0.0161707000000
-0.0117793000000
-0.0069373300000
-0.0020528300000
0.0024448400000
0.0060994600000
0.0084880300000
0.0093831300000
0.0088833700000
0.0073359500000
0.0051881300000
0.0027495300000
0.0001597360000
-0.0024872300000
-0.0051165500000
-0.0077025900000
-0.0102959000000
-0.0129833000000
-0.0157685000000
-0.0185317000000
-0.0210630000000
-0.0231782000000
-0.0248060000000
-0.0258555000000
-0.0261614000000
-0.0254475000000
-0.0235588000000
-0.0206905000000
-0.0171763000000
-0.0133100000000
-0.0094155700000
-0.0058694600000
-0.0030722700000
-0.0013449600000
-0.0007728930000
-0.0011082600000
-0.0019132100000
-0.0029127500000
-0.0039586400000
-0.0048581000000
-0.0054415400000
-0.0056553000000
-0.0055096100000
-0.0050751900000
-0.0045118000000
-0.0040285100000
-0.0037971500000
-0.0038460800000
-0.0040378200000
-0.0040897000000
-0.0036228300000
-0.0022831700000
-0.0000492015000
0.0027081100000
0.0056621700000
0.0086829200000
0.0117268000000
0.0146925000000
0.0173627000000
0.0194256000000
0.0206413000000
0.0210298000000
0.0207878000000
0.0200971000000
0.0190949000000
0.0179158000000
0.0167657000000
0.0158245000000
0.0150775000000
0.0144328000000
0.0138575000000
0.0132385000000
0.0123926000000
0.0112914000000
0.0099941600000
0.0084692000000
0.0067151900000
0.0048528000000
0.0029912200000
0.0011983700000
-0.0004006690000
-0.0016203500000
-0.0022925900000
-0.0023595600000
-0.0018873000000
-0.0009326550000
0.0004632160000
0.0022070100000
0.0041370500000
0.0060519100000
0.0077532500000
0.0091095200000
0.0101090000000
0.0108343000000
0.0114112000000
0.0119558000000
0.0125548000000
0.0132930000000
0.0142109000000
0.0152465000000
0.0163212000000
0.0174046000000
0.0184529000000
0.0193846000000
0.0200869000000
0.0203652000000
0.0199744000000
0.0188894000000
0.0173886000000
0.0158319000000
0.0145128000000
0.0136182000000
0.0132671000000
0.0135181000000
0.0143743000000
0.0157604000000
0.0175264000000
0.0194647000000
0.0213513000000
0.0229835000000
0.0242237000000
0.0249451000000
0.0250609000000
0.0245808000000
0.0236752000000
0.0226518000000
0.0217991000000
0.0212983000000
0.0212725000000
0.0217107000000
0.0223998000000
0.0230607000000
0.0234460000000
0.0231356000000
0.0217411000000
0.0192856000000
0.0160848000000
0.0125319000000
0.0090834600000
0.0061848400000
0.0041572800000
0.0031811100000
0.0032967000000
0.0043844200000
0.0061961800000
0.0086282400000
0.0116265000000
0.0148915000000
0.0179531000000
0.0203921000000
0.0219264000000
0.0224796000000
0.0222002000000
0.0213550000000
0.0201978000000
0.0189513000000
0.0178076000000
0.0169196000000
0.0163460000000
0.0160028000000
0.0157924000000
0.0157057000000
0.0157343000000
0.0158325000000
0.0159948000000
0.0162258000000
0.0164770000000
0.0166796000000
0.0167801000000
0.0167094000000
0.0163847000000
0.0157459000000
0.0148222000000
0.0137310000000
0.0125141000000
0.0111837000000
0.0098899200000
0.0087764400000
0.0078466000000
0.0071934100000
0.0070135000000
0.0074182800000
0.0084283700000
0.0100267000000
0.0121400000000
0.0146118000000
0.0172186000000
0.0197939000000
0.0223264000000
0.0247450000000
0.0268321000000
0.0283559000000
0.0291874000000
0.0293206000000
0.0287942000000
0.0276692000000
0.0261003000000
0.0243006000000
0.0224257000000
0.0206704000000
0.0193336000000
0.0186867000000
0.0188285000000
0.0196591000000
0.0209764000000
0.0225839000000
0.0242898000000
0.0259193000000
0.0273599000000
0.0284917000000
0.0290967000000
0.0289950000000
0.0281746000000
0.0266810000000
0.0245907000000
0.0220506000000
0.0192423000000
0.0163405000000
0.0135181000000
0.0109449000000
0.0087964500000
0.0072134800000
0.0062389600000
0.0058465100000
0.0059744400000
0.0066044700000
0.0077006200000
0.0091268400000
0.0107390000000
0.0124481000000
0.0141525000000
0.0157050000000
0.0169153000000
0.0175777000000
0.0175537000000
0.0168525000000
0.0156475000000
0.0142207000000
0.0128152000000
0.0115335000000
0.0104128000000
0.0095130800000
0.0089995600000
0.0090420400000
0.0096705000000
0.0108216000000
0.0124203000000
0.0145019000000
0.0170478000000
0.0197890000000
0.0224791000000
0.0250735000000
0.0274909000000
0.0295661000000
0.0311668000000
0.0322254000000
0.0327505000000
0.0327839000000
0.0323992000000
0.0317054000000
0.0307963000000
0.0297253000000
0.0286101000000
0.0276274000000
0.0269094000000
0.0265739000000
0.0267574000000
0.0274492000000
0.0284261000000
0.0293688000000
0.0300106000000
0.0302275000000
0.0299269000000
0.0290187000000
0.0275072000000
0.0255185000000
0.0232378000000
0.0208106000000
0.0183115000000
0.0158649000000
0.0136082000000
0.0115674000000
0.0097344100000
0.0081428600000
0.0067760700000
0.0055729000000
0.0045632500000
0.0038893400000
0.0037043600000
0.0039883700000
0.0045549500000
0.0052814200000
0.0061153200000
0.0069653900000
0.0076123400000
0.0077992000000
0.0074462900000
0.0066725700000
0.0056793600000
0.0046583600000
0.0037505300000
0.0031171600000
0.0028501100000
0.0028317500000
0.0028336400000
0.0026694100000
0.0022570400000
0.0016350000000
0.0009572770000
0.0004667360000
0.0004154690000
0.0009847320000
0.0022124200000
0.0039788200000
0.0060422200000
0.0081043800000
0.0098441000000
0.0110047000000
0.0114614000000
0.0112240000000
0.0104021000000
0.0091684100000
0.0077384400000
0.0063981300000
0.0054044600000
0.0048452000000
0.0045785100000
0.0042927400000
0.0036021500000
0.0021749400000
-0.0001562390000
-0.0032879100000
-0.0068693200000
-0.0106015000000
-0.0143314000000
-0.0179365000000
-0.0211665000000
-0.0236425000000
-0.0250331000000
-0.0252177000000
-0.0243029000000
-0.0225886000000
-0.0204730000000
-0.0181852000000
-0.0157527000000
-0.0132386000000
-0.0108171000000
-0.0087136300000
-0.0071217700000
-0.0061199400000
-0.0056448500000
-0.0055344800000
-0.0055888300000
-0.0055655700000
-0.0052431000000
-0.0046215100000
-0.0039125400000
-0.0033879500000
-0.0032810500000
-0.0037179200000
-0.0047321000000
-0.0062816600000
-0.0082794700000
-0.0105778000000
-0.0129798000000
-0.0153553000000
-0.0176387000000
-0.0196559000000
-0.0210675000000
-0.0214891000000
-0.0208394000000
-0.0194304000000
-0.0176600000000
-0.0157862000000
-0.0138855000000
-0.0121449000000
-0.0109208000000
-0.0103728000000
-0.0103901000000
-0.0107793000000
-0.0113566000000
-0.0119791000000
-0.0125567000000
-0.0130057000000
-0.0131522000000
-0.0128531000000
-0.0121278000000
-0.0110284000000
-0.0095793600000
-0.0078316800000
-0.0058984600000
-0.0039504000000
-0.0021783900000
-0.0007449560000
0.0001934310000
0.0005673920000
0.0004941810000
0.0001955070000
-0.0001183750000
-0.0003128850000
-0.0003242570000
-0.0001163120000
0.0003161200000
0.0008990360000
0.0013495100000
0.0013179500000
0.0007143380000
-0.0003279510000
-0.0016341600000
-0.0030980300000
-0.0046583400000
-0.0061831300000
-0.0075323500000
-0.0086744900000
-0.0095532000000
-0.0100448000000
-0.0100745000000
-0.0096789100000
-0.0089823200000
-0.0081736300000
-0.0074664500000
-0.0071044200000
-0.0072730700000
-0.0079884200000
-0.0090595800000
-0.0101329000000
-0.0107485000000
-0.0104979000000
-0.0091614800000
-0.0067634400000
-0.0035567100000
0.0001042080000
0.0038955100000
0.0076462000000
0.0112844000000
0.0147107000000
0.0177663000000
0.0203063000000
0.0222833000000
0.0236752000000
0.0243162000000
0.0240362000000
0.0228534000000
0.0209202000000
0.0184854000000
0.0158989000000
0.0134358000000
0.0111638000000
0.0091777900000
0.0076822400000
0.0069057300000
0.0070414500000
0.0081845600000
0.0101601000000
0.0125498000000
0.0150767000000
0.0176414000000
0.0201205000000
0.0222863000000
0.0238772000000
0.0247115000000
0.0247545000000
0.0240958000000
0.0229087000000
0.0214169000000
0.0198711000000
0.0184849000000
0.0173640000000
0.0165309000000
0.0159716000000
0.0156398000000
0.0154602000000
0.0153533000000
0.0152571000000
0.0151447000000
0.0150564000000
0.0150789000000
0.0152821000000
0.0157308000000
0.0165114000000
0.0176028000000
0.0188341000000
0.0200571000000
0.0211946000000
0.0221842000000
0.0229876000000
0.0236097000000
0.0240461000000
0.0243014000000
0.0244598000000
0.0246739000000
0.0250820000000
0.0256641000000
0.0263010000000
0.0270079000000
0.0278174000000
0.0285974000000
0.0291165000000
0.0291676000000
0.0285782000000
0.0272237000000
0.0250837000000
0.0223780000000
0.0195461000000
0.0170255000000
0.0150168000000
0.0133610000000
0.0118026000000
0.0102488000000
0.0089740300000
0.0083865400000
0.0086427400000
0.0096242200000
0.0110609000000
0.0126633000000
0.0141879000000
0.0154423000000
0.0163083000000
0.0167707000000
0.0168932000000
0.0167722000000
0.0164563000000
0.0159012000000
0.0149994000000
0.0137196000000
0.0121719000000
0.0105641000000
0.0090751900000
0.0077463100000
0.0065192900000
0.0053293700000
0.0042329900000
0.0033574300000
0.0027845100000
0.0025888600000
0.0028444400000
0.0035511300000
0.0045755100000
0.0056412100000
0.0064336900000
0.0067301200000
0.0064242500000
0.0055213000000
0.0040997300000
0.0022855600000
0.0002434370000
-0.0018273800000
-0.0037289700000
-0.0053118700000
-0.0065438200000
-0.0075161000000
-0.0082069900000
-0.0084791700000
-0.0083490300000
-0.0080228700000
-0.0077575900000
-0.0077048600000
-0.0078743200000
-0.0082795800000
-0.0088618300000
-0.0093352400000
-0.0093302800000
-0.0086132600000
-0.0071700700000
-0.0051723900000
-0.0028743600000
-0.0005153950000
0.0017294500000
0.0036807700000
0.0051571000000
0.0060016900000
0.0060960000000
0.0054170600000
0.0041562200000
0.0026848200000
0.0013859900000
0.0005158560000
0.0001419410000
0.0002618940000
0.0008494230000
0.0018222500000
0.0030498400000
0.0043666000000
0.0054366600000
0.0058166800000
0.0051999800000
0.0035948200000
0.0013476200000
-0.0011082300000
-0.0034642600000
-0.0055297700000
-0.0071851700000
-0.0083408200000
-0.0089407600000
-0.0089901500000
-0.0084825400000
-0.0074562400000
-0.0061227600000
-0.0048031100000
-0.0037759000000
-0.0031804000000
-0.0030094200000
-0.0032023500000
-0.0037038600000
-0.0044714500000
-0.0054153800000
-0.0063864900000
-0.0072125900000
-0.0077938300000
-0.0081743200000
-0.0084790900000
-0.0088269600000
-0.0092872200000
-0.0098715100000
-0.0105491000000
-0.0112701000000
-0.0119715000000
-0.0125049000000
-0.0126995000000
-0.0124890000000
-0.0119218000000
-0.0111210000000
-0.0102239000000
-0.0093402900000
-0.0085288100000
-0.0078002000000
-0.0071381200000
-0.0065578900000
-0.0060885100000
-0.0056907200000
-0.0052780000000
-0.0047843200000
-0.0041851600000
-0.0034830400000
-0.0026554600000
-0.0016953000000
-0.0006709720000
0.0003191260000
0.0012064200000
0.0019735800000
0.0026671800000
0.0033850600000
0.0041505900000
0.0048634100000
0.0054043500000
0.0057133000000
0.0057987100000
0.0056840600000
0.0053689700000
0.0048107300000
0.0039489700000
0.0027403500000
0.0012490700000
-0.0003389940000
-0.0019565700000
-0.0036769400000
-0.0054887300000
-0.0072862800000
-0.0089623100000
-0.0103768000000
-0.0113878000000
-0.0119409000000
-0.0120429000000
-0.0116922000000
-0.0109089000000
-0.0097866000000
-0.0085062900000
-0.0072500700000
-0.0060848800000
-0.0050142100000
-0.0040604800000
-0.0033343800000
-0.0029576800000
-0.0029216700000
-0.0031317800000
-0.0035098500000
-0.0040032300000
-0.0045583900000
-0.0050835500000
-0.0055062100000
-0.0058554300000
-0.0062535600000
-0.0068353200000
-0.0076243300000
-0.0085332400000
-0.0094569600000
-0.0103498000000
-0.0112270000000
-0.0119883000000
-0.0123913000000
-0.0121256000000
-0.0109779000000
-0.0089894300000
-0.0064723400000
-0.0038552100000
-0.0013816800000
0.0008856560000
0.0028861900000
0.0044668500000
0.0054586600000
0.0058958200000
0.0059619800000
0.0057338900000
0.0052256200000
0.0045088700000
0.0036914700000
0.0028646300000
0.0020816700000
0.0013554600000
0.0006792640000
0.0000741147000
-0.0004264130000
-0.0009045390000
-0.0014730800000
-0.0020987400000
-0.0026217800000
-0.0028878200000
-0.0029178300000
-0.0028522000000
-0.0027447300000
-0.0026219900000
-0.0025887600000
-0.0028022200000
-0.0033788900000
-0.0043330600000
-0.0055834900000
-0.0069916700000
-0.0083436800000
-0.0093880600000
-0.0098731900000
-0.0096735300000
-0.0088961700000
-0.0077584200000
-0.0064561600000
-0.0051716200000
-0.0040686600000
-0.0032737400000
-0.0028664200000
-0.0028590300000
-0.0031498600000
-0.0035397400000
-0.0038007500000
-0.0037904900000
-0.0035230900000
-0.0030386500000
-0.0023590800000
-0.0017077600000
-0.0013678000000
-0.0013606100000
-0.0016004000000
-0.0020788900000
-0.0027707900000
-0.0035656300000
-0.0042978900000
-0.0048233400000
-0.0050837000000
-0.0050640300000
-0.0047741300000
-0.0042643000000
-0.0036392200000
-0.0030408000000
-0.0025513300000
-0.0021531900000
-0.0018307500000
-0.0015967800000
-0.0014490000000
-0.0013327300000
-0.0011640800000
-0.0009783620000
-0.0009506820000
-0.0013184900000
-0.0022535700000
-0.0037590400000
-0.0057014300000
-0.0078820600000
-0.0101129000000
-0.0122346000000
-0.0141332000000
-0.0158063000000
-0.0173385000000
-0.0187312000000
-0.0198916000000
-0.0207173000000
-0.0211656000000
-0.0212808000000
-0.0211683000000
-0.0209718000000
-0.0208384000000
-0.0207609000000
-0.0205583000000
-0.0200944000000
-0.0193676000000
-0.0184468000000
-0.0173581000000
-0.0160523000000
-0.0145332000000
-0.0129067000000
-0.0113464000000
-0.0100359000000
-0.0091107000000
-0.0086502800000
-0.0086723600000
-0.0091557500000
-0.0100658000000
-0.0113492000000
-0.0128882000000
-0.0145211000000
-0.0161612000000
-0.0177801000000
-0.0193304000000
-0.0207248000000
-0.0218790000000
-0.0227559000000
-0.0233154000000
-0.0234439000000
-0.0231158000000
-0.0224933000000
-0.0217978000000
-0.0211380000000
-0.0204106000000
-0.0195210000000
-0.0185484000000
-0.0175507000000
-0.0165070000000
-0.0154308000000
-0.0143745000000
-0.0134023000000
-0.0126858000000
-0.0124161000000
-0.0125771000000
-0.0130301000000
-0.0136951000000
-0.0145420000000
-0.0155272000000
-0.0165504000000
-0.0175194000000
-0.0184289000000
-0.0192911000000
-0.0200869000000
-0.0207895000000
-0.0213443000000
-0.0216392000000
-0.0216122000000
-0.0213136000000
-0.0207559000000
-0.0199028000000
-0.0187581000000
-0.0173782000000
-0.0158666000000
-0.0144177000000
-0.0132160000000
-0.0122405000000
-0.0112933000000
-0.0101491000000
-0.0087123600000
-0.0070446600000
-0.0052761800000
-0.0035321300000
-0.0018913000000
-0.0003781270000
0.0010280800000
0.0023640000000
0.0036159900000
0.0046779000000
0.0054382600000
0.0058780700000
0.0061119000000
0.0063192900000
0.0066316100000
0.0070633900000
0.0075452400000
0.0080949700000
0.0088063500000
0.0097247800000
0.0107541000000
0.0116867000000
0.0123484000000
0.0126757000000
0.0127125000000
0.0125643000000
0.0123562000000
0.0122361000000
0.0123056000000
0.0125473000000
0.0129383000000
0.0134968000000
0.0140833000000
0.0144212000000
0.0142792000000
0.0135660000000
0.0123404000000
0.0106651000000
0.0086447300000
0.0065569500000
0.0047224600000
0.0033357600000
0.0025256200000
0.0023994000000
0.0030678900000
0.0045625400000
0.0067454700000
0.0093263000000
0.0119922000000
0.0145625000000
0.0169354000000
0.0190152000000
0.0207554000000
0.0221568000000
0.0231901000000
0.0238579000000
0.0242473000000
0.0243508000000
0.0240761000000
0.0234297000000
0.0225260000000
0.0215019000000
0.0204220000000
0.0192745000000
0.0180328000000
0.0166872000000
0.0152519000000
0.0137575000000
0.0122548000000
0.0108363000000
0.0095947100000
0.0085565100000
0.0076497300000
0.0068106600000
0.0062370800000
0.0061948800000
0.0067099000000
0.0076539600000
0.0088841800000
0.0103141000000
0.0118491000000
0.0133051000000
0.0144235000000
0.0149986000000
0.0150306000000
0.0146697000000
0.0140728000000
0.0133591000000
0.0125984000000
0.0117856000000
0.0109712000000
0.0103794000000
0.0101743000000
0.0103129000000
0.0106870000000
0.0112038000000
0.0117859000000
0.0123792000000
0.0129552000000
0.0135087000000
0.0140483000000
0.0145766000000
0.0150156000000
0.0152198000000
0.0150841000000
0.0145790000000
0.0137103000000
0.0124871000000
0.0109308000000
0.0090988700000
0.0070813900000
0.0049741000000
0.0028532900000
0.0007773850000
-0.0011404700000
-0.0027562900000
-0.0039918100000
-0.0047970600000
-0.0050583000000
-0.0045833200000
-0.0032266500000
-0.0011005100000
0.0014724500000
0.0041969100000
0.0068610500000
0.0093031900000
0.0113203000000
0.0126977000000
0.0132692000000
0.0130226000000
0.0121738000000
0.0110791000000
0.0100979000000
0.0095056400000
0.0094466200000
0.0099383300000
0.0108933000000
0.0121532000000
0.0135889000000
0.0151272000000
0.0166784000000
0.0181233000000
0.0193496000000
0.0202973000000
0.0209806000000
0.0214216000000
0.0216368000000
0.0216574000000
0.0214759000000
0.0210277000000
0.0203369000000
0.0195414000000
0.0186952000000
0.0177931000000
0.0169166000000
0.0161867000000
0.0156856000000
0.0155146000000
0.0157535000000
0.0163428000000
0.0171199000000
0.0179138000000
0.0185677000000
0.0189486000000
0.0189092000000
0.0183679000000
0.0174147000000
0.0162120000000
0.0148842000000
0.0135053000000
0.0121294000000
0.0108290000000
0.0096450800000
0.0085409000000
0.0075182900000
0.0066416700000
0.0058686000000
0.0050969700000
0.0043370000000
0.0036441800000
0.0030316700000
0.0025616400000
0.0023309700000
0.0023461600000
0.0025995000000
0.0031646100000
0.0040092200000
0.0049314900000
0.0058072000000
0.0065956800000
0.0071662700000
0.0073646500000
0.0071356400000
0.0064932200000
0.0055069400000
0.0043356100000
0.0031684000000
0.0021399000000
0.0013377300000
0.0008076350000
0.0005364660000
0.0004756950000
0.0006039070000
0.0009455690000
0.0015364100000
0.0023403500000
0.0032688900000
0.0043186100000
0.0054827400000
0.0066046600000
0.0075188000000
0.0081954800000
0.0087505000000
0.0093215900000
0.0099090800000
0.0104469000000
0.0109349000000
0.0115011000000
0.0123076000000
0.0133445000000
0.0144786000000
0.0156062000000
0.0166153000000
0.0173647000000
0.0177663000000
0.0177961000000
0.0174169000000
0.0166078000000
0.0154326000000
0.0140552000000
0.0126819000000
0.0114687000000
0.0105246000000
0.0099502600000
0.0097604700000
0.0098424700000
0.0100813000000
0.0104131000000
0.0108074000000
0.0112768000000
0.0118667000000
0.0125339000000
0.0131450000000
0.0136213000000
0.0138888000000
0.0137537000000
0.0130930000000
0.0120061000000
0.0106676000000
0.0092331400000
0.0078616800000
0.0067051400000
0.0058751500000
0.0054414400000
0.0054130500000
0.0057217000000
0.0062255700000
0.0067299900000
0.0070348200000
0.0069926600000
0.0065171700000
0.0056034200000
0.0043375900000
0.0028586000000
0.0013114600000
-0.0001571390000
-0.0014251900000
-0.0024468300000
-0.0032767600000
-0.0040493300000
-0.0048418200000
-0.0056109700000
-0.0063594600000
-0.0071774300000
-0.0081450900000
-0.0092873900000
-0.0105634000000
-0.0118246000000
-0.0128618000000
-0.0135350000000
-0.0138282000000
-0.0138180000000
-0.0135617000000
-0.0130500000000
-0.0123104000000
-0.0114430000000
-0.0105562000000
-0.0097247600000
-0.0089815600000
-0.0083604100000
-0.0079044000000
-0.0076249500000
-0.0074531500000
-0.0072207000000
-0.0068448200000
-0.0064450200000
-0.0061666400000
-0.0060717000000
-0.0061971500000
-0.0065838300000
-0.0072643800000
-0.0082334600000
-0.0094390700000
-0.0108453000000
-0.0124005000000
-0.0139436000000
-0.0152549000000
-0.0161731000000
-0.0166987000000
-0.0169803000000
-0.0172050000000
-0.0175405000000
-0.0181067000000
-0.0188785000000
-0.0196916000000
-0.0204583000000
-0.0211877000000
-0.0218372000000
-0.0224068000000
-0.0230451000000
-0.0238555000000
-0.0247866000000
-0.0257220000000
-0.0265631000000
-0.0272690000000
-0.0278827000000
-0.0285008000000
-0.0291244000000
-0.0296486000000
-0.0299778000000
-0.0300793000000
-0.0299961000000
-0.0298815000000
-0.0299403000000
-0.0302164000000
-0.0306026000000
-0.0310108000000
-0.0314105000000
-0.0317866000000
-0.0320520000000
-0.0320672000000
-0.0317505000000
-0.0311161000000
-0.0302472000000
-0.0292187000000
-0.0280671000000
-0.0268545000000
-0.0256597000000
-0.0244977000000
-0.0234069000000
-0.0225424000000
-0.0220659000000
-0.0220164000000
-0.0222698000000
-0.0226331000000
-0.0229897000000
-0.0232806000000
-0.0234549000000
-0.0234856000000
-0.0233879000000
-0.0232072000000
-0.0230215000000
-0.0229367000000
-0.0230372000000
-0.0233553000000
-0.0239606000000
-0.0249372000000
-0.0262841000000
-0.0278608000000
-0.0294151000000
-0.0307567000000
-0.0318447000000
-0.0326905000000
-0.0333009000000
-0.0336683000000
-0.0337956000000
-0.0337235000000
-0.0335157000000
-0.0332112000000
-0.0327457000000
-0.0320576000000
-0.0312276000000
-0.0303730000000
-0.0295448000000
-0.0287414000000
-0.0279614000000
-0.0272397000000
-0.0265676000000
-0.0258360000000
-0.0249631000000
-0.0239639000000
-0.0229113000000
-0.0219250000000
-0.0211782000000
-0.0207753000000
-0.0206835000000
-0.0208716000000
-0.0213206000000
-0.0218959000000
-0.0224534000000
-0.0229797000000
-0.0234722000000
-0.0238585000000
-0.0240717000000
-0.0241156000000
-0.0240812000000
-0.0240259000000
-0.0239000000000
-0.0236600000000
-0.0233345000000
-0.0229783000000
-0.0226181000000
-0.0222240000000
-0.0218078000000
-0.0214702000000
-0.0212775000000
-0.0212134000000
-0.0212687000000
-0.0214522000000
-0.0217513000000
-0.0221003000000
-0.0223784000000
-0.0223989000000
-0.0220086000000
-0.0212718000000
-0.0204130000000
-0.0196448000000
-0.0190907000000
-0.0187690000000
-0.0186260000000
-0.0185978000000
-0.0187171000000
-0.0190256000000
-0.0194331000000
-0.0197829000000
-0.0199641000000
-0.0199427000000
-0.0197270000000
-0.0192704000000
-0.0185512000000
-0.0176853000000
-0.0167840000000
-0.0158541000000
-0.0149392000000
-0.0141486000000
-0.0135554000000
-0.0131166000000
-0.0126589000000
-0.0120266000000
-0.0111857000000
-0.0101482000000
-0.0089321700000
-0.0075799800000
-0.0061745900000
-0.0048361800000
-0.0036654500000
-0.0026957300000
-0.0018991100000
-0.0012261800000
-0.0006695010000
-0.0002489610000
0.0000333027000
0.0002000970000
0.0002892850000
0.0003399120000
0.0003820790000
0.0004328520000
0.0004968500000
0.0005707530000
0.0006467610000
0.0007187860000
0.0007831680000
0.0008396300000
0.0008968030000
0.0010175000000
0.0013327500000
0.0019201400000
0.0027385900000
0.0037311400000
0.0048801000000
0.0062016900000
0.0076358800000
0.0089754700000
0.0100384000000
0.0107959000000
0.0113306000000
0.0117475000000
0.0120948000000
0.0123972000000
0.0127075000000
0.0130435000000
0.0133598000000
0.0135989000000
0.0137295000000
0.0137514000000
0.0136610000000
0.0134285000000
0.0130298000000
0.0124924000000
0.0119702000000
0.0116521000000
0.0115911000000
0.0117162000000
0.0119309000000
0.0122720000000
0.0128773000000
0.0136995000000
0.0145147000000
0.0151285000000
0.0154508000000
0.0154876000000
0.0152129000000
0.0145746000000
0.0135898000000
0.0124133000000
0.0112953000000
0.0104017000000
0.0097794700000
0.0094737800000
0.0094816500000
0.0096932300000
0.0099583000000
0.0101597000000
0.0102426000000
0.0102111000000
0.0101054000000
0.0099808400000
0.0099208800000
0.0100797000000
0.0105995000000
0.0115049000000
0.0126665000000
0.0138743000000
0.0149568000000
0.0158320000000
0.0164993000000
0.0169653000000
0.0172314000000
0.0173207000000
0.0172459000000
0.0169916000000
0.0165513000000
0.0159695000000
0.0153554000000
0.0147958000000
0.0142864000000
0.0137738000000
0.0132078000000
0.0125599000000
0.0117945000000
0.0108847000000
0.0099698500000
0.0092691700000
0.0088286300000
0.0085702100000
0.0084277800000
0.0084084600000
0.0085370300000
0.0087765200000
0.0091111800000
0.0095906300000
0.0101242000000
0.0104895000000
0.0105255000000
0.0102290000000
0.0097426500000
0.0092468900000
0.0088740600000
0.0086759700000
0.0086346500000
0.0086982200000
0.0088552300000
0.0091328700000
0.0095399500000
0.0100231000000
0.0104895000000
0.0109500000000
0.0114622000000
0.0119342000000
0.0122569000000
0.0124656000000
0.0126729000000
0.0129764000000
0.0134240000000
0.0140455000000
0.0148547000000
0.0157413000000
0.0165054000000
0.0169992000000
0.0171453000000
0.0169268000000
0.0163833000000
0.0155410000000
0.0143133000000
0.0128036000000
0.0114648000000
0.0107351000000
0.0108076000000
0.0116731000000
0.0130805000000
0.0145820000000
0.0158138000000
0.0166043000000
0.0168790000000
0.0166829000000
0.0162038000000
0.0156635000000
0.0151884000000
0.0147242000000
0.0141557000000
0.0134524000000
0.0126988000000
0.0120122000000
0.0114212000000
0.0108764000000
0.0103157000000
0.0096975600000
0.0090105600000
0.0082676600000
0.0074941400000
0.0067231600000
0.0060229400000
0.0054649900000
0.0050262700000
0.0045858900000
0.0039960600000
0.0031984000000
0.0022673300000
0.0013764700000
0.0007260930000
0.0004583700000
0.0005736760000
0.0009468790000
0.0015144300000
0.0022669000000
0.0031386400000
0.0040308700000
0.0048599500000
0.0055291600000
0.0059155100000
0.0058893800000
0.0054514100000
0.0047758500000
0.0039892600000
0.0031449300000
0.0023528700000
0.0017086700000
0.0012083500000
0.0008315800000
0.0005769590000
0.0004338410000
0.0003759440000
0.0003700350000
0.0003831300000
0.0003589890000
0.0001677950000
-0.0002668290000
-0.0008487310000
-0.0014074200000
-0.0018259000000
-0.0021136000000
-0.0023362800000
-0.0025186700000
-0.0026538600000
-0.0027484800000
-0.0028584400000
-0.0029819300000
-0.0029563300000
-0.0025880700000
-0.0017926500000
-0.0006188790000
0.0007518820000
0.0020417500000
0.0030476700000
0.0037460900000
0.0042283100000
0.0045772700000
0.0047749200000
0.0047935200000
0.0046806600000
0.0045164700000
0.0043472400000
0.0041471700000
0.0038922100000
0.0036173400000
0.0033805300000
0.0032404100000
0.0032748300000
0.0035754100000
0.0042086500000
0.0051721100000
0.0063561200000
0.0075278200000
0.0084749200000
0.0091328500000
0.0094686100000
0.0094287300000
0.0089734200000
0.0081448200000
0.0070978900000
0.0060171900000
0.0050502500000
0.0043131100000
0.0038669200000
0.0036863000000
0.0036891100000
0.0037982100000
0.0040501600000
0.0045214500000
0.0052039900000
0.0060820100000
0.0071844700000
0.0084508300000
0.0097051000000
0.0107382000000
0.0114037000000
0.0116869000000
0.0117055000000
0.0116493000000
0.0116104000000
0.0115545000000
0.0115035000000
0.0115545000000
0.0117751000000
0.0121752000000
0.0127078000000
0.0132703000000
0.0137321000000
0.0140060000000
0.0140755000000
0.0139854000000
0.0138070000000
0.0136106000000
0.0134428000000
0.0133228000000
0.0132447000000
0.0131905000000
0.0131343000000
0.0130190000000
0.0127116000000
0.0120836000000
0.0111136000000
0.0099519100000
0.0088565300000
0.0080361900000
0.0075709000000
0.0074185100000
0.0074653000000
0.0075834700000
0.0076740300000
0.0076794900000
0.0075446300000
0.0072350900000
0.0068039300000
0.0063089800000
0.0057189400000
0.0051339200000
0.0048859700000
0.0052321800000
0.0061579400000
0.0073761100000
0.0085424900000
0.0095110900000
0.0102665000000
0.0107883000000
0.0110657000000
0.0111356000000
0.0110670000000
0.0109203000000
0.0106899000000
0.0103098000000
0.0096941200000
0.0087955600000
0.0076290600000
0.0062204900000
0.0046267500000
0.0030739700000
0.0018903900000
0.0013545400000
0.0015808000000
0.0024625400000
0.0036798400000
0.0048304000000
0.0056267100000
0.0059705100000
0.0059343900000
0.0057074700000
0.0055262600000
0.0055699700000
0.0059025500000
0.0064717400000
0.0071494300000
0.0077731300000
0.0082408000000
0.0085752600000
0.0088323200000
0.0090230400000
0.0091386900000
0.0091789400000
0.0091573800000
0.0090954400000
0.0089970700000
0.0087363200000
0.0080602700000
0.0068521800000
0.0052515700000
0.0035999000000
0.0022408200000
0.0013032800000
0.0007195270000
0.0003209760000
-0.0001022050000
-0.0007135750000
-0.0014301800000
-0.0020409300000
-0.0024738500000
-0.0027676700000
-0.0029491800000
-0.0029832000000
-0.0028246200000
-0.0025837800000
-0.0024490700000
-0.0024875900000
-0.0026194600000
-0.0026890000000
-0.0025642300000
-0.0021944000000
-0.0016127200000
-0.0009405170000
-0.0003884830000
-0.0001221270000
-0.0001478360000
-0.0003623500000
-0.0006431930000
-0.0009481260000
-0.0013233000000
-0.0018539600000
-0.0025459400000
-0.0032641000000
-0.0038018100000
-0.0040022400000
-0.0038744200000
-0.0035574400000
-0.0031992500000
-0.0028292500000
-0.0023465800000
-0.0017319800000
-0.0011311100000
-0.0008093170000
-0.0009283230000
-0.0013319500000
-0.0017841000000
-0.0022078500000
-0.0026283400000
-0.0030699000000
-0.0034977900000
-0.0038659500000
-0.0041993000000
-0.0045625100000
-0.0049991900000
-0.0054737300000
-0.0058956000000
-0.0061880900000
-0.0063007000000
-0.0061891800000
-0.0058381000000
-0.0052900900000
-0.0046649100000
-0.0040979600000
-0.0036212800000
-0.0032066700000
-0.0028619400000
-0.0025676700000
-0.0022360900000
-0.0018072500000
-0.0012993300000
-0.0007943080000
-0.0003616930000
0.0000029298800
0.0002838400000
0.0004093120000
0.0004069880000
0.0019055100000
0.0019413900000
0.0020045600000
0.0019971600000
0.0018987500000
0.0018071600000
0.0017964200000
0.0018595700000
0.0019449500000
0.0019336100000
0.0016439800000
0.0010692700000
0.0004321850000
-0.0001791720000
-0.0008498110000
-0.0015602300000
-0.0021872200000
-0.0026330900000
-0.0028699700000
-0.0029328700000
-0.0028911100000
-0.0028318300000
-0.0028645300000
-0.0030540200000
-0.0033581200000
-0.0036791800000
-0.0039237300000
-0.0039895900000
-0.0037976300000
-0.0033559100000
-0.0028107000000
-0.0023934200000
-0.0022348600000
-0.0023624300000
-0.0027963200000
-0.0034320000000
-0.0040169100000
-0.0044086400000
-0.0046706100000
-0.0049861500000
-0.0054443500000
-0.0059736200000
-0.0065902400000
-0.0073784400000
-0.0082808800000
-0.0090748000000
-0.0095141500000
-0.0096217800000
-0.0096191000000
-0.0096532800000
-0.0097239800000
-0.0097407500000
-0.0096083700000
-0.0092585200000
-0.0086364900000
-0.0077276100000
-0.0065854900000
-0.0053514900000
-0.0042339100000
-0.0034631400000
-0.0031788700000
-0.0033350200000
-0.0036599200000
-0.0038798100000
-0.0039967400000
-0.0041134800000
-0.0042433200000
-0.0043564200000
-0.0044589000000
-0.0046162100000
-0.0048640400000
-0.0051522100000
-0.0054056600000
-0.0055932000000
-0.0057646400000
-0.0060004400000
-0.0063527500000
-0.0068281400000
-0.0073984300000
-0.0080130400000
-0.0085882400000
-0.0090316400000
-0.0093384500000
-0.0095637800000
-0.0097336900000
-0.0098784400000
-0.0100549000000
-0.0102591000000
-0.0104091000000
-0.0103948000000
-0.0101738000000
-0.0098100100000
-0.0094115600000
-0.0090904600000
-0.0089427500000
-0.0089503500000
-0.0089703200000
-0.0088985200000
-0.0087243800000
-0.0084853000000
-0.0082307600000
-0.0079925100000
-0.0077376200000
-0.0074163400000
-0.0070415800000
-0.0066343100000
-0.0061775000000
-0.0056482800000
-0.0050631300000
-0.0044973700000
-0.0040372500000
-0.0037253700000
-0.0035594100000
-0.0035432700000
-0.0037354900000
-0.0041314800000
-0.0046017300000
-0.0049886100000
-0.0051519800000
-0.0049663400000
-0.0044348100000
-0.0037221400000
-0.0029850500000
-0.0022975100000
-0.0016746200000
-0.0010979900000
-0.0005368330000
0.0000334798000
0.0006047760000
0.0011237600000
0.0015625500000
0.0019498600000
0.0022899700000
0.0025541900000
0.0027251900000
0.0028084100000
0.0028450500000
0.0029644400000
0.0032790500000
0.0037421000000
0.0042161700000
0.0045804400000
0.0047756000000
0.0047836500000
0.0045909200000
0.0041684600000
0.0035070300000
0.0026802400000
0.0018153000000
0.0010205700000
0.0003878390000
-0.0000107590000
-0.0001234910000
0.0000342940000
0.0003575650000
0.0007448850000
0.0011435700000
0.0014994000000
0.0017837400000
0.0020407300000
0.0023757400000
0.0028706400000
0.0034782700000
0.0041339500000
0.0048855900000
0.0057841700000
0.0067953600000
0.0078095500000
0.0087324600000
0.0095441300000
0.0102103000000
0.0106778000000
0.0109655000000
0.0111300000000
0.0111973000000
0.0111386000000
0.0109075000000
0.0104945000000
0.0099565900000
0.0094028000000
0.0089362300000
0.0086363600000
0.0085893500000
0.0088026900000
0.0091491900000
0.0094631800000
0.0096295200000
0.0096090200000
0.0094027000000
0.0090166900000
0.0084419000000
0.0077020600000
0.0069192700000
0.0062460400000
0.0057781000000
0.0055637900000
0.0055903300000
0.0057659900000
0.0060188000000
0.0063443800000
0.0066924500000
0.0069625600000
0.0070882100000
0.0070583100000
0.0069087100000
0.0066904500000
0.0064209700000
0.0060501800000
0.0055627800000
0.0050464300000
0.0046785100000
0.0046086900000
0.0048479500000
0.0053257200000
0.0059596700000
0.0066721100000
0.0073826000000
0.0080068300000
0.0084872000000
0.0088175600000
0.0090295200000
0.0091565500000
0.0091940900000
0.0090747400000
0.0087218500000
0.0081751700000
0.0075659700000
0.0070084300000
0.0065167500000
0.0060094200000
0.0053974500000
0.0046604300000
0.0038832800000
0.0031733200000
0.0025710000000
0.0020593400000
0.0016043500000
0.0012025300000
0.0008716550000
0.0006192440000
0.0004362090000
0.0002976870000
0.0001482840000
-0.0000749015000
-0.0004001480000
-0.0008011730000
-0.0011985900000
-0.0014671900000
-0.0015006700000
-0.0013222900000
-0.0010421000000
-0.0007503640000
-0.0005107370000
-0.0003757890000
-0.0003928400000
-0.0005856840000
-0.0009322030000
-0.0013635000000
-0.0017827300000
-0.0021114700000
-0.0023130500000
-0.0023698600000
-0.0022821300000
-0.0020829900000
-0.0018398100000
-0.0016283400000
-0.0014521600000
-0.0012580000000
-0.0010235900000
-0.0007935190000
-0.0006539600000
-0.0006360570000
-0.0006902320000
-0.0007686040000
-0.0008530090000
-0.0009399650000
-0.0010313900000
-0.0011232900000
-0.0011677900000
-0.0011092700000
-0.0009690110000
-0.0008108030000
-0.0006704540000
-0.0005526780000
-0.0004524310000
-0.0003855370000
-0.0003785310000
-0.0004440260000
-0.0005900500000
-0.0008262460000
-0.0011504000000
-0.0015363700000
-0.0019282900000
-0.0022669800000
-0.0025218300000
-0.0026942300000
-0.0028043100000
-0.0028594900000
-0.0028638500000
-0.0028489400000
-0.0028690600000
-0.0029739100000
-0.0031671500000
-0.0034077100000
-0.0036457800000
-0.0038460400000
-0.0039955900000
-0.0041003700000
-0.0041771200000
-0.0042451300000
-0.0043262400000
-0.0044518500000
-0.0046577600000
-0.0049689800000
-0.0053848200000
-0.0058732100000
-0.0063718200000
-0.0068079400000
-0.0071268600000
-0.0073215100000
-0.0074317300000
-0.0074951500000
-0.0075248600000
-0.0075122400000
-0.0074534800000
-0.0073678700000
-0.0072828500000
-0.0072178000000
-0.0071800300000
-0.0071732700000
-0.0072054900000
-0.0072719300000
-0.0073497800000
-0.0074263200000
-0.0074970000000
-0.0075361300000
-0.0075181900000
-0.0074486300000
-0.0073529400000
-0.0072577800000
-0.0071802800000
-0.0071260800000
-0.0070888500000
-0.0070420200000
-0.0069494800000
-0.0068289300000
-0.0067451400000
-0.0067400000000
-0.0068137100000
-0.0069394400000
-0.0070744300000
-0.0071746600000
-0.0072137100000
-0.0071890800000
-0.0071155700000
-0.0070096700000
-0.0068790400000
-0.0067268100000
-0.0065593200000
-0.0063949400000
-0.0062591900000
-0.0061744400000
-0.0061502500000
-0.0061782500000
-0.0062387600000
-0.0063071000000
-0.0063563800000
-0.0063743100000
-0.0063757000000
-0.0063741500000
-0.0063647200000
-0.0063360200000
-0.0062816800000
-0.0062026500000
-0.0061053800000
-0.0059981700000
-0.0058884900000
-0.0057838000000
-0.0057016800000
-0.0056554100000
-0.0056326300000
-0.0056076000000
-0.0055598400000
-0.0054814200000
-0.0053773400000
-0.0052648500000
-0.0051634700000
-0.0050822500000
-0.0050075400000
-0.0049109500000
-0.0047813900000
-0.0046299500000
-0.0044741100000
-0.0043280400000
-0.0041991600000
-0.0040919000000
-0.0040082400000
-0.0039455000000
-0.0038987300000
-0.0038642600000
-0.0038334600000
-0.0037922800000
-0.0037368200000
-0.0036731200000
-0.0036014600000
-0.0035168700000
-0.0034168000000
-0.0033028200000
-0.0031793800000
-0.0030518200000
-0.0029245600000
-0.0028003300000
-0.0026800100000
-0.0025628400000
-0.0024449400000
-0.0023211200000
-0.0021890000000
-0.0020510400000
-0.0019143200000
-0.0017861900000
-0.0016703700000
-0.0015666300000
-0.0014726400000
-0.0013872300000
-0.0013099200000
-0.0012389100000
-0.0011699700000
-0.0010976600000
-0.0010185200000
-0.0009321550000
-0.0008407940000
-0.0007487620000
-0.0006612220000
-0.0005815480000
-0.0005104400000
-0.0004474800000
-0.0003899920000
-0.0003320340000
-0.0002698050000
-0.0002040360000
-0.0001349880000
-0.0000618142000
0.0000144698000
0.0000921351000
0.0001705640000
0.0002497850000
0.0003296350000
0.0004095720000
0.0004884400000
0.0005644830000
0.0006368760000
0.0007065420000
0.0007749820000
0.0008432670000
0.0009116910000
0.0009799260000
0.0010473100000
0.0011131700000
0.0011770300000
0.0012387100000
0.0012984800000
0.0013571000000
0.0014146400000
0.0014700100000
0.0015224100000
0.0015719600000
0.0016188300000
0.0016631200000
0.0017051900000
0.0017458600000
0.0017860100000
0.0018255500000
0.0018640700000
0.0019023700000
0.0019413700000
0.0019808000000
0.0020200500000
0.0020586500000
0.0020957000000
0.0021301900000
0.0021616400000
0.0021901600000
0.0022162900000
0.0022406500000
0.0022637300000
0.0022856700000
0.0023063800000
0.0023258500000
0.0023442200000
0.0023617200000
0.0023785300000
0.0023946000000
0.0024096600000
0.0024235600000
0.0024365200000
0.0024487200000
0.0024602100000
0.0024709600000
0.0024808900000
0.0024898400000
0.0024976900000
0.0025043700000
0.0025099100000
0.0025143900000
0.0025178300000
0.0025203100000
0.0025219500000
0.0025229000000
0.0025231900000
0.0025228200000
0.0025217100000
0.0025198300000
0.0025171600000
0.0025137200000
0.0025095700000
0.0025047600000
0.0024993000000
0.0024931700000
0.0024863600000
0.0024788600000
0.0024706700000
0.0024618100000
0.0024523000000
0.0024421600000
0.0024314200000
0.0024200800000
0.0024081600000
0.0023956700000
0.0023826100000
0.0023690100000
0.0023548800000
0.0023402100000
0.0023250300000
0.0023093400000
0.0022931500000
0.0022764600000
0.0022593000000
0.0022416500000
0.0022235300000
0.0022049600000
0.0021859300000
0.0021664500000
0.0021465400000
0.0000000000000
0.0000000000000
0.0000000000000
