0.0014839100000
0.0018651600000
0.0021199500000
0.0018904900000
0.0019626900000
0.0018748000000
0.0019551400000
0.0025672300000
0.0033464700000
0.0037339500000
0.0035567900000
0.0020539700000
-0.0002683320000
-0.0012778200000
-0.0007217880000
0.0006277310000
0.0033102900000
0.0058444500000
0.0049637500000
0.0027649400000
0.0019052600000
0.0025802700000
0.0052542600000
0.0074096600000
0.0066227100000
0.0034330500000
-0.0012392200000
-0.0086541400000
-0.0147095000000
-0.0115623000000
-0.0037163000000
0.0011462600000
0.0026105000000
0.0008188220000
-0.0020900100000
-0.0010696200000
0.0057553500000
0.0133530000000
0.0118899000000
0.0011020500000
-0.0063290000000
-0.0064808900000
-0.0020340300000
0.0028339600000
-0.0019169300000
-0.0118141000000
-0.0157685000000
-0.0149942000000
-0.0110760000000
-0.0072385400000
-0.0068433000000
-0.0071807600000
-0.0057752000000
-0.0012128600000
0.0036144600000
0.0043607400000
-0.0010469000000
-0.0085643800000
-0.0062981300000
0.0046712300000
0.0112108000000
0.0126854000000
0.0103167000000
0.0037756800000
0.0006395420000
-0.0017014000000
-0.0070185000000
-0.0074177200000
-0.0041057600000
-0.0041550300000
-0.0034911100000
0.0007908050000
-0.0017518900000
-0.0138579000000
-0.0215912000000
-0.0168012000000
-0.0072806300000
-0.0023822200000
0.0021273500000
0.0086634300000
0.0114656000000
0.0118098000000
0.0132018000000
0.0121128000000
0.0073052200000
0.0044549400000
0.0037374800000
0.0041707700000
0.0079257800000
0.0107719000000
0.0062630900000
-0.0030878400000
-0.0097453100000
-0.0041469900000
0.0125266000000
0.0235854000000
0.0171063000000
-0.0021920100000
-0.0124893000000
-0.0160898000000
-0.0232604000000
-0.0169319000000
-0.0058978100000
-0.0078016200000
-0.0136027000000
-0.0139055000000
0.0020973700000
0.0238180000000
0.0329197000000
0.0406406000000
0.0381229000000
0.0210766000000
0.0124786000000
0.0063030600000
0.0001562550000
0.0062914300000
0.0159153000000
0.0212792000000
0.0226517000000
0.0134017000000
0.0009424960000
-0.0034955200000
-0.0084470600000
-0.0175009000000
-0.0159016000000
0.0000825434000
0.0099558800000
0.0149950000000
0.0220104000000
0.0141993000000
0.0007671060000
-0.0032822400000
-0.0044010900000
-0.0027598800000
-0.0021919100000
-0.0027669000000
-0.0029053700000
-0.0168605000000
-0.0407494000000
-0.0510439000000
-0.0490514000000
-0.0453780000000
-0.0390129000000
-0.0314573000000
-0.0167441000000
-0.0043161800000
-0.0054355500000
0.0062258800000
0.0347577000000
0.0508429000000
0.0542553000000
0.0554017000000
0.0546892000000
0.0569942000000
0.0605536000000
0.0666453000000
0.0625831000000
0.0383199000000
0.0042594500000
-0.0589412000000
-0.1174520000000
-0.1091190000000
-0.0768339000000
-0.0595135000000
-0.0190848000000
0.0489461000000
0.0823032000000
0.0651791000000
0.0455523000000
0.0376872000000
0.0259643000000
0.0228020000000
0.0381834000000
0.0368893000000
0.0073837000000
-0.0146223000000
-0.0212712000000
-0.0159196000000
0.0093678200000
0.0497119000000
0.0881972000000
0.0796586000000
0.0256672000000
-0.0625323000000
-0.1741790000000
-0.1711240000000
-0.0761793000000
-0.0381841000000
0.0033194700000
0.0574519000000
0.0411120000000
-0.0003361640000
-0.0064565400000
0.0103494000000
0.0356126000000
0.0552668000000
0.0588879000000
0.0403677000000
0.0047215500000
-0.0183713000000
-0.0320792000000
-0.0271136000000
-0.0040280500000
-0.0001153060000
-0.0005544840000
0.0080878900000
0.0106566000000
0.0008215710000
-0.0263207000000
-0.0572580000000
-0.0761398000000
-0.0859054000000
-0.0755704000000
-0.0456721000000
-0.0124100000000
0.0438412000000
0.1055420000000
0.0976553000000
0.0204959000000
-0.0637467000000
-0.1108340000000
-0.1050330000000
-0.0838142000000
-0.0722196000000
-0.0632132000000
-0.0314134000000
0.0076098400000
-0.0058510500000
-0.0326977000000
-0.0307302000000
-0.0352377000000
-0.0264222000000
0.0118564000000
0.0342329000000
0.0522591000000
0.0785560000000
0.0857406000000
0.0867785000000
0.0943068000000
0.0967480000000
0.0936403000000
0.0921231000000
0.0804925000000
0.0380270000000
-0.0247787000000
-0.0866362000000
-0.1035880000000
-0.0658431000000
-0.0511323000000
-0.0516424000000
-0.0292599000000
-0.0459226000000
-0.0850006000000
-0.0881061000000
-0.0739163000000
-0.0555822000000
-0.0295950000000
0.0156392000000
0.0435457000000
0.0320387000000
0.0295614000000
0.0283678000000
0.0213410000000
0.0331665000000
0.0487189000000
0.0542925000000
0.0540387000000
0.0408563000000
0.0187503000000
0.0099299900000
0.0274133000000
0.0483808000000
0.0528351000000
0.0514420000000
-0.0359250000000
-0.1624910000000
-0.1631240000000
-0.1477250000000
-0.1696720000000
-0.1436820000000
-0.0988729000000
-0.0316523000000
0.0644512000000
0.1426390000000
0.1680910000000
0.1408380000000
0.0969416000000
0.0635524000000
-0.0035222000000
-0.0579709000000
-0.0146309000000
0.0268201000000
0.0297337000000
0.0297397000000
0.0021585900000
-0.0314275000000
-0.0568256000000
-0.0622067000000
-0.0423037000000
-0.0312480000000
-0.0253328000000
-0.0142178000000
-0.0163479000000
-0.0222989000000
-0.0147813000000
0.0017259900000
0.0247962000000
0.0499715000000
0.0689733000000
0.0722111000000
0.0456011000000
-0.0253571000000
-0.0962324000000
-0.0881412000000
-0.0221442000000
0.0438471000000
0.0946220000000
0.1212650000000
0.1235010000000
0.1047640000000
0.0583586000000
-0.0352682000000
-0.1069110000000
-0.1004890000000
-0.0896155000000
-0.0702339000000
-0.0178959000000
0.0067259800000
-0.0063363800000
-0.0185186000000
-0.0325905000000
-0.0543823000000
-0.0606651000000
-0.0458850000000
-0.0306893000000
-0.0094040100000
0.0301824000000
0.0439121000000
0.0311975000000
0.0436711000000
0.0675637000000
0.0552004000000
0.0181592000000
-0.0153214000000
-0.0650446000000
-0.1067100000000
-0.0914624000000
-0.0565251000000
-0.0423463000000
-0.0211859000000
0.0189797000000
0.0625764000000
0.0972080000000
0.1037180000000
0.0905707000000
0.0775098000000
0.0714123000000
0.0511671000000
-0.0041494200000
-0.0388702000000
-0.0326585000000
-0.0337409000000
-0.0241713000000
0.0029501000000
0.0160486000000
0.0339609000000
0.0659741000000
0.0883501000000
0.0720586000000
0.0293687000000
0.0028408500000
-0.0358880000000
-0.0775126000000
-0.0687682000000
-0.0486098000000
-0.0442354000000
-0.0375963000000
-0.0199348000000
0.0170203000000
0.0454341000000
0.0432969000000
0.0348526000000
0.0266179000000
0.0174693000000
0.0126947000000
0.0125772000000
0.0034467600000
-0.0338104000000
-0.0697475000000
-0.0816767000000
-0.0729904000000
-0.0549182000000
-0.0160919000000
0.0572371000000
0.0759090000000
0.0212310000000
-0.0124668000000
-0.0453093000000
-0.1152770000000
-0.1347610000000
-0.0906000000000
-0.0663567000000
-0.0549667000000
-0.0063660300000
0.0360946000000
0.0075934500000
-0.0423666000000
-0.0737901000000
-0.1019690000000
-0.0911784000000
-0.0393444000000
0.0041268700000
0.0669201000000
0.1418330000000
0.1471680000000
0.1135170000000
0.1019870000000
0.0703811000000
-0.0160920000000
-0.1016570000000
-0.1368390000000
-0.1434710000000
-0.1493180000000
-0.1394920000000
-0.1192270000000
-0.1087970000000
-0.0815751000000
-0.0417655000000
-0.0230007000000
-0.0140248000000
-0.0065593600000
-0.0057790500000
0.0031532200000
0.0214361000000
0.0383850000000
0.0621157000000
0.0909492000000
0.1028970000000
0.0901243000000
0.0775196000000
0.0798776000000
0.0769965000000
0.0676206000000
0.0644858000000
0.0642739000000
0.0615860000000
0.0436727000000
0.0016206400000
-0.0239782000000
0.0020443200000
0.0325893000000
0.0544233000000
0.1051840000000
0.1437810000000
0.1397710000000
0.1223610000000
0.1064550000000
0.0840718000000
0.0410625000000
0.0168811000000
0.0272493000000
0.0206763000000
-0.0095564300000
-0.0315875000000
-0.0381996000000
-0.0466958000000
-0.0511572000000
-0.0386213000000
-0.0361375000000
-0.0700206000000
-0.1150800000000
-0.1350140000000
-0.1466610000000
-0.1399080000000
-0.0993561000000
-0.0652187000000
0.0135811000000
0.0886761000000
0.0284303000000
-0.0283086000000
-0.0145826000000
-0.0222512000000
-0.0101847000000
0.0187078000000
0.0236098000000
0.0308207000000
0.0408372000000
0.0477964000000
0.0489694000000
0.0339747000000
0.0197712000000
0.0259196000000
0.0509296000000
0.0681585000000
0.0475084000000
0.0010415400000
-0.0671923000000
-0.1146230000000
-0.0765370000000
-0.0177514000000
0.0172417000000
0.0343169000000
0.0208742000000
0.0124067000000
0.0170188000000
0.0223006000000
0.0317536000000
0.0272187000000
0.0091896100000
-0.0003499470000
-0.0045584300000
-0.0084469600000
-0.0020779000000
0.0109806000000
0.0225774000000
0.0301166000000
0.0198633000000
-0.0048227400000
-0.0306169000000
-0.0590809000000
-0.0678185000000
-0.0402509000000
-0.0045788100000
0.0229520000000
0.0449751000000
0.0334793000000
-0.0181527000000
-0.0628325000000
-0.0799485000000
-0.0733141000000
-0.0351942000000
0.0184674000000
0.0516513000000
0.0562279000000
0.0172596000000
-0.0546265000000
-0.0830651000000
-0.0619613000000
-0.0356493000000
0.0307817000000
0.1256910000000
0.1551270000000
0.1258760000000
0.0970500000000
0.0353913000000
-0.0531535000000
-0.0343764000000
0.0421872000000
0.0577566000000
0.0884728000000
0.1394100000000
0.1458780000000
0.1219790000000
0.1028830000000
0.0847393000000
0.0507054000000
0.0102277000000
-0.0261597000000
-0.0481254000000
-0.0602388000000
-0.0594871000000
-0.0336951000000
-0.0085434100000
0.0113735000000
0.0407199000000
0.0691141000000
0.0758505000000
0.0424507000000
0.0062181000000
-0.0077300800000
-0.0449666000000
-0.0844672000000
-0.0799953000000
-0.0818531000000
-0.0949649000000
-0.0730343000000
-0.0511756000000
-0.0312951000000
0.0520873000000
0.1222180000000
0.0839238000000
0.0448024000000
0.0378974000000
-0.0119520000000
-0.0522873000000
-0.0516826000000
-0.0395993000000
-0.0076160600000
0.0179404000000
0.0331764000000
0.0602265000000
0.0729396000000
0.0606003000000
0.0428476000000
0.0326936000000
0.0237733000000
0.0030996800000
-0.0300178000000
-0.0557002000000
-0.0631822000000
-0.0593120000000
-0.0407584000000
-0.0198613000000
-0.0109449000000
0.0016056500000
0.0104340000000
-0.0073196800000
-0.0279519000000
-0.0298540000000
-0.0301363000000
-0.0250326000000
-0.0066106900000
0.0080944000000
0.0198619000000
0.0301902000000
0.0221783000000
0.0010400200000
-0.0114813000000
-0.0202757000000
-0.0312676000000
-0.0210655000000
0.0072458700000
0.0393083000000
0.0843203000000
0.1119630000000
0.1053160000000
0.0945845000000
0.0868749000000
0.0731978000000
0.0490070000000
0.0125667000000
-0.0596172000000
-0.1291180000000
-0.1324830000000
-0.1250050000000
-0.1206110000000
-0.0893970000000
-0.0545804000000
-0.0118032000000
0.0236545000000
0.0310997000000
0.0359766000000
0.0383699000000
0.0290401000000
0.0346484000000
0.0552903000000
0.0645331000000
0.0630774000000
0.0542887000000
0.0421547000000
0.0403618000000
0.0474993000000
0.0560603000000
0.0476604000000
0.0175612000000
-0.0036427400000
-0.0198284000000
-0.0422874000000
-0.0296486000000
0.0158376000000
0.0623982000000
0.0970295000000
0.0871349000000
0.0629495000000
0.0623798000000
0.0561656000000
0.0473009000000
0.0532769000000
0.0476698000000
0.0224225000000
0.0055693900000
-0.0122503000000
-0.0422049000000
-0.0542978000000
-0.0411041000000
-0.0243226000000
-0.0179198000000
-0.0123647000000
-0.0067344500000
-0.0168797000000
-0.0291810000000
-0.0327216000000
-0.0440592000000
-0.0615214000000
-0.0750516000000
-0.0893239000000
-0.1055820000000
-0.1089090000000
-0.0864410000000
-0.0625440000000
-0.0549835000000
-0.0496552000000
-0.0525141000000
-0.0639268000000
-0.0653340000000
-0.0548300000000
-0.0398750000000
-0.0258161000000
-0.0154215000000
-0.0280053000000
-0.0543957000000
-0.0611490000000
-0.0571465000000
-0.0446408000000
-0.0142467000000
0.0172991000000
0.0381020000000
0.0584195000000
0.0752941000000
0.0820083000000
0.0915007000000
0.1035940000000
0.1097590000000
0.1143290000000
0.1138620000000
0.1020250000000
0.0778169000000
0.0407050000000
0.0204839000000
0.0223595000000
0.0178386000000
0.0168128000000
0.0210495000000
0.0093028800000
-0.0125803000000
-0.0323323000000
-0.0548367000000
-0.0698503000000
-0.0765465000000
-0.0851311000000
-0.0800880000000
-0.0712248000000
-0.0747967000000
-0.0743216000000
-0.0707454000000
-0.0736634000000
-0.0703363000000
-0.0554693000000
-0.0358575000000
-0.0102270000000
0.0201364000000
0.0410752000000
0.0480303000000
0.0415426000000
0.0200978000000
-0.0027453800000
-0.0240097000000
-0.0364229000000
-0.0368481000000
-0.0387307000000
-0.0377738000000
-0.0425073000000
-0.0568958000000
-0.0639160000000
-0.0670821000000
-0.0759254000000
-0.0755277000000
-0.0613742000000
-0.0478508000000
-0.0192963000000
0.0232055000000
0.0404425000000
0.0330978000000
0.0186491000000
-0.0003364740000
-0.0133114000000
-0.0230149000000
-0.0278331000000
-0.0243004000000
-0.0294346000000
-0.0415231000000
-0.0503951000000
-0.0479197000000
-0.0276731000000
-0.0117946000000
-0.0059262400000
0.0051084100000
0.0095756900000
0.0051366000000
0.0081207700000
0.0139873000000
0.0140241000000
0.0092934100000
0.0025520900000
-0.0012262200000
-0.0048287000000
-0.0052106500000
0.0029342800000
0.0080789500000
0.0098755100000
0.0208101000000
0.0299992000000
0.0280641000000
0.0280089000000
0.0261952000000
0.0168616000000
0.0048122900000
-0.0089059100000
-0.0151263000000
-0.0143684000000
-0.0184977000000
-0.0198000000000
-0.0090332900000
0.0002945230000
0.0040599400000
0.0074019800000
-0.0006318460000
-0.0152158000000
-0.0242983000000
-0.0322372000000
-0.0368341000000
-0.0359928000000
-0.0305960000000
-0.0235456000000
-0.0228788000000
-0.0257657000000
-0.0182595000000
-0.0033308700000
0.0085954500000
0.0266515000000
0.0428959000000
0.0441917000000
0.0409648000000
0.0356010000000
0.0299864000000
0.0261727000000
0.0258693000000
0.0330002000000
0.0411249000000
0.0386608000000
0.0219543000000
0.0083339800000
-0.0132093000000
-0.0408918000000
-0.0396571000000
-0.0329996000000
-0.0389670000000
-0.0385271000000
-0.0291878000000
-0.0100779000000
0.0130631000000
0.0234256000000
0.0224922000000
0.0172145000000
0.0099571100000
0.0057516900000
0.0022032400000
0.0050015900000
0.0142038000000
0.0195655000000
0.0279642000000
0.0382994000000
0.0410339000000
0.0376878000000
0.0282443000000
0.0146379000000
0.0021575300000
-0.0056242900000
-0.0032322800000
0.0064159300000
0.0094697100000
0.0090074400000
0.0110041000000
0.0064475400000
-0.0003458540000
-0.0032958400000
-0.0084464800000
-0.0131988000000
-0.0153976000000
-0.0150383000000
-0.0079654500000
0.0006317270000
0.0062673900000
0.0095575100000
0.0098111400000
0.0084876400000
0.0080326700000
0.0087033600000
0.0082058500000
0.0060386700000
-0.0001263830000
-0.0075570500000
-0.0070302700000
-0.0058104400000
-0.0106117000000
-0.0133713000000
-0.0118397000000
-0.0098354000000
-0.0097448700000
-0.0121879000000
-0.0160829000000
-0.0200908000000
-0.0250821000000
-0.0262168000000
-0.0202199000000
-0.0165443000000
-0.0161981000000
-0.0121252000000
-0.0047627900000
0.0056025700000
0.0151657000000
0.0168140000000
0.0199514000000
0.0320583000000
0.0424148000000
0.0498467000000
0.0547209000000
0.0507226000000
0.0352719000000
0.0085330200000
-0.0066734100000
0.0053991600000
0.0169523000000
0.0140885000000
0.0109245000000
0.0047881300000
-0.0069901500000
-0.0166101000000
-0.0191880000000
-0.0147199000000
-0.0121864000000
-0.0132482000000
-0.0126239000000
-0.0126495000000
-0.0108989000000
-0.0049138000000
-0.0017905200000
-0.0012551100000
-0.0005368390000
-0.0036286700000
-0.0079873500000
-0.0106503000000
-0.0145332000000
-0.0164446000000
-0.0114224000000
-0.0048563400000
-0.0012523400000
0.0029394500000
0.0058307000000
0.0034101500000
-0.0005062840000
-0.0018126300000
-0.0032477000000
-0.0060920300000
-0.0079159100000
-0.0089256000000
-0.0106558000000
-0.0137990000000
-0.0170028000000
-0.0186153000000
-0.0198810000000
-0.0214616000000
-0.0229980000000
-0.0239153000000
-0.0210121000000
-0.0159617000000
-0.0110635000000
-0.0054345000000
-0.0047996300000
-0.0084982100000
-0.0104618000000
-0.0120720000000
-0.0145837000000
-0.0197134000000
-0.0252067000000
-0.0216164000000
-0.0133576000000
-0.0041420400000
0.0176985000000
0.0347715000000
0.0322355000000
0.0314692000000
0.0323344000000
0.0239052000000
0.0144688000000
0.0103808000000
0.0115399000000
0.0139250000000
0.0120382000000
0.0030263300000
-0.0099861900000
-0.0157402000000
-0.0162994000000
-0.0189803000000
-0.0177218000000
-0.0153819000000
-0.0183806000000
-0.0221277000000
-0.0238000000000
-0.0195997000000
-0.0102865000000
0.0040984100000
0.0238691000000
0.0301379000000
0.0301782000000
0.0383428000000
0.0391347000000
0.0355857000000
0.0405226000000
0.0499208000000
0.0571666000000
0.0609398000000
0.0575991000000
0.0478742000000
0.0343043000000
0.0166467000000
0.0096384400000
0.0159831000000
0.0219527000000
0.0249583000000
0.0235814000000
0.0191746000000
0.0120419000000
-0.0011625500000
-0.0123201000000
-0.0141153000000
-0.0138562000000
-0.0176068000000
-0.0202373000000
-0.0176825000000
-0.0146406000000
-0.0128044000000
-0.0079517600000
-0.0021940000000
0.0025478700000
0.0117227000000
0.0220193000000
0.0229469000000
0.0186009000000
0.0169063000000
0.0157554000000
0.0138897000000
0.0151713000000
0.0195576000000
0.0223401000000
0.0223422000000
0.0199370000000
0.0111865000000
-0.0031008200000
-0.0088302100000
-0.0031585500000
0.0028390400000
0.0083742900000
0.0161113000000
0.0187741000000
0.0151098000000
0.0167607000000
0.0228358000000
0.0251578000000
0.0247222000000
0.0228784000000
0.0125271000000
-0.0015278000000
-0.0060159000000
-0.0082115000000
-0.0096590800000
-0.0119127000000
-0.0256851000000
-0.0405105000000
-0.0420838000000
-0.0289627000000
-0.0138989000000
-0.0041441500000
0.0067377300000
0.0139439000000
0.0152824000000
0.0144297000000
0.0145525000000
0.0168256000000
0.0101145000000
-0.0129594000000
-0.0355772000000
-0.0403799000000
-0.0298873000000
-0.0129711000000
0.0002563820000
0.0052188700000
0.0062460800000
0.0085814900000
0.0081790700000
0.0053304700000
0.0065974900000
0.0074969700000
0.0055438400000
0.0028842600000
-0.0002376060000
0.0007774680000
0.0088643000000
0.0138296000000
0.0108334000000
0.0099534800000
0.0107370000000
0.0080135900000
0.0083004800000
0.0149182000000
0.0206196000000
0.0251981000000
0.0307519000000
0.0326286000000
0.0336052000000
0.0363365000000
0.0376254000000
0.0381142000000
0.0387413000000
0.0362782000000
0.0315231000000
0.0240360000000
0.0092541200000
-0.0004325660000
0.0020190900000
0.0000447289000
-0.0042971100000
0.0007981130000
0.0089934400000
0.0168453000000
0.0217952000000
0.0180233000000
0.0124228000000
0.0108014000000
0.0076106000000
0.0059423100000
0.0123026000000
0.0188173000000
0.0208677000000
0.0201812000000
0.0115283000000
-0.0014119000000
-0.0082597200000
-0.0097118300000
-0.0105307000000
-0.0106462000000
-0.0178907000000
-0.0320228000000
-0.0351491000000
-0.0345280000000
-0.0408647000000
-0.0413490000000
-0.0354511000000
-0.0311418000000
-0.0274000000000
-0.0242311000000
-0.0230897000000
-0.0230575000000
-0.0249652000000
-0.0297827000000
-0.0375489000000
-0.0449662000000
-0.0476692000000
-0.0492558000000
-0.0498778000000
-0.0468568000000
-0.0444893000000
-0.0429773000000
-0.0406128000000
-0.0387223000000
-0.0367357000000
-0.0322516000000
-0.0257149000000
-0.0228215000000
-0.0225185000000
-0.0221809000000
-0.0256557000000
-0.0306145000000
-0.0352860000000
-0.0337701000000
-0.0233373000000
-0.0188953000000
-0.0193195000000
-0.0186082000000
-0.0241884000000
-0.0312697000000
-0.0343009000000
-0.0343559000000
-0.0292235000000
-0.0215446000000
-0.0151665000000
-0.0110847000000
-0.0099341800000
-0.0123479000000
-0.0165501000000
-0.0191562000000
-0.0229006000000
-0.0260142000000
-0.0236178000000
-0.0206325000000
-0.0203546000000
-0.0189743000000
-0.0153646000000
-0.0118720000000
-0.0097333200000
-0.0080399200000
-0.0053838900000
-0.0021976100000
-0.0001180110000
0.0006477270000
0.0018454100000
0.0033099600000
0.0041073300000
0.0034618500000
0.0003048010000
-0.0031603400000
-0.0050129200000
-0.0062415900000
-0.0046418700000
0.0012577700000
0.0066760100000
0.0120280000000
0.0198151000000
0.0240796000000
0.0242513000000
0.0265860000000
0.0300598000000
0.0308174000000
0.0286475000000
0.0265969000000
0.0255954000000
0.0242170000000
0.0247242000000
0.0260152000000
0.0263389000000
0.0280871000000
0.0300835000000
0.0299620000000
0.0260307000000
0.0163708000000
0.0071283100000
0.0056111700000
0.0077904800000
0.0085631600000
0.0082624300000
0.0089349800000
0.0100830000000
0.0093250800000
0.0080153400000
0.0081402000000
0.0103797000000
0.0137064000000
0.0155101000000
0.0172965000000
0.0197621000000
0.0179411000000
0.0137634000000
0.0093435400000
-0.0006701320000
-0.0088512600000
-0.0114755000000
-0.0172753000000
-0.0223523000000
-0.0250682000000
-0.0250223000000
-0.0178367000000
-0.0120586000000
-0.0062460800000
0.0015839500000
0.0020644200000
0.0033707700000
0.0121703000000
0.0207741000000
0.0268044000000
0.0312298000000
0.0338387000000
0.0369165000000
0.0400901000000
0.0402914000000
0.0392063000000
0.0395937000000
0.0403313000000
0.0404232000000
0.0406819000000
0.0405064000000
0.0376744000000
0.0329097000000
0.0279853000000
0.0265697000000
0.0329784000000
0.0393939000000
0.0415903000000
0.0429500000000
0.0393027000000
0.0304684000000
0.0190423000000
0.0105638000000
0.0078531800000
0.0018442900000
-0.0059618400000
-0.0083711400000
-0.0076551100000
-0.0074354900000
-0.0088857700000
-0.0123147000000
-0.0169545000000
-0.0197439000000
-0.0193117000000
-0.0158977000000
-0.0122340000000
-0.0111884000000
-0.0098359600000
-0.0086106900000
-0.0105388000000
-0.0122504000000
-0.0121764000000
-0.0118050000000
-0.0107689000000
-0.0101309000000
-0.0094335500000
-0.0063566400000
0.0003564650000
0.0089821500000
0.0171364000000
0.0266377000000
0.0286928000000
0.0202509000000
0.0172563000000
0.0148280000000
0.0055487200000
0.0016262000000
0.0021311700000
0.0005849710000
-0.0001662030000
0.0012869500000
0.0036227900000
0.0055879500000
0.0074521000000
0.0100554000000
0.0125942000000
0.0143647000000
0.0160764000000
0.0174776000000
0.0169219000000
0.0157782000000
0.0159006000000
0.0166441000000
0.0180177000000
0.0190725000000
0.0162846000000
0.0099498800000
0.0006511750000
-0.0148839000000
-0.0263005000000
-0.0250223000000
-0.0195690000000
-0.0129706000000
-0.0054288000000
-0.0008938960000
0.0001015820000
-0.0007434910000
-0.0021756600000
-0.0035854400000
-0.0056490900000
-0.0082075400000
-0.0105076000000
-0.0104828000000
-0.0060859600000
-0.0022075000000
-0.0027230700000
-0.0071102900000
-0.0144089000000
-0.0195995000000
-0.0213465000000
-0.0214696000000
-0.0186970000000
-0.0155919000000
-0.0146815000000
-0.0157495000000
-0.0189355000000
-0.0226489000000
-0.0258092000000
-0.0296664000000
-0.0304009000000
-0.0252124000000
-0.0213936000000
-0.0183586000000
-0.0133063000000
-0.0109030000000
-0.0112214000000
-0.0139435000000
-0.0181048000000
-0.0235236000000
-0.0271289000000
-0.0249841000000
-0.0243540000000
-0.0268308000000
-0.0287165000000
-0.0316346000000
-0.0340056000000
-0.0358748000000
-0.0364818000000
-0.0341367000000
-0.0315544000000
-0.0270233000000
-0.0215670000000
-0.0192532000000
-0.0180087000000
-0.0160289000000
-0.0141093000000
-0.0112485000000
-0.0064857500000
-0.0031697000000
-0.0022927400000
-0.0023388700000
-0.0049641400000
-0.0085987100000
-0.0132738000000
-0.0212396000000
-0.0266941000000
-0.0273041000000
-0.0255960000000
-0.0224565000000
-0.0198225000000
-0.0181153000000
-0.0201805000000
-0.0245920000000
-0.0263247000000
-0.0287926000000
-0.0334897000000
-0.0369977000000
-0.0391167000000
-0.0373529000000
-0.0320847000000
-0.0253366000000
-0.0142587000000
-0.0071026300000
-0.0066866400000
-0.0049641400000
-0.0034868800000
-0.0022554500000
0.0000437542000
0.0018019400000
0.0032792700000
0.0023024700000
-0.0008594320000
-0.0032413000000
-0.0053752900000
-0.0045480400000
-0.0007535110000
0.0007173500000
0.0017715700000
0.0049416500000
0.0079524100000
0.0096230600000
0.0100904000000
0.0088194300000
0.0069494100000
0.0060408900000
0.0062009900000
0.0087989600000
0.0134637000000
0.0172979000000
0.0177988000000
0.0169660000000
0.0177881000000
0.0184609000000
0.0189467000000
0.0204067000000
0.0214670000000
0.0222055000000
0.0220711000000
0.0196870000000
0.0172085000000
0.0153255000000
0.0139707000000
0.0147071000000
0.0151516000000
0.0127423000000
0.0099339000000
0.0092008500000
0.0090692300000
0.0108788000000
0.0151175000000
0.0194310000000
0.0242035000000
0.0265305000000
0.0260867000000
0.0253082000000
0.0246186000000
0.0253597000000
0.0260880000000
0.0251509000000
0.0220586000000
0.0185520000000
0.0166388000000
0.0160235000000
0.0191305000000
0.0246877000000
0.0292032000000
0.0322282000000
0.0318296000000
0.0281418000000
0.0247930000000
0.0225768000000
0.0185389000000
0.0136648000000
0.0106473000000
0.0094470100000
0.0090910100000
0.0086940400000
0.0091509900000
0.0114506000000
0.0158747000000
0.0193679000000
0.0209259000000
0.0222624000000
0.0201051000000
0.0140582000000
0.0083536600000
0.0065255200000
0.0067100900000
0.0036922600000
-0.0014135900000
-0.0067197800000
-0.0094093800000
-0.0075267300000
-0.0065732000000
-0.0051547800000
-0.0007853630000
0.0005284260000
-0.0005946580000
-0.0007559400000
-0.0006909830000
0.0018203900000
0.0060274200000
0.0089867200000
0.0116103000000
0.0102916000000
0.0006896230000
-0.0124942000000
-0.0202706000000
-0.0216983000000
-0.0196105000000
-0.0146877000000
-0.0086014400000
-0.0025498200000
-0.0030646900000
-0.0087713500000
-0.0129165000000
-0.0177022000000
-0.0212125000000
-0.0214437000000
-0.0203669000000
-0.0195884000000
-0.0198066000000
-0.0190293000000
-0.0145059000000
-0.0072329500000
0.0006219890000
0.0074194400000
0.0086854500000
0.0045025900000
0.0011485600000
0.0009236780000
-0.0002085000000
-0.0012728300000
-0.0004701010000
-0.0008429630000
-0.0015984800000
-0.0019169700000
-0.0026983100000
-0.0035940800000
-0.0046841400000
-0.0039892600000
-0.0006743460000
0.0013299300000
0.0042361600000
0.0096829600000
0.0114105000000
0.0105319000000
0.0102648000000
0.0096391400000
0.0093162100000
0.0088744200000
0.0076020900000
0.0046936500000
0.0006927440000
-0.0016327500000
-0.0029327500000
-0.0046021900000
-0.0025052800000
0.0030646400000
0.0075045400000
0.0159825000000
0.0251805000000
0.0277555000000
0.0276956000000
0.0225155000000
0.0121186000000
-0.0007558670000
-0.0129829000000
-0.0164875000000
-0.0112340000000
-0.0033578300000
0.0034047400000
0.0073466300000
0.0054148600000
0.0008116260000
-0.0007230230000
-0.0019680400000
-0.0024152900000
0.0030763700000
0.0083076200000
0.0093540900000
0.0111677000000
0.0095836900000
0.0019297400000
-0.0044804600000
-0.0066757600000
-0.0051678900000
-0.0002283780000
0.0065015500000
0.0125235000000
0.0114210000000
0.0045799900000
-0.0008873930000
-0.0038619100000
-0.0052848700000
-0.0067854200000
-0.0065248800000
-0.0040320500000
-0.0028598500000
-0.0040447100000
-0.0059795000000
-0.0066233600000
-0.0072784200000
-0.0082522400000
-0.0078873700000
-0.0080550700000
-0.0094459500000
-0.0100734000000
-0.0082292400000
-0.0031767500000
0.0024109300000
0.0060419300000
0.0085500500000
0.0082606100000
0.0034696100000
-0.0031553100000
-0.0089861700000
-0.0100685000000
-0.0078683000000
-0.0093084100000
-0.0129274000000
-0.0150755000000
-0.0166918000000
-0.0186619000000
-0.0206028000000
-0.0211097000000
-0.0182784000000
-0.0130552000000
-0.0098661700000
-0.0091277300000
-0.0071475100000
-0.0061504300000
-0.0095612200000
-0.0130396000000
-0.0140405000000
-0.0142807000000
-0.0109107000000
-0.0059876900000
-0.0046807000000
-0.0032620700000
-0.0029774400000
-0.0077896800000
-0.0133678000000
-0.0125681000000
-0.0047150100000
0.0015198900000
0.0059188200000
0.0118756000000
0.0142558000000
0.0105127000000
0.0041824100000
0.0006536190000
0.0005612670000
0.0023792300000
0.0046336400000
0.0056458700000
0.0051346700000
0.0029318700000
0.0012274900000
0.0019762300000
0.0043536500000
0.0055562400000
0.0055036200000
0.0064833700000
0.0076398900000
0.0082917100000
0.0091112500000
0.0084453500000
0.0055084900000
0.0014321300000
-0.0035265200000
-0.0060305700000
-0.0036138300000
-0.0009658870000
0.0005133180000
0.0053955000000
0.0091159600000
0.0058104800000
0.0021309400000
0.0011887400000
-0.0023960300000
-0.0067725900000
-0.0055022200000
-0.0024933800000
-0.0031205800000
-0.0038168600000
-0.0030834900000
-0.0023359900000
-0.0018442700000
-0.0019183100000
-0.0019680400000
-0.0008088210000
0.0019379500000
0.0045355200000
0.0037953500000
-0.0005211230000
-0.0051745200000
-0.0089071900000
-0.0098967400000
-0.0057455000000
-0.0011700800000
0.0021482500000
0.0101770000000
0.0164183000000
0.0163630000000
0.0174239000000
0.0145783000000
0.0065688900000
-0.0028864800000
-0.0167573000000
-0.0275956000000
-0.0267300000000
-0.0141670000000
0.0033802400000
0.0151311000000
0.0174635000000
0.0140652000000
0.0058784900000
-0.0041650800000
-0.0113708000000
-0.0147655000000
-0.0111818000000
-0.0050320800000
-0.0032701300000
-0.0016027000000
0.0013241700000
0.0025052300000
0.0024204900000
0.0003591850000
-0.0053791400000
-0.0108591000000
-0.0098646400000
-0.0049451900000
-0.0006185980000
0.0066843800000
0.0145882000000
0.0167012000000
0.0148569000000
0.0116094000000
0.0080468500000
0.0021720400000
-0.0038628600000
-0.0057733900000
-0.0064623400000
-0.0059196900000
-0.0010010700000
0.0066416800000
0.0105231000000
0.0101308000000
0.0086999300000
0.0028062800000
-0.0049959800000
-0.0093606500000
-0.0088089300000
-0.0025720200000
0.0062199200000
0.0138597000000
0.0162892000000
0.0145424000000
0.0126037000000
0.0085418800000
-0.0000067321700
-0.0046309100000
-0.0000728803000
0.0041114400000
0.0087186800000
0.0158132000000
0.0164612000000
0.0138475000000
0.0136623000000
0.0137263000000
0.0129170000000
0.0107300000000
0.0061318300000
0.0012287600000
-0.0010081500000
-0.0031480200000
-0.0091318500000
-0.0187529000000
-0.0261833000000
-0.0287500000000
-0.0298951000000
-0.0279913000000
-0.0235406000000
-0.0210002000000
-0.0180556000000
-0.0139434000000
-0.0095316700000
-0.0036241000000
0.0004086730000
0.0007710510000
-0.0014111200000
-0.0066081700000
-0.0099394200000
-0.0097492700000
-0.0102937000000
-0.0071409300000
-0.0009704500000
0.0011439700000
0.0007987990000
-0.0006598430000
-0.0028210500000
-0.0047045100000
-0.0051338100000
-0.0015815700000
0.0016678200000
0.0026227200000
0.0029162500000
-0.0001233190000
-0.0055385500000
-0.0106201000000
-0.0119542000000
-0.0087618000000
-0.0062951200000
-0.0042926900000
-0.0003353080000
0.0021882500000
0.0021482700000
0.0024108500000
0.0032322800000
0.0032646800000
0.0034135100000
0.0043571800000
0.0052972600000
0.0050920600000
0.0031125300000
0.0012511400000
0.0001115600000
-0.0003173050000
0.0013098300000
0.0033281100000
0.0054725600000
0.0103034000000
0.0181915000000
0.0251776000000
0.0254165000000
0.0210287000000
0.0170219000000
0.0097886700000
-0.0024977000000
-0.0119337000000
-0.0163306000000
-0.0220962000000
-0.0285373000000
-0.0282449000000
-0.0210878000000
-0.0115093000000
0.0015130100000
0.0114816000000
0.0112078000000
0.0100424000000
0.0143910000000
0.0183756000000
0.0205372000000
0.0204286000000
0.0151074000000
0.0086283300000
0.0054771900000
0.0054443400000
0.0068584900000
0.0078368700000
0.0072156800000
0.0062636600000
0.0073544000000
0.0114822000000
0.0164823000000
0.0199140000000
0.0203269000000
0.0176598000000
0.0156931000000
0.0133740000000
0.0075347100000
0.0025541200000
0.0002083950000
-0.0030739400000
-0.0039721500000
0.0003890950000
0.0037136700000
0.0059952300000
0.0097974500000
0.0123388000000
0.0126094000000
0.0092581600000
0.0058531500000
0.0065362400000
0.0071924500000
0.0058713600000
0.0055303500000
0.0034883900000
-0.0031696900000
-0.0084773500000
-0.0098743000000
-0.0083498300000
-0.0049651500000
-0.0031498900000
-0.0015342800000
0.0007562440000
0.0031024800000
0.0061698300000
0.0086825600000
0.0092937500000
0.0066528600000
0.0016490900000
-0.0031560200000
-0.0058247000000
-0.0053666000000
-0.0048820700000
-0.0078367700000
-0.0111387000000
-0.0084788200000
-0.0028707100000
-0.0003512980000
0.0034278400000
0.0061969200000
0.0025524900000
0.0001234100000
0.0001979360000
-0.0023000500000
-0.0043233900000
-0.0041930900000
-0.0044213800000
-0.0047487100000
-0.0056416600000
-0.0089079300000
-0.0127172000000
-0.0143277000000
-0.0125363000000
-0.0100117000000
-0.0093273500000
-0.0079766100000
-0.0064729900000
-0.0060224500000
-0.0049085000000
-0.0040824200000
-0.0041237000000
-0.0041257300000
-0.0053927400000
-0.0075769000000
-0.0093824500000
-0.0120284000000
-0.0137830000000
-0.0119622000000
-0.0084641300000
-0.0056525200000
-0.0046696900000
-0.0073635500000
-0.0107541000000
-0.0114077000000
-0.0132426000000
-0.0145317000000
-0.0097246200000
-0.0055702900000
-0.0057050800000
-0.0057996200000
-0.0074805500000
-0.0089288000000
-0.0058474300000
-0.0011881900000
0.0023486800000
0.0066670400000
0.0118136000000
0.0148233000000
0.0144713000000
0.0141235000000
0.0156395000000
0.0165043000000
0.0168425000000
0.0175907000000
0.0181869000000
0.0173662000000
0.0146911000000
0.0115966000000
0.0056611000000
-0.0027031700000
-0.0074505300000
-0.0096149100000
-0.0113919000000
-0.0127181000000
-0.0130057000000
-0.0085105200000
-0.0030622600000
-0.0011832700000
-0.0021308300000
-0.0053602400000
-0.0075610500000
-0.0075721400000
-0.0037275500000
0.0016127900000
0.0031762800000
0.0047064900000
0.0045310100000
0.0002817910000
-0.0023595000000
-0.0038113800000
-0.0058427600000
-0.0063378800000
-0.0043078600000
-0.0015885200000
0.0004832230000
0.0018572800000
-0.0003448600000
-0.0042503400000
-0.0061696700000
-0.0090601600000
-0.0127106000000
-0.0141423000000
-0.0146207000000
-0.0149466000000
-0.0123703000000
-0.0070782200000
-0.0028705900000
0.0009864360000
0.0045072400000
0.0048154300000
0.0053129000000
0.0071607400000
0.0062016300000
0.0035785400000
0.0014632500000
-0.0000713890000
-0.0007095130000
-0.0008365260000
-0.0012053100000
-0.0025390600000
-0.0050779000000
-0.0086790600000
-0.0115548000000
-0.0125342000000
-0.0112492000000
-0.0089330400000
-0.0059318600000
0.0012114600000
0.0075267300000
0.0092164800000
0.0082424200000
0.0041440100000
0.0011594900000
-0.0015693800000
-0.0026270600000
0.0034429100000
0.0080208600000
0.0085597400000
0.0123138000000
0.0138428000000
0.0090819800000
0.0046762600000
-0.0008610330000
-0.0084677600000
-0.0118287000000
-0.0104509000000
-0.0062933000000
-0.0000912434000
0.0081903100000
0.0135646000000
0.0130865000000
0.0143933000000
0.0176836000000
0.0191656000000
0.0184550000000
0.0137184000000
0.0093728600000
0.0054956800000
-0.0013027100000
-0.0036122100000
-0.0027447400000
-0.0059549300000
-0.0088246200000
-0.0101658000000
-0.0087713600000
-0.0008831380000
0.0087073500000
0.0152435000000
0.0177103000000
0.0146847000000
0.0087539300000
0.0056984600000
0.0073859000000
0.0121018000000
0.0139175000000
0.0135876000000
0.0147969000000
0.0121632000000
0.0074670100000
0.0053285000000
0.0037995800000
0.0042133600000
0.0054803100000
0.0052271500000
0.0048872800000
0.0018137200000
-0.0029375200000
-0.0056238400000
-0.0048074300000
0.0011861700000
0.0061604900000
0.0087947300000
0.0137853000000
0.0137887000000
0.0079262100000
0.0055828600000
0.0033218000000
-0.0008198080000
-0.0005063610000
0.0006512310000
-0.0011317700000
-0.0032573000000
-0.0056430400000
-0.0073248200000
-0.0079491100000
-0.0076696100000
-0.0056965700000
-0.0043729200000
-0.0033011200000
-0.0018209300000
-0.0037188600000
-0.0074597100000
-0.0090795200000
-0.0112512000000
-0.0123270000000
-0.0088469400000
-0.0062325300000
-0.0052215800000
-0.0024940400000
-0.0021740500000
-0.0047985900000
-0.0059309100000
-0.0059053700000
-0.0020404900000
0.0052732600000
0.0096682900000
0.0120086000000
0.0095864500000
0.0025854600000
-0.0029579700000
-0.0071401200000
-0.0066545100000
-0.0029736000000
-0.0026012400000
-0.0038362800000
-0.0031928100000
-0.0019854600000
-0.0017282100000
-0.0014804000000
-0.0011108900000
-0.0009061880000
-0.0005948570000
0.0006500550000
0.0026984000000
0.0045011000000
0.0046213900000
0.0015011400000
-0.0018872200000
-0.0034461000000
-0.0063874900000
-0.0092400000000
-0.0073963600000
-0.0045842500000
-0.0030422700000
0.0004362310000
0.0022373100000
0.0015864900000
0.0000499305000
-0.0030901300000
-0.0050448200000
-0.0064359500000
-0.0050674600000
0.0004957800000
0.0034517300000
0.0044519000000
0.0065775500000
0.0062249100000
0.0039124600000
0.0030985100000
0.0022659600000
0.0000334939000
-0.0025604500000
-0.0050945100000
-0.0093533000000
-0.0157329000000
-0.0190119000000
-0.0179914000000
-0.0158407000000
-0.0118629000000
-0.0075176200000
-0.0069296300000
-0.0071933500000
-0.0050705800000
-0.0025191000000
-0.0006029980000
-0.0003913210000
-0.0013220900000
-0.0019825400000
-0.0025267500000
-0.0032320000000
-0.0031006300000
-0.0012080100000
0.0003310970000
0.0017658700000
0.0046947000000
0.0078396800000
0.0094475600000
0.0078781500000
0.0053479900000
0.0031217700000
0.0004790700000
-0.0001077950000
-0.0001544270000
-0.0015711900000
-0.0027821400000
-0.0035132700000
-0.0023526800000
0.0005403920000
0.0022345100000
0.0039794000000
0.0060106900000
0.0037722500000
-0.0006364110000
-0.0028283500000
-0.0039074100000
-0.0033384900000
-0.0025237200000
-0.0033023500000
-0.0033461300000
-0.0027950200000
-0.0028205400000
-0.0007089740000
0.0048332500000
0.0082385400000
0.0082755500000
0.0104643000000
0.0114120000000
0.0075064000000
0.0050462100000
0.0034815000000
-0.0005079540000
-0.0033724000000
-0.0032703400000
-0.0015489900000
-0.0007366400000
-0.0006961870000
-0.0002535900000
-0.0003289520000
0.0003635960000
0.0029909800000
0.0054347300000
0.0062166500000
0.0070141300000
0.0074518000000
0.0052136000000
0.0023955600000
-0.0014612100000
-0.0089538600000
-0.0134347000000
-0.0125590000000
-0.0120960000000
-0.0113024000000
-0.0090072100000
-0.0043742600000
0.0002894610000
0.0014360500000
0.0025855300000
0.0027227100000
0.0012018600000
0.0013881400000
0.0023923100000
0.0032285200000
0.0040350300000
0.0051102900000
0.0051827000000
0.0030929900000
0.0016681900000
0.0014142100000
0.0012162900000
0.0023775800000
0.0036855200000
0.0045624600000
0.0064580000000
0.0077337500000
0.0083997600000
0.0093424200000
0.0077208500000
0.0044660800000
0.0023894400000
0.0004467960000
-0.0016778700000
-0.0029852000000
-0.0017696800000
0.0005832940000
0.0023410700000
0.0054174000000
0.0077972200000
0.0073061400000
0.0055732700000
0.0040396900000
0.0012353200000
-0.0032302900000
-0.0053049100000
-0.0058162800000
-0.0073645400000
-0.0062813300000
-0.0025476500000
0.0008426820000
0.0054028700000
0.0074092200000
0.0056925600000
0.0065872400000
0.0077589300000
0.0068657100000
0.0065108500000
0.0051563900000
0.0029429700000
0.0013815500000
-0.0009447310000
-0.0037705800000
-0.0057484300000
-0.0073987700000
-0.0092107100000
-0.0081913200000
-0.0042638400000
-0.0021969700000
-0.0005326370000
0.0024727100000
0.0036441700000
0.0022232200000
-0.0000346354000
-0.0016247600000
-0.0032682200000
-0.0038405100000
-0.0008544160000
0.0035826700000
0.0067460000000
0.0070953300000
0.0049263100000
0.0026889300000
0.0017205200000
0.0022384600000
0.0022235100000
0.0009478010000
-0.0004670720000
-0.0026087100000
-0.0048570800000
-0.0043717300000
-0.0016189300000
-0.0003074050000
0.0001325300000
0.0001031470000
-0.0022809000000
-0.0052251000000
-0.0071382200000
-0.0090112100000
-0.0112583000000
-0.0113794000000
-0.0086566300000
-0.0071903500000
-0.0067259800000
-0.0046416700000
-0.0030186400000
-0.0026424200000
-0.0020047000000
-0.0014318700000
-0.0012054800000
-0.0011405600000
-0.0006301950000
0.0012199300000
0.0027968900000
0.0033316600000
0.0038159900000
0.0029716000000
0.0012303500000
0.0003905500000
-0.0007180260000
-0.0018746300000
-0.0021672500000
-0.0027575300000
-0.0037045700000
-0.0042079800000
-0.0036935200000
-0.0026147800000
-0.0023041500000
-0.0023118100000
-0.0019158000000
-0.0019588300000
-0.0024204700000
-0.0027757600000
-0.0045106600000
-0.0069341900000
-0.0077517700000
-0.0088783700000
-0.0112252000000
-0.0118516000000
-0.0107045000000
-0.0106476000000
-0.0113804000000
-0.0113864000000
-0.0113522000000
-0.0116126000000
-0.0102335000000
-0.0070213000000
-0.0048310600000
-0.0032348400000
-0.0011251800000
-0.0000635351000
0.0007570480000
0.0014905100000
0.0002684020000
-0.0009720070000
-0.0010272700000
-0.0018721600000
-0.0027757300000
-0.0022943400000
-0.0016206000000
-0.0013436200000
-0.0018436500000
-0.0039168700000
-0.0056630100000
-0.0062842300000
-0.0065008200000
-0.0056111200000
-0.0047490000000
-0.0049299300000
-0.0048197400000
-0.0046965300000
-0.0052605200000
-0.0051585100000
-0.0044370300000
-0.0042176000000
-0.0040246700000
-0.0049641800000
-0.0077551800000
-0.0101897000000
-0.0096003200000
-0.0059220000000
-0.0027726900000
0.0008313410000
0.0048902100000
0.0050265200000
0.0029070000000
0.0018993000000
0.0024013300000
0.0032534900000
0.0037752500000
0.0045966900000
0.0060429300000
0.0057409800000
0.0026551900000
0.0009250590000
0.0008445230000
0.0010821500000
0.0029703400000
0.0045047900000
0.0057356900000
0.0077893000000
0.0083727000000
0.0079137300000
0.0078046100000
0.0074804900000
0.0067676100000
0.0070300500000
0.0088512000000
0.0100069000000
0.0102192000000
0.0109485000000
0.0108621000000
0.0095296400000
0.0087754600000
0.0093276500000
0.0107144000000
0.0115891000000
0.0121942000000
0.0119655000000
0.0094401400000
0.0072823500000
0.0060964000000
0.0037986400000
0.0030068400000
0.0049594500000
0.0057310200000
0.0057500700000
0.0073012200000
0.0088540100000
0.0096511600000
0.0088397600000
0.0068811300000
0.0046531300000
0.0007774760000
-0.0021727600000
-0.0036205800000
-0.0057366100000
-0.0061589400000
-0.0058700400000
-0.0076535700000
-0.0094021600000
-0.0104108000000
-0.0100702000000
-0.0063861500000
-0.0031426100000
-0.0022444300000
-0.0001489920000
0.0007371320000
-0.0015796100000
-0.0026213500000
-0.0020562600000
-0.0023690800000
-0.0025647200000
-0.0024382700000
-0.0024392400000
-0.0023798600000
-0.0022441600000
-0.0022370400000
-0.0023251000000
-0.0023069900000
-0.0026098500000
-0.0040585400000
-0.0056383000000
-0.0065856600000
-0.0071258200000
-0.0054401400000
-0.0026967700000
-0.0019767200000
-0.0015480400000
0.0000867829000
0.0002017080000
-0.0021404000000
-0.0043576900000
-0.0064901200000
-0.0081141000000
-0.0084423600000
-0.0090713500000
-0.0078199400000
-0.0052130000000
-0.0047816000000
-0.0042407600000
-0.0029125700000
-0.0025799100000
-0.0015264600000
0.0004939530000
0.0017785900000
0.0028499400000
0.0041696200000
0.0046691900000
0.0044773600000
0.0047575000000
0.0050141000000
0.0047120800000
0.0044739300000
0.0041670000000
0.0038821300000
0.0043968600000
0.0051404600000
0.0055266100000
0.0065749000000
0.0073791000000
0.0060198900000
0.0044273500000
0.0040843500000
0.0033317700000
0.0026774700000
0.0030602200000
0.0034779100000
0.0038769600000
0.0043489100000
0.0046403400000
0.0058978900000
0.0084191100000
0.0103329000000
0.0119742000000
0.0133085000000
0.0118208000000
0.0096568300000
0.0092186300000
0.0081538100000
0.0069521900000
0.0071760000000
0.0071628500000
0.0062656100000
0.0051529900000
0.0042215500000
0.0034102300000
0.0020872100000
0.0003424610000
-0.0005518990000
0.0002535360000
0.0011739000000
0.0008396000000
0.0005055440000
0.0005375510000
0.0002158040000
-0.0000865897000
-0.0001027000000
-0.0001677340000
-0.0002233870000
0.0004238030000
0.0012891700000
0.0012773000000
0.0012466700000
0.0013604700000
0.0007747510000
0.0002486280000
-0.0000607660000
-0.0006410340000
-0.0011301800000
-0.0015374700000
-0.0017717300000
-0.0013834400000
-0.0010054600000
-0.0008841180000
0.0002263330000
0.0018753700000
0.0020713500000
0.0006753940000
-0.0005325080000
-0.0013217600000
-0.0031025400000
-0.0046824300000
-0.0050469500000
-0.0050670400000
-0.0041321000000
-0.0028496200000
-0.0024610200000
-0.0023324400000
-0.0026382000000
-0.0031433200000
-0.0031008600000
-0.0029711600000
-0.0028984600000
-0.0035544100000
-0.0051344400000
-0.0059707000000
-0.0057808200000
-0.0046639900000
-0.0029265300000
-0.0015385900000
-0.0001831870000
0.0005827620000
0.0009716920000
0.0020249100000
0.0028295600000
0.0029186200000
0.0028141000000
0.0024618200000
0.0020679600000
0.0023737300000
0.0029400200000
0.0030104800000
0.0030525600000
0.0033920500000
0.0031803800000
0.0021548100000
0.0013475800000
0.0008633040000
0.0006408880000
0.0009000840000
0.0008256150000
0.0000779992000
-0.0006139500000
-0.0007652630000
-0.0007646290000
-0.0009357220000
-0.0012616200000
-0.0018250000000
-0.0022921900000
-0.0025158900000
-0.0027501500000
-0.0029111600000
-0.0029967300000
-0.0031199100000
-0.0030618900000
-0.0027588000000
-0.0025413100000
-0.0027870700000
-0.0033736700000
-0.0034820800000
-0.0031746100000
-0.0028629500000
-0.0022915700000
-0.0016126100000
-0.0010275100000
-0.0008619880000
-0.0009614290000
-0.0007598810000
-0.0006086550000
-0.0005379940000
-0.0000881786000
0.0006242690000
0.0014588600000
0.0021952600000
0.0023354600000
0.0021006600000
0.0020471600000
0.0020600800000
0.0019355000000
0.0018367800000
0.0018048400000
0.0016790400000
0.0014176700000
0.0011064500000
0.0007726930000
0.0004358670000
0.0002974190000
0.0003867650000
0.0004395980000
0.0003496090000
0.0001507260000
-0.0000606927000
-0.0002786860000
-0.0004468780000
-0.0004155410000
-0.0003744910000
-0.0002278550000
0.0000258796000
-0.0000349483000
-0.0002647150000
-0.0006010790000
-0.0010922700000
-0.0013285300000
-0.0012316400000
-0.0009893050000
-0.0005937500000
-0.0003201630000
-0.0003793810000
-0.0005283840000
-0.0007990010000
-0.0010757200000
-0.0011155100000
-0.0010667200000
-0.0009410380000
-0.0007789580000
-0.0006554090000
-0.0005054230000
-0.0003441170000
-0.0002476400000
-0.0002181660000
-0.0002434860000
-0.0004942830000
-0.0008044250000
-0.0007682950000
-0.0005703050000
-0.0004317740000
-0.0002418750000
-0.0001238690000
-0.0001483490000
-0.0001594680000
-0.0001612850000
-0.0001730900000
-0.0001354950000
-0.0000881791000
-0.0000906544000
-0.0001048570000
-0.0001271500000
-0.0001725850000
-0.0002021290000
-0.0002085720000
-0.0002063500000
-0.0002123700000
-0.0002261510000
-0.0002344680000
-0.0002442730000
-0.0002586370000
-0.0002713860000
-0.0002820350000
-0.0002951550000
-0.0003100440000
-0.0003233300000
-0.0003426860000
-0.0003751490000
-0.0004108220000
-0.0004301230000
-0.0004278590000
-0.0004110920000
-0.0003834400000
-0.0003503590000
-0.0003155280000
-0.0002817030000
-0.0002544120000
-0.0002324170000
-0.0002104880000
-0.0001871080000
-0.0001619730000
-0.0001364360000
-0.0001120420000
-0.0000885833000