0.0003424550000
0.0003420390000
0.0003446310000
0.0003497780000
0.0003617470000
0.0003660350000
0.0003318250000
0.0003273420000
0.0003244470000
0.0001596730000
-0.0000091575700
0.0000009773670
0.0000331725000
-0.0000074286300
-0.0000872289000
-0.0000278431000
0.0002056530000
0.0004101130000
0.0005519530000
0.0007173870000
0.0009266930000
0.0007850170000
0.0007142440000
0.0010418200000
0.0009678000000
0.0009182350000
0.0013351200000
0.0011979200000
-0.0000849107000
-0.0009199250000
-0.0001353670000
0.0003262320000
-0.0007662090000
-0.0024016700000
-0.0034172100000
-0.0030295600000
-0.0023433200000
-0.0020326300000
-0.0018767900000
-0.0021937200000
-0.0018577200000
-0.0003421090000
0.0019416000000
0.0029920100000
0.0014088000000
-0.0001191030000
0.0004886250000
0.0017250700000
0.0024958600000
0.0029308000000
0.0020852100000
0.0017376200000
0.0031096000000
0.0037299800000
0.0023163200000
0.0002273370000
0.0002892630000
0.0012079300000
0.0001898020000
-0.0002590450000
0.0007441760000
0.0013654600000
0.0018346200000
0.0019255100000
0.0013350700000
0.0007402310000
0.0014482300000
0.0025586000000
0.0013104200000
-0.0014796000000
-0.0025791700000
-0.0006566890000
0.0019302700000
0.0027938600000
0.0019295200000
0.0008438840000
0.0006822730000
0.0001241890000
-0.0010643500000
-0.0024381300000
-0.0029825700000
-0.0020744700000
-0.0025046500000
-0.0032671000000
-0.0019503400000
-0.0011446000000
-0.0019485100000
-0.0022453200000
-0.0018066000000
-0.0013540700000
-0.0016361100000
-0.0030735400000
-0.0028791800000
-0.0003465980000
0.0021922100000
0.0038437800000
0.0044896300000
0.0046311600000
0.0040699600000
0.0026220700000
0.0020962400000
0.0032535300000
0.0037808000000
0.0018487500000
-0.0013395900000
-0.0025961900000
-0.0017781500000
-0.0024935400000
-0.0034971300000
-0.0020811900000
0.0007017260000
0.0028985200000
0.0022216100000
0.0007845090000
0.0009743180000
0.0015428000000
0.0014780800000
0.0001602930000
-0.0003371120000
0.0004806660000
0.0002100590000
-0.0004127440000
-0.0012925000000
-0.0022747500000
-0.0026051800000
-0.0040170800000
-0.0033974500000
-0.0014698200000
-0.0035813700000
-0.0079280600000
-0.0123009000000
-0.0128085000000
-0.0098790300000
-0.0073711900000
-0.0037767800000
-0.0009954200000
0.0003329880000
0.0019748000000
0.0032318100000
0.0027354800000
0.0021673500000
0.0045618400000
0.0074705600000
0.0078186300000
0.0053804200000
0.0029855400000
0.0022615400000
0.0015478100000
0.0021379200000
0.0038200700000
0.0028102900000
0.0006123120000
-0.0001647330000
0.0005999930000
0.0032603700000
0.0041339700000
0.0039505500000
0.0078310100000
0.0121539000000
0.0123547000000
0.0093484200000
0.0011267400000
-0.0069330800000
-0.0068675400000
-0.0026341700000
0.0024675000000
0.0032022500000
0.0007774000000
0.0001570240000
-0.0011443500000
-0.0035572500000
-0.0085657700000
-0.0103614000000
-0.0071235000000
-0.0059431500000
-0.0068146100000
-0.0068352700000
-0.0052033800000
-0.0026102100000
-0.0003139810000
0.0008216940000
0.0033313500000
0.0051899200000
0.0056595600000
0.0032119300000
-0.0029291400000
-0.0048782700000
-0.0049974800000
-0.0080532800000
-0.0130371000000
-0.0149956000000
-0.0098899900000
-0.0033074800000
-0.0000399401000
0.0016237900000
0.0040741500000
0.0070421600000
0.0095664100000
0.0106050000000
0.0108032000000
0.0080839500000
0.0013851500000
-0.0036511600000
-0.0050954100000
-0.0023559000000
0.0013719400000
-0.0000206815000
-0.0024634200000
-0.0026792200000
-0.0042404300000
-0.0089554200000
-0.0105018000000
-0.0058180600000
-0.0025820700000
-0.0020837600000
-0.0038764400000
-0.0046130900000
0.0005234840000
0.0068894900000
0.0131879000000
0.0190772000000
0.0206071000000
0.0162602000000
0.0098279300000
0.0044993600000
0.0008449320000
0.0002743740000
0.0002161420000
-0.0013753900000
-0.0069163200000
-0.0138857000000
-0.0143336000000
-0.0091056500000
-0.0010107300000
0.0029762200000
0.0000155042000
-0.0021120500000
-0.0039193300000
-0.0063952600000
-0.0069706700000
-0.0036610200000
0.0040005900000
0.0101442000000
0.0119886000000
0.0106335000000
0.0066803500000
0.0035617800000
0.0017298500000
-0.0028831100000
-0.0048471400000
-0.0001967070000
0.0027648400000
0.0045599300000
0.0073933300000
0.0077017200000
0.0037502100000
-0.0029719600000
-0.0018685000000
0.0027675400000
0.0017363400000
0.0045169000000
0.0061897000000
-0.0003562830000
-0.0064345400000
-0.0070684800000
0.0017036500000
0.0093555800000
0.0055365700000
0.0036588500000
0.0043752700000
0.0006627920000
-0.0026250800000
-0.0036827500000
0.0003427450000
0.0071052900000
0.0079269200000
0.0018014200000
-0.0078807400000
-0.0171073000000
-0.0233395000000
-0.0260315000000
-0.0214239000000
-0.0133419000000
-0.0112276000000
-0.0104927000000
-0.0079347100000
-0.0054630100000
-0.0019612700000
-0.0015223500000
-0.0025713400000
0.0000827286000
0.0051133400000
0.0117678000000
0.0178986000000
0.0184464000000
0.0166646000000
0.0139583000000
0.0076795200000
0.0038163600000
-0.0007646390000
-0.0087606000000
-0.0101117000000
-0.0034289800000
0.0061460900000
0.0148170000000
0.0185718000000
0.0146063000000
0.0063711900000
0.0049951000000
0.0132774000000
0.0176188000000
0.0117012000000
0.0052443700000
0.0057242600000
0.0118683000000
0.0148751000000
0.0139255000000
0.0157496000000
0.0192871000000
0.0219613000000
0.0173458000000
0.0051946100000
-0.0075549500000
-0.0211285000000
-0.0292050000000
-0.0238174000000
-0.0122584000000
-0.0070335400000
-0.0117852000000
-0.0180774000000
-0.0162143000000
-0.0135597000000
-0.0122288000000
-0.0075673600000
-0.0072694500000
0.0001431760000
0.0137450000000
0.0125552000000
0.0045622600000
-0.0040972000000
-0.0071816300000
-0.0009271190000
-0.0044539800000
-0.0147009000000
-0.0182476000000
-0.0168529000000
-0.0144044000000
-0.0135985000000
-0.0137100000000
-0.0136062000000
-0.0148784000000
-0.0155961000000
-0.0050529600000
0.0135781000000
0.0232535000000
0.0200877000000
0.0160742000000
0.0185660000000
0.0198816000000
0.0128648000000
0.0036933000000
0.0091620900000
0.0256371000000
0.0357308000000
0.0420385000000
0.0425602000000
0.0329840000000
0.0221616000000
0.0134472000000
0.0114926000000
0.0146112000000
0.0120682000000
0.0067926400000
0.0000989171000
-0.0116794000000
-0.0134972000000
0.0046879400000
0.0224667000000
0.0197526000000
0.0034640400000
-0.0080244900000
-0.0049901000000
0.0073228100000
0.0129413000000
0.0094744200000
0.0047858400000
0.0008058260000
-0.0038592100000
-0.0071046200000
0.0027810900000
0.0107281000000
0.0006664240000
-0.0057171500000
-0.0005839480000
0.0055066300000
0.0061222500000
-0.0040182000000
-0.0251891000000
-0.0458445000000
-0.0530029000000
-0.0522632000000
-0.0516477000000
-0.0492636000000
-0.0432911000000
-0.0354810000000
-0.0317045000000
-0.0286200000000
-0.0268463000000
-0.0252546000000
-0.0099723600000
0.0078330600000
0.0104213000000
0.0031985700000
-0.0041832100000
-0.0108405000000
-0.0134909000000
-0.0082219900000
-0.0040003300000
-0.0072053800000
-0.0190611000000
-0.0371436000000
-0.0495945000000
-0.0532196000000
-0.0520559000000
-0.0516221000000
-0.0604517000000
-0.0667631000000
-0.0597198000000
-0.0533604000000
-0.0536268000000
-0.0499965000000
-0.0366991000000
-0.0212352000000
-0.0124315000000
-0.0168946000000
-0.0299986000000
-0.0359904000000
-0.0368632000000
-0.0410316000000
-0.0398201000000
-0.0262212000000
-0.0070355700000
0.0124177000000
0.0235300000000
0.0258400000000
0.0344846000000
0.0517047000000
0.0756678000000
0.0956346000000
0.0986850000000
0.0934460000000
0.0869088000000
0.0830567000000
0.0775911000000
0.0613525000000
0.0421870000000
0.0295851000000
0.0161150000000
-0.0075348400000
-0.0252411000000
-0.0230725000000
-0.0100011000000
-0.0015136500000
-0.0012795200000
0.0115098000000
0.0426561000000
0.0730848000000
0.0869008000000
0.0794225000000
0.0676729000000
0.0642974000000
0.0615207000000
0.0585771000000
0.0582549000000
0.0587554000000
0.0585279000000
0.0542114000000
0.0498262000000
0.0525810000000
0.0584830000000
0.0575345000000
0.0492538000000
0.0388843000000
0.0243080000000
0.0094598200000
-0.0035284400000
-0.0184933000000
-0.0228454000000
-0.0092232500000
0.0140110000000
0.0373178000000
0.0532453000000
0.0633475000000
0.0713386000000
0.0762841000000
0.0785200000000
0.0795647000000
0.0790075000000
0.0806616000000
0.0863235000000
0.0881753000000
0.0779194000000
0.0522859000000
0.0133283000000
-0.0365817000000
-0.0929111000000
-0.1466730000000
-0.1926980000000
-0.2254950000000
-0.2391680000000
-0.2370620000000
-0.2230580000000
-0.1923750000000
-0.1401060000000
-0.0809520000000
-0.0362258000000
0.0011059600000
0.0430383000000
0.0741153000000
0.0838664000000
0.0773429000000
0.0508288000000
0.0109863000000
-0.0301445000000
-0.0710412000000
-0.1085270000000
-0.1398160000000
-0.1585500000000
-0.1622370000000
-0.1584010000000
-0.1586030000000
-0.1713920000000
-0.1845880000000
-0.1758630000000
-0.1382640000000
-0.0906238000000
-0.0590006000000
-0.0364946000000
0.0042588600000
0.0494900000000
0.0604316000000
0.0497802000000
0.0362511000000
0.0185498000000
0.0147770000000
0.0216141000000
0.0297641000000
0.0381261000000
0.0474892000000
0.0639134000000
0.0733926000000
0.0648825000000
0.0457671000000
0.0268994000000
0.0059028500000
-0.0206067000000
-0.0504311000000
-0.0781744000000
-0.0892808000000
-0.0820370000000
-0.0659991000000
-0.0434121000000
-0.0158797000000
0.0074776600000
0.0246770000000
0.0337926000000
0.0313586000000
0.0251231000000
0.0112662000000
-0.0111700000000
-0.0300567000000
-0.0458092000000
-0.0648978000000
-0.0770732000000
-0.0673283000000
-0.0412063000000
-0.0042955500000
0.0219543000000
0.0237975000000
0.0252800000000
0.0333217000000
0.0402332000000
0.0393505000000
0.0354705000000
0.0295795000000
0.0159661000000
0.0038975300000
-0.0068989800000
-0.0156697000000
-0.0135520000000
0.0018926100000
0.0276050000000
0.0598766000000
0.0958422000000
0.1372330000000
0.1814910000000
0.2192860000000
0.2490490000000
0.2648770000000
0.2655800000000
0.2507460000000
0.2133760000000
0.1602860000000
0.1067450000000
0.0796147000000
0.0772357000000
0.0652965000000
0.0620212000000
0.0794938000000
0.0737489000000
0.0489802000000
0.0387110000000
0.0332484000000
0.0262672000000
0.0225846000000
0.0100112000000
-0.0114709000000
-0.0383828000000
-0.0666508000000
-0.0864264000000
-0.0946925000000
-0.0796346000000
-0.0407320000000
0.0106001000000
0.0601189000000
0.0885977000000
0.0931724000000
0.0891965000000
0.0757878000000
0.0390221000000
-0.0056637300000
-0.0486038000000
-0.0914110000000
-0.1293700000000
-0.1628440000000
-0.1819600000000
-0.1821910000000
-0.1595310000000
-0.1153810000000
-0.0701666000000
-0.0418334000000
-0.0287191000000
-0.0210961000000
-0.0345741000000
-0.0688363000000
-0.0917307000000
-0.0935238000000
-0.0954422000000
-0.1044230000000
-0.1073340000000
-0.1064790000000
-0.0979223000000
-0.0816501000000
-0.0650685000000
-0.0533189000000
-0.0551809000000
-0.0615555000000
-0.0723288000000
-0.0882323000000
-0.1040030000000
-0.1191730000000
-0.1267570000000
-0.1245410000000
-0.1155470000000
-0.1122920000000
-0.1163930000000
-0.1105080000000
-0.0887359000000
-0.0579522000000
-0.0317510000000
-0.0204785000000
-0.0152445000000
-0.0074498400000
-0.0039561700000
-0.0126865000000
-0.0292726000000
-0.0435833000000
-0.0501250000000
-0.0511998000000
-0.0530736000000
-0.0534011000000
-0.0514786000000
-0.0504833000000
-0.0499682000000
-0.0464853000000
-0.0339671000000
-0.0180603000000
-0.0098712300000
-0.0090102800000
-0.0088013800000
-0.0043614200000
0.0050450500000
0.0181577000000
0.0373372000000
0.0688910000000
0.1132850000000
0.1562540000000
0.1860520000000
0.2034850000000
0.2023220000000
0.1757400000000
0.1339660000000
0.1014610000000
0.0967424000000
0.1089580000000
0.1210710000000
0.1350490000000
0.1431930000000
0.1307860000000
0.1076170000000
0.0910944000000
0.0880158000000
0.0908995000000
0.0853518000000
0.0662622000000
0.0359812000000
0.0014587300000
-0.0241949000000
-0.0303432000000
-0.0302992000000
-0.0379675000000
-0.0444343000000
-0.0420887000000
-0.0272641000000
-0.0040418600000
0.0162259000000
0.0264595000000
0.0278334000000
0.0345259000000
0.0515308000000
0.0652312000000
0.0633983000000
0.0394413000000
-0.0062396600000
-0.0587693000000
-0.0945673000000
-0.1066670000000
-0.1125120000000
-0.1197560000000
-0.1168190000000
-0.0937412000000
-0.0562878000000
-0.0296155000000
-0.0232179000000
-0.0309601000000
-0.0493067000000
-0.0597834000000
-0.0508984000000
-0.0326574000000
-0.0181191000000
-0.0043048700000
0.0160420000000
0.0375012000000
0.0529704000000
0.0559945000000
0.0492165000000
0.0384141000000
0.0343723000000
0.0434626000000
0.0556690000000
0.0648235000000
0.0670641000000
0.0563347000000
0.0307004000000
0.0019005300000
-0.0170760000000
-0.0242118000000
-0.0215571000000
-0.0091640600000
0.0131182000000
0.0397735000000
0.0672521000000
0.0822821000000
0.0723271000000
0.0480289000000
0.0179899000000
-0.0149961000000
-0.0389576000000
-0.0473276000000
-0.0490293000000
-0.0502025000000
-0.0525609000000
-0.0613641000000
-0.0745779000000
-0.0919825000000
-0.1171660000000
-0.1392820000000
-0.1353590000000
-0.0932444000000
-0.0447460000000
-0.0236236000000
-0.0042802500000
0.0229048000000
0.0355756000000
0.0402817000000
0.0416160000000
0.0433125000000
0.0446587000000
0.0308592000000
0.0006827360000
-0.0324758000000
-0.0441615000000
-0.0360333000000
-0.0317903000000
-0.0270220000000
-0.0184181000000
-0.0376595000000
-0.0716450000000
-0.0695373000000
-0.0499137000000
-0.0426322000000
-0.0218845000000
0.0135158000000
0.0473997000000
0.0908190000000
0.1306150000000
0.1648470000000
0.1881840000000
0.1838470000000
0.1508460000000
0.0858456000000
0.0253113000000
-0.0046865700000
-0.0140406000000
-0.0225745000000
-0.0281755000000
-0.0126914000000
0.0158779000000
0.0419231000000
0.0519038000000
0.0522603000000
0.0528089000000
0.0495093000000
0.0463856000000
0.0581783000000
0.0808872000000
0.0958812000000
0.0981189000000
0.0962355000000
0.0907165000000
0.0797954000000
0.0703614000000
0.0503073000000
0.0142701000000
-0.0266303000000
-0.0508654000000
-0.0518174000000
-0.0452631000000
-0.0360166000000
-0.0290297000000
-0.0245651000000
-0.0335660000000
-0.0493659000000
-0.0526111000000
-0.0542617000000
-0.0561616000000
-0.0559637000000
-0.0532725000000
-0.0469980000000
-0.0440040000000
-0.0448406000000
-0.0437895000000
-0.0361969000000
-0.0293481000000
-0.0283250000000
-0.0247036000000
-0.0152033000000
-0.0037780700000
0.0020546000000
-0.0071939300000
-0.0229421000000
-0.0228727000000
-0.0126745000000
-0.0142295000000
-0.0221881000000
-0.0222290000000
-0.0201854000000
-0.0249205000000
-0.0349892000000
-0.0442550000000
-0.0509891000000
-0.0566131000000
-0.0580990000000
-0.0576534000000
-0.0563417000000
-0.0574576000000
-0.0680239000000
-0.0813814000000
-0.0889479000000
-0.0877314000000
-0.0773538000000
-0.0594939000000
-0.0385601000000
-0.0161950000000
0.0051695100000
0.0176426000000
0.0205161000000
0.0144667000000
0.0021164300000
-0.0079615200000
-0.0125711000000
-0.0179130000000
-0.0243414000000
-0.0268557000000
-0.0264592000000
-0.0189583000000
-0.0093418000000
-0.0032204300000
0.0063291100000
0.0143664000000
0.0175173000000
0.0198861000000
0.0190679000000
0.0095577600000
-0.0038399500000
-0.0106225000000
-0.0131277000000
-0.0101660000000
0.0046622900000
0.0185310000000
0.0173433000000
0.0116832000000
0.0157083000000
0.0228142000000
0.0226276000000
0.0199971000000
0.0179296000000
0.0139024000000
0.0108231000000
0.0135236000000
0.0248107000000
0.0383961000000
0.0508148000000
0.0628225000000
0.0738927000000
0.0846200000000
0.0920450000000
0.1013370000000
0.1135420000000
0.1238330000000
0.1300610000000
0.1273970000000
0.1203300000000
0.1152660000000
0.1121020000000
0.1053870000000
0.0919666000000
0.0771025000000
0.0677009000000
0.0670614000000
0.0681641000000
0.0660313000000
0.0648533000000
0.0670666000000
0.0737653000000
0.0785713000000
0.0740493000000
0.0649299000000
0.0590553000000
0.0565172000000
0.0535488000000
0.0505798000000
0.0397844000000
0.0166598000000
-0.0121453000000
-0.0404346000000
-0.0643027000000
-0.0879673000000
-0.1068890000000
-0.1127790000000
-0.1082240000000
-0.0980328000000
-0.0864818000000
-0.0770477000000
-0.0705602000000
-0.0636332000000
-0.0542316000000
-0.0452513000000
-0.0388187000000
-0.0315025000000
-0.0219828000000
-0.0102768000000
0.0067714200000
0.0287898000000
0.0539377000000
0.0825516000000
0.1142000000000
0.1416040000000
0.1561730000000
0.1571070000000
0.1428310000000
0.1136140000000
0.0792332000000
0.0498337000000
0.0265527000000
0.0074338400000
-0.0008537440000
-0.0016216500000
-0.0089814400000
-0.0234254000000
-0.0424207000000
-0.0612760000000
-0.0731056000000
-0.0762656000000
-0.0663382000000
-0.0483493000000
-0.0347441000000
-0.0227584000000
-0.0046605500000
0.0169638000000
0.0436481000000
0.0723776000000
0.0909736000000
0.0973217000000
0.0890536000000
0.0642846000000
0.0293971000000
-0.0065211400000
-0.0350152000000
-0.0473959000000
-0.0426958000000
-0.0298908000000
-0.0105897000000
0.0067520200000
0.0060648700000
-0.0094523500000
-0.0312028000000
-0.0593480000000
-0.0893626000000
-0.1107000000000
-0.1158190000000
-0.1058880000000
-0.0895842000000
-0.0755009000000
-0.0659998000000
-0.0623020000000
-0.0683935000000
-0.0788768000000
-0.0841164000000
-0.0782027000000
-0.0624709000000
-0.0524731000000
-0.0476081000000
-0.0324456000000
-0.0099089800000
0.0120187000000
0.0279891000000
0.0406829000000
0.0559134000000
0.0690528000000
0.0781777000000
0.0811576000000
0.0736757000000
0.0594034000000
0.0496483000000
0.0468414000000
0.0423166000000
0.0324710000000
0.0187343000000
0.0066718900000
-0.0012967900000
-0.0145516000000
-0.0377417000000
-0.0637988000000
-0.0827738000000
-0.0947356000000
-0.1059700000000
-0.1054030000000
-0.0860824000000
-0.0559407000000
-0.0288849000000
-0.0158012000000
-0.0098368500000
-0.0053264100000
0.0007203200000
0.0083577700000
0.0151544000000
0.0224401000000
0.0258877000000
0.0233599000000
0.0206817000000
0.0247902000000
0.0330970000000
0.0402509000000
0.0508887000000
0.0637860000000
0.0746702000000
0.0860770000000
0.0994356000000
0.1187970000000
0.1368680000000
0.1442420000000
0.1486160000000
0.1482860000000
0.1418330000000
0.1328290000000
0.1138450000000
0.0896915000000
0.0716221000000
0.0621966000000
0.0584583000000
0.0555748000000
0.0513072000000
0.0475549000000
0.0498858000000
0.0577900000000
0.0672137000000
0.0722085000000
0.0650835000000
0.0488642000000
0.0307600000000
0.0107943000000
-0.0118619000000
-0.0283466000000
-0.0285818000000
-0.0165272000000
0.0000694970000
0.0173973000000
0.0343574000000
0.0471339000000
0.0498375000000
0.0460030000000
0.0447600000000
0.0457181000000
0.0424371000000
0.0390113000000
0.0384198000000
0.0369962000000
0.0284327000000
0.0052504100000
-0.0339529000000
-0.0820579000000
-0.1251350000000
-0.1520890000000
-0.1569610000000
-0.1502680000000
-0.1408810000000
-0.1125770000000
-0.0707871000000
-0.0466179000000
-0.0461829000000
-0.0537656000000
-0.0561133000000
-0.0505030000000
-0.0424959000000
-0.0406775000000
-0.0408624000000
-0.0338110000000
-0.0295521000000
-0.0315296000000
-0.0368854000000
-0.0417557000000
-0.0420541000000
-0.0459789000000
-0.0532809000000
-0.0609807000000
-0.0637692000000
-0.0547201000000
-0.0375554000000
-0.0160452000000
0.0104635000000
0.0365616000000
0.0576438000000
0.0785969000000
0.0971473000000
0.1053030000000
0.1012890000000
0.0947421000000
0.0925954000000
0.0915965000000
0.0872763000000
0.0798415000000
0.0783598000000
0.0834447000000
0.0867142000000
0.0853189000000
0.0779033000000
0.0641077000000
0.0517167000000
0.0434578000000
0.0279614000000
0.0005576020000
-0.0315633000000
-0.0609342000000
-0.0830327000000
-0.0961184000000
-0.1044790000000
-0.1119440000000
-0.1104640000000
-0.0911874000000
-0.0585016000000
-0.0284935000000
-0.0112388000000
-0.0020068700000
0.0105340000000
0.0259450000000
0.0298402000000
0.0261186000000
0.0258260000000
0.0273688000000
0.0346701000000
0.0471824000000
0.0544977000000
0.0529303000000
0.0417453000000
0.0206120000000
-0.0013060300000
-0.0170967000000
-0.0332216000000
-0.0503327000000
-0.0604551000000
-0.0639839000000
-0.0617116000000
-0.0554176000000
-0.0513266000000
-0.0427876000000
-0.0310219000000
-0.0250210000000
-0.0200873000000
-0.0226105000000
-0.0324368000000
-0.0312808000000
-0.0267852000000
-0.0339662000000
-0.0493625000000
-0.0671230000000
-0.0795747000000
-0.0846718000000
-0.0865584000000
-0.0857426000000
-0.0756424000000
-0.0583414000000
-0.0417916000000
-0.0265801000000
-0.0160113000000
-0.0078774400000
-0.0067183100000
-0.0166841000000
-0.0314897000000
-0.0466525000000
-0.0572673000000
-0.0688607000000
-0.0803714000000
-0.0887331000000
-0.0931995000000
-0.0847999000000
-0.0684778000000
-0.0444460000000
-0.0134960000000
0.0069363300000
0.0180029000000
0.0362798000000
0.0598100000000
0.0692010000000
0.0634702000000
0.0506577000000
0.0325843000000
0.0165423000000
0.0021816400000
-0.0071079600000
-0.0121371000000
-0.0204321000000
-0.0301254000000
-0.0351343000000
-0.0250467000000
-0.0098224700000
-0.0014986400000
0.0011604100000
-0.0027722100000
-0.0038414800000
-0.0002846440000
0.0002291740000
-0.0043227800000
-0.0100191000000
-0.0119409000000
-0.0111905000000
-0.0043849300000
0.0089537800000
0.0202166000000
0.0244673000000
0.0279355000000
0.0394414000000
0.0593069000000
0.0794385000000
0.0883091000000
0.0830360000000
0.0671485000000
0.0432118000000
0.0141548000000
-0.0154871000000
-0.0407292000000
-0.0657241000000
-0.0999416000000
-0.1385600000000
-0.1713380000000
-0.1927650000000
-0.1746050000000
-0.1021200000000
-0.0351914000000
-0.0174962000000
-0.0202797000000
-0.0166122000000
0.0196495000000
0.0608877000000
0.0552874000000
0.0427186000000
0.0320996000000
0.0123144000000
0.0077498800000
0.0020795800000
-0.0173943000000
-0.0317047000000
-0.0200494000000
-0.0039719200000
-0.0011867800000
-0.0029770100000
-0.0053679400000
0.0005960820000
0.0013769900000
-0.0104579000000
-0.0295689000000
-0.0472763000000
-0.0530805000000
-0.0531841000000
-0.0568243000000
-0.0658187000000
-0.0710923000000
-0.0703441000000
-0.0648842000000
-0.0575541000000
-0.0544491000000
-0.0539969000000
-0.0548152000000
-0.0570819000000
-0.0612612000000
-0.0643662000000
-0.0632918000000
-0.0597670000000
-0.0520026000000
-0.0337529000000
-0.0161109000000
-0.0151588000000
-0.0181069000000
-0.0188052000000
-0.0215658000000
-0.0236758000000
-0.0272721000000
-0.0290172000000
-0.0354577000000
-0.0392175000000
-0.0235987000000
-0.0059326700000
0.0049488300000
0.0102954000000
0.0168405000000
0.0380781000000
0.0555502000000
0.0657142000000
0.0785127000000
0.0801050000000
0.0746672000000
0.0741635000000
0.0770631000000
0.0751348000000
0.0703004000000
0.0695339000000
0.0676432000000
0.0672393000000
0.0660271000000
0.0575307000000
0.0434907000000
0.0221968000000
0.0036157000000
-0.0045242400000
-0.0053380700000
0.0047131900000
0.0183149000000
0.0285222000000
0.0350039000000
0.0346185000000
0.0321608000000
0.0333124000000
0.0394053000000
0.0455016000000
0.0497329000000
0.0547270000000
0.0566273000000
0.0524789000000
0.0447079000000
0.0345362000000
0.0189604000000
0.0001755060000
-0.0145505000000
-0.0224664000000
-0.0195511000000
-0.0059350300000
0.0094644200000
0.0211761000000
0.0251518000000
0.0239035000000
0.0246903000000
0.0234913000000
0.0154815000000
0.0083000700000
0.0064369600000
0.0053246900000
0.0036225200000
0.0003441560000
-0.0033421300000
-0.0064804100000
-0.0103022000000
-0.0162930000000
-0.0271362000000
-0.0382922000000
-0.0453913000000
-0.0462031000000
-0.0417027000000
-0.0364942000000
-0.0295781000000
-0.0226116000000
-0.0160336000000
-0.0085125900000
-0.0030875000000
-0.0019793200000
-0.0044701000000
-0.0061829400000
-0.0069283900000
-0.0043857100000
0.0076675700000
0.0242088000000
0.0370742000000
0.0449672000000
0.0470559000000
0.0401720000000
0.0229631000000
0.0032021500000
-0.0088468100000
-0.0118382000000
-0.0081258200000
-0.0028873100000
0.0035247400000
0.0148768000000
0.0267001000000
0.0379234000000
0.0462255000000
0.0437811000000
0.0317192000000
0.0151523000000
-0.0015983900000
-0.0125687000000
-0.0142922000000
-0.0115862000000
-0.0065005600000
-0.0019560200000
-0.0114746000000
-0.0290231000000
-0.0392398000000
-0.0475335000000
-0.0561115000000
-0.0556079000000
-0.0458943000000
-0.0355834000000
-0.0287474000000
-0.0217255000000
-0.0137829000000
-0.0095324300000
-0.0064666900000
-0.0044167800000
-0.0034656300000
-0.0000922988000
0.0010199000000
0.0026633900000
0.0094670300000
0.0177675000000
0.0255031000000
0.0285111000000
0.0248447000000
0.0171636000000
0.0046080200000
-0.0108725000000
-0.0212440000000
-0.0228818000000
-0.0178986000000
-0.0042562500000
0.0157278000000
0.0318004000000
0.0423363000000
0.0484148000000
0.0513681000000
0.0521806000000
0.0499111000000
0.0427888000000
0.0294541000000
0.0185873000000
0.0149906000000
0.0177269000000
0.0245339000000
0.0270247000000
0.0208059000000
0.0111810000000
0.0036497600000
-0.0040926100000
-0.0124293000000
-0.0205900000000
-0.0277364000000
-0.0365236000000
-0.0488052000000
-0.0534004000000
-0.0469732000000
-0.0345501000000
-0.0166486000000
0.0002183750000
0.0083522100000
0.0121043000000
0.0122139000000
0.0073678600000
0.0040003200000
-0.0003898460000
-0.0092008400000
-0.0191169000000
-0.0255695000000
-0.0242091000000
-0.0177274000000
-0.0137804000000
-0.0141095000000
-0.0179618000000
-0.0263456000000
-0.0348827000000
-0.0405733000000
-0.0470907000000
-0.0553876000000
-0.0607438000000
-0.0633953000000
-0.0666895000000
-0.0690577000000
-0.0669529000000
-0.0588900000000
-0.0459197000000
-0.0325794000000
-0.0244803000000
-0.0194636000000
-0.0174629000000
-0.0181462000000
-0.0170442000000
-0.0173546000000
-0.0205876000000
-0.0255140000000
-0.0307518000000
-0.0320061000000
-0.0294170000000
-0.0286510000000
-0.0281931000000
-0.0251672000000
-0.0244187000000
-0.0257196000000
-0.0259180000000
-0.0220145000000
-0.0147361000000
-0.0085895500000
-0.0063336700000
-0.0064570800000
-0.0028151100000
0.0039212800000
0.0125942000000
0.0205619000000
0.0232574000000
0.0230727000000
0.0183171000000
0.0089700200000
0.0010462800000
-0.0036905800000
-0.0073819300000
-0.0106022000000
-0.0109508000000
-0.0073731600000
-0.0029694400000
-0.0026164200000
-0.0046008500000
-0.0086761300000
-0.0139796000000
-0.0162668000000
-0.0195874000000
-0.0189235000000
-0.0111064000000
-0.0012766600000
0.0095867700000
0.0179322000000
0.0251139000000
0.0301230000000
0.0337504000000
0.0374118000000
0.0381900000000
0.0354369000000
0.0286332000000
0.0226080000000
0.0155737000000
0.0079223500000
0.0038514900000
0.0019507400000
0.0046573800000
0.0137085000000
0.0279766000000
0.0402825000000
0.0458985000000
0.0483651000000
0.0459866000000
0.0356519000000
0.0239666000000
0.0158822000000
0.0112363000000
0.0117342000000
0.0135180000000
0.0144351000000
0.0176052000000
0.0214711000000
0.0213015000000
0.0196248000000
0.0244467000000
0.0327643000000
0.0408844000000
0.0475122000000
0.0476400000000
0.0460374000000
0.0445721000000
0.0415551000000
0.0410442000000
0.0438883000000
0.0518969000000
0.0622699000000
0.0688571000000
0.0702945000000
0.0685556000000
0.0632629000000
0.0504862000000
0.0347652000000
0.0217448000000
0.0115849000000
0.0048055900000
0.0005561930000
-0.0033543300000
-0.0078704100000
-0.0129079000000
-0.0165211000000
-0.0157199000000
-0.0120453000000
-0.0081841200000
-0.0043882200000
0.0009265640000
0.0093649400000
0.0205018000000
0.0329590000000
0.0413199000000
0.0403550000000
0.0336211000000
0.0290378000000
0.0242196000000
0.0130602000000
-0.0023914100000
-0.0199635000000
-0.0362844000000
-0.0482520000000
-0.0556910000000
-0.0576190000000
-0.0553615000000
-0.0501153000000
-0.0428135000000
-0.0368243000000
-0.0296826000000
-0.0185661000000
-0.0089057400000
-0.0028743400000
0.0019431800000
0.0044577400000
0.0032429500000
-0.0006370820000
-0.0057409700000
-0.0095769800000
-0.0135745000000
-0.0211869000000
-0.0270683000000
-0.0274043000000
-0.0260873000000
-0.0251207000000
-0.0237805000000
-0.0202169000000
-0.0176401000000
-0.0172267000000
-0.0139908000000
-0.0083671100000
-0.0012504900000
0.0052453800000
0.0098478600000
0.0140654000000
0.0162758000000
0.0172464000000
0.0172283000000
0.0136964000000
0.0055392600000
-0.0051094700000
-0.0162715000000
-0.0278680000000
-0.0373618000000
-0.0433394000000
-0.0458710000000
-0.0439048000000
-0.0386237000000
-0.0356974000000
-0.0374779000000
-0.0374089000000
-0.0350150000000
-0.0325902000000
-0.0252470000000
-0.0137272000000
-0.0022991800000
0.0086236900000
0.0204804000000
0.0326921000000
0.0410871000000
0.0412016000000
0.0324229000000
0.0192345000000
0.0096538800000
0.0092732800000
0.0120898000000
0.0122562000000
0.0112377000000
0.0082740400000
0.0019931300000
-0.0061066500000
-0.0136776000000
-0.0207048000000
-0.0293464000000
-0.0370567000000
-0.0357353000000
-0.0245268000000
-0.0085315500000
0.0041667300000
0.0054737300000
0.0018685000000
0.0006346600000
-0.0030403700000
-0.0097244600000
-0.0158378000000
-0.0213664000000
-0.0233469000000
-0.0212874000000
-0.0208489000000
-0.0225150000000
-0.0217473000000
-0.0190029000000
-0.0150336000000
-0.0083709200000
-0.0000118419000
0.0107430000000
0.0223851000000
0.0294849000000
0.0312588000000
0.0321678000000
0.0335629000000
0.0335319000000
0.0285564000000
0.0171162000000
0.0061395200000
-0.0014088600000
-0.0091979600000
-0.0179628000000
-0.0269188000000
-0.0346584000000
-0.0407241000000
-0.0468405000000
-0.0511004000000
-0.0490143000000
-0.0426494000000
-0.0332742000000
-0.0188828000000
-0.0056545000000
0.0023760000000
0.0089657100000
0.0147219000000
0.0190643000000
0.0196200000000
0.0142146000000
0.0078303100000
0.0056652800000
0.0082999500000
0.0134061000000
0.0191151000000
0.0223470000000
0.0225792000000
0.0268942000000
0.0328722000000
0.0318031000000
0.0270441000000
0.0240146000000
0.0253763000000
0.0312666000000
0.0358335000000
0.0393136000000
0.0426343000000
0.0401527000000
0.0349685000000
0.0330202000000
0.0325431000000
0.0328658000000
0.0339333000000
0.0337625000000
0.0331846000000
0.0323080000000
0.0285316000000
0.0218452000000
0.0173578000000
0.0194820000000
0.0252653000000
0.0300437000000
0.0309938000000
0.0276031000000
0.0239989000000
0.0242958000000
0.0266783000000
0.0290696000000
0.0337472000000
0.0378732000000
0.0357510000000
0.0260519000000
0.0131441000000
0.0033187100000
-0.0033965200000
-0.0057398700000
-0.0027177000000
-0.0011655900000
-0.0042394700000
-0.0080021200000
-0.0100704000000
-0.0130792000000
-0.0195433000000
-0.0268325000000
-0.0307153000000
-0.0314886000000
-0.0327976000000
-0.0338904000000
-0.0319597000000
-0.0275313000000
-0.0213159000000
-0.0162372000000
-0.0150593000000
-0.0163745000000
-0.0187148000000
-0.0207285000000
-0.0222621000000
-0.0262043000000
-0.0330509000000
-0.0366535000000
-0.0342091000000
-0.0298314000000
-0.0279011000000
-0.0267551000000
-0.0205781000000
-0.0111414000000
-0.0014019100000
0.0072184400000
0.0128083000000
0.0161947000000
0.0151841000000
0.0092348300000
0.0007625740000
-0.0071396200000
-0.0121734000000
-0.0159080000000
-0.0172176000000
-0.0149786000000
-0.0100799000000
-0.0020107000000
0.0060793700000
0.0083057500000
0.0043686600000
-0.0022548800000
-0.0076487800000
-0.0074199000000
-0.0027103600000
0.0026968200000
0.0074953800000
0.0087540300000
0.0034658900000
-0.0048573700000
-0.0108389000000
-0.0140712000000
-0.0143010000000
-0.0115529000000
-0.0089493900000
-0.0064814500000
-0.0028040500000
-0.0009987380000
-0.0010151500000
0.0013230700000
0.0077515100000
0.0169009000000
0.0225465000000
0.0226379000000
0.0198472000000
0.0136308000000
0.0059202800000
-0.0011539000000
-0.0079684600000
-0.0158993000000
-0.0242365000000
-0.0302493000000
-0.0326316000000
-0.0296261000000
-0.0211379000000
-0.0111940000000
-0.0062063900000
-0.0059934400000
-0.0056000700000
-0.0034136900000
0.0002029400000
0.0010700700000
-0.0011915700000
-0.0013955800000
0.0009168110000
0.0005320710000
-0.0042106100000
-0.0069502600000
-0.0043384500000
0.0015484600000
0.0061907400000
0.0074641700000
0.0067935500000
0.0056043900000
0.0067437700000
0.0076891300000
0.0068165700000
0.0052032600000
0.0005502600000
-0.0060616900000
-0.0121080000000
-0.0154619000000
-0.0164643000000
-0.0165037000000
-0.0150061000000
-0.0124931000000
-0.0101350000000
-0.0071277600000
-0.0018930500000
0.0060357700000
0.0174172000000
0.0276420000000
0.0301149000000
0.0232188000000
0.0123083000000
0.0049116300000
0.0006615980000
-0.0044135700000
-0.0119149000000
-0.0202710000000
-0.0248728000000
-0.0221939000000
-0.0173487000000
-0.0163904000000
-0.0146741000000
-0.0078765200000
-0.0005437540000
0.0046937500000
0.0087440500000
0.0112629000000
0.0119224000000
0.0101595000000
0.0085384000000
0.0085239000000
0.0108394000000
0.0172060000000
0.0242789000000
0.0303613000000
0.0332422000000
0.0304881000000
0.0252760000000
0.0179263000000
0.0109466000000
0.0064984700000
0.0040101400000
0.0054815200000
0.0110309000000
0.0214169000000
0.0309975000000
0.0347977000000
0.0349109000000
0.0319989000000
0.0276817000000
0.0224759000000
0.0168090000000
0.0099726100000
0.0032258900000
0.0011798200000
0.0018048200000
0.0019392000000
0.0028977400000
0.0043615600000
0.0054208800000
0.0051593900000
0.0037369100000
0.0064694500000
0.0115212000000
0.0110920000000
0.0063529900000
0.0005431300000
-0.0052454600000
-0.0104821000000
-0.0167442000000
-0.0227759000000
-0.0240362000000
-0.0205382000000
-0.0183121000000
-0.0214184000000
-0.0260035000000
-0.0271907000000
-0.0251033000000
-0.0192549000000
-0.0137661000000
-0.0133267000000
-0.0152354000000
-0.0157989000000
-0.0121437000000
-0.0079195000000
-0.0066685800000
-0.0063715400000
-0.0061373000000
-0.0046622100000
-0.0006866280000
0.0020153200000
-0.0011097500000
-0.0051717700000
-0.0045382000000
-0.0021713000000
-0.0015166000000
-0.0011456200000
-0.0000760470000
0.0012557300000
0.0035763000000
0.0038924100000
0.0004665490000
-0.0024590500000
-0.0036921300000
-0.0038278300000
-0.0034075400000
-0.0040047200000
-0.0037551000000
-0.0025816200000
-0.0025352500000
-0.0039140100000
-0.0053348800000
-0.0049691400000
-0.0023343100000
0.0006444160000
0.0017883400000
0.0025125100000
0.0025679200000
0.0019074500000
0.0013727300000
-0.0001893210000
-0.0032250000000
-0.0083245400000
-0.0139696000000
-0.0186228000000
-0.0232165000000
-0.0271152000000
-0.0286965000000
-0.0283776000000
-0.0260018000000
-0.0212617000000
-0.0179079000000
-0.0167982000000
-0.0156909000000
-0.0166201000000
-0.0190013000000
-0.0191362000000
-0.0175767000000
-0.0139170000000
-0.0078080400000
-0.0056162800000
-0.0084182700000
-0.0111266000000
-0.0135448000000
-0.0147003000000
-0.0135568000000
-0.0123391000000
-0.0118771000000
-0.0098230900000
-0.0058163600000
-0.0036827700000
-0.0027278400000
-0.0000285058000
0.0015255600000
0.0006994400000
0.0013804700000
0.0045650800000
0.0096177600000
0.0148059000000
0.0162381000000
0.0133704000000
0.0075122200000
0.0009399250000
-0.0011231600000
0.0019671900000
0.0058722200000
0.0093139900000
0.0126127000000
0.0172572000000
0.0231111000000
0.0268684000000
0.0283840000000
0.0277975000000
0.0244331000000
0.0189565000000
0.0127824000000
0.0094761300000
0.0092581800000
0.0099157600000
0.0116996000000
0.0131717000000
0.0127449000000
0.0106300000000
0.0080822700000
0.0080224200000
0.0086719700000
0.0049407100000
-0.0006046110000
-0.0031598400000
-0.0018688900000
0.0039088000000
0.0107360000000
0.0127472000000
0.0114132000000
0.0106712000000
0.0094528400000
0.0064532500000
0.0028221800000
0.0013146800000
0.0020522600000
0.0027476600000
0.0047800800000
0.0081290200000
0.0095934300000
0.0105468000000
0.0124799000000
0.0141595000000
0.0138263000000
0.0085891700000
0.0013900700000
-0.0026871400000
-0.0039233600000
-0.0055936600000
-0.0095496000000
-0.0139297000000
-0.0183151000000
-0.0235014000000
-0.0262492000000
-0.0250012000000
-0.0235822000000
-0.0221535000000
-0.0179447000000
-0.0119973000000
-0.0075212300000
-0.0053601400000
-0.0021650800000
0.0040465500000
0.0109218000000
0.0168164000000
0.0215790000000
0.0239000000000
0.0252954000000
0.0259775000000
0.0214511000000
0.0105507000000
-0.0021503500000
-0.0100601000000
-0.0119403000000
-0.0091244500000
-0.0038087100000
-0.0024689000000
-0.0048075500000
-0.0048404200000
-0.0024132400000
-0.0006210450000
-0.0008567180000
-0.0021098200000
-0.0024039200000
-0.0011360000000
0.0018863000000
0.0065356200000
0.0102880000000
0.0102711000000
0.0084537900000
0.0101524000000
0.0130438000000
0.0110307000000
0.0053945600000
-0.0014244000000
-0.0083513600000
-0.0125843000000
-0.0137947000000
-0.0127662000000
-0.0095373200000
-0.0071374100000
-0.0067331800000
-0.0034691000000
0.0047244500000
0.0131209000000
0.0188408000000
0.0209824000000
0.0186620000000
0.0149122000000
0.0112903000000
0.0074038000000
0.0047926300000
0.0036891200000
0.0032675800000
0.0039649600000
0.0053377100000
0.0063346500000
0.0062738100000
0.0032313900000
-0.0019041400000
-0.0047976500000
-0.0030761500000
0.0006816990000
0.0029610300000
0.0039750800000
0.0038677700000
0.0028276500000
0.0012691000000
-0.0004434270000
-0.0001938700000
0.0030078300000
0.0079672800000
0.0103957000000
0.0090289100000
0.0076182000000
0.0074385800000
0.0085705900000
0.0094446300000
0.0092375400000
0.0105412000000
0.0132147000000
0.0145200000000
0.0132190000000
0.0122340000000
0.0134953000000
0.0131327000000
0.0086936400000
0.0018918000000
-0.0035034500000
-0.0047513400000
-0.0027777900000
-0.0000122486000
0.0011151200000
0.0004936690000
-0.0004231290000
-0.0014323700000
-0.0027518400000
-0.0034081300000
-0.0032039100000
-0.0037156000000
-0.0048150800000
-0.0063552000000
-0.0079547000000
-0.0079699100000
-0.0065139500000
-0.0038916200000
-0.0008215770000
0.0010395900000
0.0001621310000
-0.0044863900000
-0.0103622000000
-0.0154460000000
-0.0206390000000
-0.0226697000000
-0.0196991000000
-0.0160804000000
-0.0141361000000
-0.0126519000000
-0.0115068000000
-0.0120609000000
-0.0133384000000
-0.0135042000000
-0.0134888000000
-0.0142332000000
-0.0127230000000
-0.0072077600000
-0.0032354900000
-0.0047992200000
-0.0082935800000
-0.0102247000000
-0.0106405000000
-0.0091421700000
-0.0061888800000
-0.0029151800000
0.0014117200000
0.0060638000000
0.0098421500000
0.0110397000000
0.0076965200000
0.0023596500000
-0.0011004900000
-0.0009475670000
0.0027378000000
0.0084214100000
0.0142237000000
0.0190268000000
0.0213701000000
0.0181465000000
0.0101000000000
0.0026150300000
-0.0016121000000
-0.0041014500000
-0.0051472100000
-0.0032355000000
0.0004299750000
0.0036507300000
0.0062175700000
0.0085233400000
0.0099748300000
0.0100779000000
0.0096523300000
0.0114855000000
0.0163281000000
0.0203998000000
0.0227537000000
0.0242043000000
0.0232119000000
0.0183865000000
0.0100265000000
0.0017031600000
-0.0040943000000
-0.0086910600000
-0.0111274000000
-0.0088146200000
-0.0041171000000
-0.0008462020000
0.0010060500000
0.0022418500000
0.0043863200000
0.0076450600000
0.0079406100000
0.0037915800000
-0.0025298500000
-0.0090759200000
-0.0130935000000
-0.0125135000000
-0.0090716600000
-0.0063750400000
-0.0061217200000
-0.0064948800000
-0.0043918200000
-0.0007974420000
0.0013400500000
0.0022583300000
0.0011692000000
-0.0035005600000
-0.0098461800000
-0.0159020000000
-0.0215549000000
-0.0271703000000
-0.0316640000000
-0.0337008000000
-0.0334600000000
-0.0312925000000
-0.0286825000000
-0.0269184000000
-0.0260456000000
-0.0250502000000
-0.0226898000000
-0.0202357000000
-0.0183478000000
-0.0162618000000
-0.0131445000000
-0.0080583400000
-0.0043089300000
-0.0050543700000
-0.0068423700000
-0.0055063400000
-0.0020446800000
0.0017921900000
0.0059223800000
0.0083207500000
0.0095928500000
0.0113407000000
0.0124208000000
0.0122454000000
0.0098211000000
0.0063379500000
0.0050158700000
0.0068206600000
0.0095345200000
0.0109672000000
0.0110398000000
0.0098689700000
0.0079742200000
0.0072062800000
0.0085110900000
0.0101880000000
0.0115260000000
0.0122185000000
0.0113325000000
0.0086277800000
0.0043832500000
0.0007626240000
-0.0007704260000
-0.0010450600000
-0.0004554390000
0.0006501920000
0.0005949280000
-0.0000429648000
-0.0000357146000
0.0012311400000
0.0043338000000
0.0069279400000
0.0074374200000
0.0053204100000
0.0030397700000
0.0033585500000
0.0042278200000
0.0040993400000
0.0023258400000
0.0000643724000
-0.0006895700000
0.0011344000000
0.0047767000000
0.0074636900000
0.0074787300000
0.0039486000000
-0.0007139390000
-0.0042233100000
-0.0058675400000
-0.0038978300000
-0.0002787170000
0.0013736900000
-0.0002023700000
-0.0039702000000
-0.0078986100000
-0.0106385000000
-0.0107008000000
-0.0089885900000
-0.0075700500000
-0.0054150000000
-0.0029230300000
-0.0007456990000
0.0008720250000
0.0004292740000
-0.0002823820000
-0.0009930640000
-0.0021373400000
-0.0018002700000
-0.0016347000000
-0.0021191600000
-0.0005342440000
0.0040971900000
0.0109774000000
0.0164266000000
0.0193029000000
0.0200837000000
0.0169544000000
0.0124358000000
0.0093854200000
0.0083202600000
0.0079206200000
0.0074844900000
0.0083905400000
0.0092143100000
0.0093860500000
0.0079629000000
0.0044658900000
0.0011209300000
0.0018117700000
0.0087753700000
0.0168239000000
0.0208279000000
0.0204153000000
0.0154510000000
0.0059687000000
-0.0030975000000
-0.0090113200000
-0.0150143000000
-0.0202538000000
-0.0232158000000
-0.0235415000000
-0.0193278000000
-0.0123642000000
-0.0062957000000
-0.0019862700000
0.0008101670000
0.0019488900000
0.0009356560000
-0.0013032500000
-0.0011351900000
0.0027043900000
0.0075492100000
0.0113725000000
0.0144122000000
0.0165517000000
0.0171428000000
0.0165560000000
0.0141679000000
0.0104702000000
0.0081929600000
0.0080762200000
0.0072620100000
0.0030715900000
-0.0018495200000
-0.0045918600000
-0.0065648900000
-0.0067629500000
-0.0041691100000
-0.0010186600000
0.0017765900000
0.0035310200000
0.0036457400000
0.0025134600000
0.0015575500000
0.0021208700000
0.0048787300000
0.0070389600000
0.0064541200000
0.0060335900000
0.0066895000000
0.0079822100000
0.0067548900000
0.0044569300000
0.0063949500000
0.0105245000000
0.0146652000000
0.0160503000000
0.0141333000000
0.0101946000000
0.0037603200000
-0.0034619400000
-0.0090879700000
-0.0101654000000
-0.0082086300000
-0.0068144900000
-0.0066845900000
-0.0067346400000
-0.0055057000000
-0.0043532900000
-0.0041617900000
-0.0051995600000
-0.0069474800000
-0.0068540500000
-0.0045956300000
-0.0013789700000
0.0024522200000
0.0050748300000
0.0052350000000
0.0036066300000
0.0002569360000
-0.0022507300000
-0.0030393900000
-0.0023027300000
0.0010252800000
0.0034750600000
0.0024387100000
-0.0011923500000
-0.0052127400000
-0.0068740700000
-0.0053809700000
-0.0042222600000
-0.0059301500000
-0.0084711400000
-0.0112710000000
-0.0139129000000
-0.0140754000000
-0.0104251000000
-0.0059186200000
-0.0033691200000
-0.0015807200000
0.0008057460000
0.0045043300000
0.0072420000000
0.0075001100000
0.0070106600000
0.0074053900000
0.0095339400000
0.0110447000000
0.0107588000000
0.0093427200000
0.0069526600000
0.0056257600000
0.0060488100000
0.0079118200000
0.0100814000000
0.0112516000000
0.0111747000000
0.0080766000000
0.0032907900000
0.0004977010000
-0.0000647705000
-0.0004883450000
-0.0029587400000
-0.0055653400000
-0.0042242500000
-0.0007340120000
0.0015637800000
0.0030299600000
0.0046382600000
0.0065884500000
0.0075190600000
0.0074878300000
0.0074878000000
0.0062205400000
0.0030199900000
-0.0014364200000
-0.0056700900000
-0.0082346800000
-0.0081908200000
-0.0064954300000
-0.0053445200000
-0.0044599200000
-0.0043370300000
-0.0053939600000
-0.0058492300000
-0.0044328800000
-0.0009121850000
0.0020917800000
0.0022041300000
0.0003268380000
-0.0018389700000
-0.0027417400000
-0.0030847100000
-0.0040655400000
-0.0036636400000
-0.0023736500000
-0.0031475000000
-0.0049320300000
-0.0059073200000
-0.0058806200000
-0.0067775700000
-0.0105190000000
-0.0142203000000
-0.0162042000000
-0.0173159000000
-0.0162253000000
-0.0130330000000
-0.0093237400000
-0.0071415500000
-0.0080915600000
-0.0105742000000
-0.0127126000000
-0.0138051000000
-0.0138522000000
-0.0126439000000
-0.0096738400000
-0.0063985300000
-0.0053797700000
-0.0068035200000
-0.0078277300000
-0.0076696400000
-0.0077922000000
-0.0087712800000
-0.0107045000000
-0.0121174000000
-0.0109689000000
-0.0078171800000
-0.0047206300000
-0.0017237600000
0.0022764900000
0.0069414900000
0.0103884000000
0.0111535000000
0.0099160100000
0.0073963800000
0.0040455300000
0.0016438900000
0.0022235900000
0.0052851400000
0.0070048200000
0.0068680900000
0.0074668900000
0.0070295600000
0.0036929700000
-0.0002897100000
-0.0023191300000
-0.0010460400000
0.0027761400000
0.0068167300000
0.0104205000000
0.0133391000000
0.0144543000000
0.0149775000000
0.0160559000000
0.0164638000000
0.0151549000000
0.0118679000000
0.0084752900000
0.0064386300000
0.0054850000000
0.0064680300000
0.0092908000000
0.0123288000000
0.0140382000000
0.0146664000000
0.0154161000000
0.0149256000000
0.0131422000000
0.0117352000000
0.0093061200000
0.0064974600000
0.0051401400000
0.0052398000000
0.0066485900000
0.0065688100000
0.0047297200000
0.0040343500000
0.0052077600000
0.0079635400000
0.0110724000000
0.0128029000000
0.0130946000000
0.0121608000000
0.0100676000000
0.0076906900000
0.0052040200000
0.0033502000000
0.0026159400000
0.0019480100000
0.0015509400000
0.0025788900000
0.0045566400000
0.0055551800000
0.0056647200000
0.0062718200000
0.0061441700000
0.0041468800000
0.0021386300000
0.0023931100000
0.0049978600000
0.0064797300000
0.0042901300000
0.0003874510000
-0.0030909800000
-0.0063198700000
-0.0097673900000
-0.0113895000000
-0.0101253000000
-0.0087356600000
-0.0078019600000
-0.0060429900000
-0.0041084800000
-0.0034419400000
-0.0042265300000
-0.0050281800000
-0.0061325700000
-0.0074364700000
-0.0071953400000
-0.0054788600000
-0.0030732400000
-0.0004255550000
0.0013858700000
0.0010282600000
-0.0008279610000
-0.0025765000000
-0.0041536000000
-0.0063608600000
-0.0101529000000
-0.0159997000000
-0.0219329000000
-0.0244026000000
-0.0230850000000
-0.0192916000000
-0.0134064000000
-0.0079284600000
-0.0045067200000
-0.0027698800000
-0.0031938700000
-0.0051734800000
-0.0073210500000
-0.0082967800000
-0.0079892300000
-0.0079414700000
-0.0076122100000
-0.0062519800000
-0.0049099100000
-0.0044409800000
-0.0056649200000
-0.0070650900000
-0.0065329300000
-0.0052373300000
-0.0034721600000
-0.0017562100000
-0.0023125500000
-0.0049062500000
-0.0083426300000
-0.0113994000000
-0.0138768000000
-0.0160049000000
-0.0162982000000
-0.0155152000000
-0.0147759000000
-0.0139796000000
-0.0130313000000
-0.0106802000000
-0.0078302600000
-0.0047164300000
-0.0003442330000
0.0040634600000
0.0073812100000
0.0092986800000
0.0093754500000
0.0073472300000
0.0047344000000
0.0034274500000
0.0038050800000
0.0039179300000
0.0030705300000
0.0023198100000
0.0012001300000
0.0001047050000
-0.0009203030000
-0.0018230300000
-0.0027072800000
-0.0047288400000
-0.0068994000000
-0.0082484700000
-0.0084847100000
-0.0074970900000
-0.0070666800000
-0.0074400900000
-0.0060991100000
-0.0022360000000
0.0017973900000
0.0043035400000
0.0057079400000
0.0060568500000
0.0049068300000
0.0037072100000
0.0045231400000
0.0058774100000
0.0060229500000
0.0048952600000
0.0027190600000
0.0012047000000
0.0009617960000
0.0022095000000
0.0045270200000
0.0055291900000
0.0045202600000
0.0030024100000
0.0029653400000
0.0039059200000
0.0044569400000
0.0059117400000
0.0087678800000
0.0119087000000
0.0143291000000
0.0153514000000
0.0147674000000
0.0120954000000
0.0081411800000
0.0056655300000
0.0061723700000
0.0081158300000
0.0094526400000
0.0094276100000
0.0080389600000
0.0068791400000
0.0068549400000
0.0066369900000
0.0066514800000
0.0079592400000
0.0096326900000
0.0109845000000
0.0114492000000
0.0102642000000
0.0079685700000
0.0063661800000
0.0066619900000
0.0080991600000
0.0089973700000
0.0084939000000
0.0080102000000
0.0087680500000
0.0096886300000
0.0097898800000
0.0091831300000
0.0086192300000
0.0074261500000
0.0046400700000
0.0013568100000
-0.0018954900000
-0.0045674200000
-0.0057789800000
-0.0060305000000
-0.0059082400000
-0.0055376100000
-0.0043993600000
-0.0028481200000
-0.0021583900000
-0.0025965500000
-0.0035832300000
-0.0046454100000
-0.0068607400000
-0.0098966100000
-0.0122302000000
-0.0143336000000
-0.0161839000000
-0.0172511000000
-0.0169051000000
-0.0150534000000
-0.0123727000000
-0.0085775700000
-0.0043218300000
-0.0009097530000
0.0004490290000
-0.0000156318000
-0.0013687500000
-0.0045787500000
-0.0075460300000
-0.0078796200000
-0.0064421500000
-0.0037475700000
-0.0005701500000
0.0019014800000
0.0020825400000
0.0003561100000
-0.0011654500000
-0.0016241400000
-0.0011837800000
-0.0006674320000
-0.0007307470000
-0.0014127400000
-0.0016474000000
-0.0016161700000
-0.0027613800000
-0.0045838300000
-0.0058060400000
-0.0057611000000
-0.0046603000000
-0.0021622100000
0.0020027300000
0.0052951700000
0.0062318900000
0.0064049800000
0.0068641000000
0.0076033600000
0.0089973700000
0.0107531000000
0.0106864000000
0.0076951200000
0.0037785300000
0.0019718400000
0.0018097400000
0.0009056240000
-0.0005224340000
-0.0023941400000
-0.0041636600000
-0.0047117600000
-0.0040959100000
-0.0023080600000
0.0004873730000
0.0036596000000
0.0056831600000
0.0053241000000
0.0031174600000
0.0002428880000
-0.0019523100000
-0.0026002500000
-0.0017760300000
0.0005706130000
0.0025530000000
0.0024074400000
0.0014907000000
0.0011895900000
0.0020509500000
0.0033948700000
0.0044702700000
0.0054356500000
0.0050983800000
0.0024303100000
-0.0019029100000
-0.0062690700000
-0.0084323000000
-0.0079291600000
-0.0056935900000
-0.0025128900000
0.0005799960000
0.0025704900000
0.0025887600000
0.0018178900000
0.0019671900000
0.0024135500000
0.0024100000000
0.0014528500000
-0.0010189700000
-0.0040002700000
-0.0060529300000
-0.0067865300000
-0.0063650500000
-0.0054871000000
-0.0048648600000
-0.0046568800000
-0.0051960400000
-0.0058964300000
-0.0049519700000
-0.0021840400000
0.0011704300000
0.0038173900000
0.0032476900000
-0.0009417550000
-0.0058894000000
-0.0099983900000
-0.0125225000000
-0.0134948000000
-0.0135511000000
-0.0120203000000
-0.0086756300000
-0.0042688300000
0.0000459999000
0.0029891200000
0.0043888200000
0.0050891700000
0.0053078100000
0.0053826300000
0.0061463800000
0.0071719800000
0.0080624800000
0.0080244100000
0.0054177100000
0.0013374100000
-0.0011267800000
-0.0008491170000
0.0007915050000
0.0017777000000
0.0016192900000
0.0008177240000
-0.0008290450000
-0.0026217300000
-0.0025328300000
0.0007508210000
0.0054933300000
0.0082102800000
0.0080789300000
0.0067423200000
0.0059492300000
0.0052652300000
0.0040783300000
0.0040014200000
0.0049752100000
0.0053820300000
0.0044621700000
0.0024759200000
0.0005141800000
-0.0006077500000
-0.0010809700000
-0.0014939600000
-0.0015911400000
-0.0010230700000
0.0002127350000
0.0020677700000
0.0036937500000
0.0035522100000
0.0021050800000
0.0012544000000
0.0009631430000
0.0007134580000
0.0001964000000
-0.0010495700000
-0.0028385700000
-0.0039005800000
-0.0026716500000
0.0001637640000
0.0027213300000
0.0032868500000
0.0016921700000
-0.0001595380000
-0.0017119000000
-0.0028805700000
-0.0029672700000
-0.0021331900000
-0.0010178200000
-0.0005963590000
-0.0008582240000
-0.0012592700000
-0.0016824300000
-0.0022590900000
-0.0037012900000
-0.0046265000000
-0.0032643300000
-0.0008141070000
0.0009785820000
0.0014985200000
0.0011064400000
0.0007110140000
0.0010267900000
0.0017537800000
0.0024668400000
0.0030680200000
0.0029018100000
0.0022087900000
0.0015983700000
0.0007972790000
0.0002280170000
0.0005418040000
0.0017811900000
0.0041321000000
0.0070427200000
0.0090456000000
0.0095457500000
0.0091133800000
0.0084783800000
0.0079244200000
0.0073701000000
0.0063028000000
0.0044076400000
0.0027746500000
0.0022928500000
0.0026983400000
0.0040985500000
0.0064943600000
0.0093510000000
0.0118914000000
0.0132314000000
0.0132206000000
0.0121495000000
0.0108947000000
0.0095458700000
0.0073441300000
0.0048943700000
0.0024410100000
0.0001005580000
-0.0011658500000
-0.0008854520000
0.0003293190000
0.0013309900000
0.0014711200000
0.0011887800000
0.0013446500000
0.0017903600000
0.0029074100000
0.0040924700000
0.0038355200000
0.0031472800000
0.0028037500000
0.0027697400000
0.0027916900000
0.0023628000000
0.0019990400000
0.0013400700000
-0.0008197100000
-0.0044831000000
-0.0079700700000
-0.0096199000000
-0.0091682200000
-0.0068744400000
-0.0039069800000
-0.0015424900000
-0.0004774130000
-0.0008811670000
-0.0017721900000
-0.0020910700000
-0.0013777000000
-0.0005145830000
-0.0004239360000
-0.0008676090000
-0.0017678700000
-0.0027560700000
-0.0035043500000
-0.0039383600000
-0.0035422400000
-0.0033380800000
-0.0045646700000
-0.0062951900000
-0.0083450200000
-0.0105820000000
-0.0119511000000
-0.0113803000000
-0.0085524100000
-0.0058870700000
-0.0047056800000
-0.0046469000000
-0.0056349700000
-0.0074139600000
-0.0096319800000
-0.0104891000000
-0.0091792500000
-0.0066918700000
-0.0042453500000
-0.0022779700000
-0.0006896380000
-0.0002401800000
-0.0009189300000
-0.0021502300000
-0.0032854000000
-0.0033504400000
-0.0026666300000
-0.0025670300000
-0.0029026500000
-0.0029979900000
-0.0031160900000
-0.0038938900000
-0.0057506700000
-0.0076323000000
-0.0086667400000
-0.0083668200000
-0.0069550200000
-0.0060230900000
-0.0060149200000
-0.0063330400000
-0.0057065200000
-0.0043426200000
-0.0033965800000
-0.0023470400000
-0.0009323100000
0.0016241400000
0.0046819500000
0.0060368900000
0.0061683900000
0.0060879300000
0.0063570200000
0.0073662700000
0.0081577900000
0.0082972000000
0.0088962100000
0.0099911300000
0.0106012000000
0.0111303000000
0.0115227000000
0.0117691000000
0.0126983000000
0.0130551000000
0.0116102000000
0.0090718700000
0.0067232200000
0.0050966300000
0.0030825100000
0.0007535210000
-0.0006203460000
-0.0005038730000
0.0013173900000
0.0039814300000
0.0063334300000
0.0076850600000
0.0077167800000
0.0068759600000
0.0052507900000
0.0028197000000
0.0012912600000
0.0016505700000
0.0028379200000
0.0040334100000
0.0044111400000
0.0046172500000
0.0059723700000
0.0073554700000
0.0074730300000
0.0064332800000
0.0043985200000
0.0017759700000
-0.0005246660000
-0.0026113900000
-0.0049186500000
-0.0064704600000
-0.0065880200000
-0.0062599000000
-0.0061564400000
-0.0053473100000
-0.0031666000000
-0.0001528450000
0.0026723700000
0.0043160100000
0.0048380500000
0.0050081600000
0.0050342900000
0.0044038600000
0.0030204800000
0.0018779400000
0.0008466230000
-0.0008633870000
-0.0029672400000
-0.0055685600000
-0.0080175900000
-0.0095955100000
-0.0100896000000
-0.0089996600000
-0.0077029800000
-0.0073727400000
-0.0078168000000
-0.0086774300000
-0.0096257200000
-0.0103901000000
-0.0100487000000
-0.0089606900000
-0.0089118500000
-0.0101505000000
-0.0116410000000
-0.0125789000000
-0.0121186000000
-0.0101030000000
-0.0073900400000
-0.0053495900000
-0.0047968100000
-0.0051189000000
-0.0057630200000
-0.0057900000000
-0.0048238100000
-0.0043113300000
-0.0044754700000
-0.0046929800000
-0.0050385500000
-0.0055233600000
-0.0060356200000
-0.0060103900000
-0.0049981900000
-0.0039600400000
-0.0034342800000
-0.0029191100000
-0.0027395500000
-0.0029247900000
-0.0033571200000
-0.0037451000000
-0.0036912300000
-0.0039873100000
-0.0049711100000
-0.0058007800000
-0.0054575100000
-0.0042898500000
-0.0030466200000
-0.0015096300000
0.0005047610000
0.0028271000000
0.0050494800000
0.0072017400000
0.0092726000000
0.0107328000000
0.0112655000000
0.0105533000000
0.0086280100000
0.0068883400000
0.0067237600000
0.0078885500000
0.0090714200000
0.0090223300000
0.0081396300000
0.0074664600000
0.0066949700000
0.0054629300000
0.0039549600000
0.0022742100000
0.0007559350000
0.0000500664000
0.0004702020000
0.0013518700000
0.0017271400000
0.0015137000000
0.0009278680000
0.0001590120000
-0.0004769150000
-0.0012948900000
-0.0020669100000
-0.0018055300000
-0.0001289740000
0.0027507600000
0.0057581900000
0.0079415900000
0.0094893500000
0.0104212000000
0.0101325000000
0.0082708000000
0.0057398900000
0.0038947200000
0.0034590800000
0.0044410200000
0.0055935800000
0.0059555600000
0.0053108700000
0.0038547200000
0.0025855700000
0.0021328100000
0.0021675900000
0.0020676300000
0.0015565600000
0.0004054640000
-0.0009536650000
-0.0020358100000
-0.0030083700000
-0.0028836900000
-0.0015454800000
-0.0006348520000
-0.0002170100000
-0.0001091550000
-0.0005856390000
-0.0014011200000
-0.0022687200000
-0.0022665600000
-0.0019435400000
-0.0024816400000
-0.0034699500000
-0.0046302900000
-0.0058252400000
-0.0064586300000
-0.0059855800000
-0.0048957300000
-0.0041841300000
-0.0038438700000
-0.0038017300000
-0.0046835300000
-0.0062479600000
-0.0072730200000
-0.0073543800000
-0.0071692700000
-0.0069810400000
-0.0065370500000
-0.0061198100000
-0.0061622000000
-0.0063482300000
-0.0059155000000
-0.0050430000000
-0.0038637800000
-0.0020720500000
-0.0001751920000
0.0009076250000
0.0006907710000
0.0000866871000
-0.0001548940000
0.0001124060000
0.0004700930000
0.0001842910000
-0.0007319410000
-0.0026197700000
-0.0041691600000
-0.0044708900000
-0.0043453200000
-0.0038499500000
-0.0035174300000
-0.0033505400000
-0.0030393900000
-0.0027427800000
-0.0026557000000
-0.0026134800000
-0.0021366700000
-0.0011206900000
0.0005261050000
0.0025773900000
0.0045150500000
0.0056927800000
0.0060955800000
0.0061499600000
0.0060145200000
0.0055731300000
0.0046184900000
0.0036059700000
0.0025661800000
0.0014783200000
0.0007082570000
0.0002894530000
0.0003226860000
0.0005349320000
0.0006535110000
0.0004096440000
-0.0000299562000
-0.0003698560000
-0.0007306780000
-0.0008217730000
-0.0007974970000
-0.0003365050000
0.0008918840000
0.0023444400000
0.0038256400000
0.0047457100000
0.0052000000000
0.0059849600000
0.0068177900000
0.0073409200000
0.0075465200000
0.0076578100000
0.0078273900000
0.0077141500000
0.0067213000000
0.0048425000000
0.0034506600000
0.0031680100000
0.0037115000000
0.0044725700000
0.0039289400000
0.0021205500000
-0.0001507050000
-0.0026594700000
-0.0047387300000
-0.0056766600000
-0.0052484200000
-0.0041583500000
-0.0028396000000
-0.0010262500000
0.0012865000000
0.0034374700000
0.0047901600000
0.0056220400000
0.0060209000000
0.0054298000000
0.0036032200000
0.0010953700000
-0.0013923200000
-0.0033879600000
-0.0046646700000
-0.0057726900000
-0.0068271300000
-0.0073397900000
-0.0072868300000
-0.0072257700000
-0.0083950800000
-0.0106626000000
-0.0125189000000
-0.0134740000000
-0.0137944000000
-0.0135190000000
-0.0124671000000
-0.0109626000000
-0.0091305900000
-0.0067078800000
-0.0045831300000
-0.0032177300000
-0.0021283100000
-0.0020955200000
-0.0032795700000
-0.0045464200000
-0.0056164800000
-0.0061174500000
-0.0055368700000
-0.0040238100000
-0.0022627900000
-0.0015987100000
-0.0023337800000
-0.0030500100000
-0.0025428600000
-0.0011766000000
-0.0002859600000
-0.0004427790000
-0.0010389800000
-0.0011536000000
-0.0005251560000
0.0000657509000
0.0002239850000
0.0005791230000
0.0011337800000
0.0012937200000
0.0010884100000
0.0007222280000
-0.0000682376000
-0.0015588200000
-0.0029720400000
-0.0033550600000
-0.0031195600000
-0.0025781800000
-0.0013856100000
-0.0000635388000
0.0006338900000
0.0006213870000
0.0002168150000
0.0002131210000
0.0010211800000
0.0022623000000
0.0034554600000
0.0039829200000
0.0041297000000
0.0046990100000
0.0049003800000
0.0038429400000
0.0019893500000
0.0002981240000
-0.0004474590000
-0.0006762760000
-0.0008993590000
-0.0006249060000
0.0003260700000
0.0017690400000
0.0028942500000
0.0028849900000
0.0019056200000
0.0001128930000
-0.0018934000000
-0.0033345300000
-0.0039103600000
-0.0031440400000
-0.0008934920000
0.0018629700000
0.0036810500000
0.0043687100000
0.0044820600000
0.0039313500000
0.0026554100000
0.0014082600000
0.0007872220000
0.0007364810000
0.0013930700000
0.0026232900000
0.0038753200000
0.0047683700000
0.0049938600000
0.0042628500000
0.0026939000000
0.0013712800000
0.0010160800000
0.0011437700000
0.0015687300000
0.0020640200000
0.0021962500000
0.0019508800000
0.0011946900000
0.0003297150000
0.0000646261000
0.0002617450000
0.0005825770000
0.0007312340000
0.0003785110000
-0.0002860490000
-0.0010948700000
-0.0019345000000
-0.0026238600000
-0.0030458300000
-0.0030115100000
-0.0028128500000
-0.0023385800000
-0.0012237300000
-0.0001979200000
0.0002469650000
0.0006774150000
0.0011301400000
0.0011411900000
0.0007498190000
0.0002494290000
0.0001649260000
0.0004320010000
0.0006994650000
0.0014496200000
0.0025522100000
0.0029746900000
0.0022965300000
0.0012857400000
0.0007907980000
0.0003707420000
-0.0003223040000
-0.0005348310000
0.0000899068000
0.0009405250000
0.0012107600000
0.0007423050000
0.0002386060000
0.0004579320000
0.0009346920000
0.0007474200000
0.0000027644400
-0.0009094910000
-0.0017305000000
-0.0021795100000
-0.0022505800000
-0.0019208800000
-0.0011432200000
-0.0001885690000
0.0005047670000
0.0004362190000
-0.0003570850000
-0.0011550000000
-0.0013336800000
-0.0005576540000
0.0009782730000
0.0027579500000
0.0041388500000
0.0047812700000
0.0049170100000
0.0042821700000
0.0029771000000
0.0017070000000
0.0009415210000
0.0008062230000
0.0008054250000
0.0005734220000
-0.0002683270000
-0.0014669000000
-0.0021114900000
-0.0015787800000
0.0004083570000
0.0031893400000
0.0058493100000
0.0072288600000
0.0066744400000
0.0052035000000
0.0037082100000
0.0022874400000
0.0010331700000
0.0001097080000
-0.0003814750000
-0.0001667520000
0.0007697820000
0.0017036700000
0.0021419800000
0.0020782700000
0.0019637600000
0.0021520600000
0.0019883200000
0.0011490700000
0.0001260090000
-0.0007734970000
-0.0012069300000
-0.0006788990000
0.0006804130000
0.0020121100000
0.0028780000000
0.0032129400000
0.0026861100000
0.0014973200000
-0.0001104050000
-0.0019215200000
-0.0029579500000
-0.0029132000000
-0.0023271900000
-0.0015366800000
-0.0006024280000
0.0006033570000
0.0018060400000
0.0024605900000
0.0024896300000
0.0020938000000
0.0012207100000
-0.0001161930000
-0.0012638500000
-0.0016297800000
-0.0015559500000
-0.0013906500000
-0.0009753480000
-0.0004995890000
-0.0003686980000
-0.0005292510000
-0.0006310440000
-0.0006763820000
-0.0008318930000
-0.0011884100000
-0.0017717100000
-0.0023306600000
-0.0028655100000
-0.0033995100000
-0.0035613200000
-0.0033224200000
-0.0025480600000
-0.0011001900000
0.0003976870000
0.0013914700000
0.0014257300000
0.0007600930000
-0.0000174049000
-0.0011075700000
-0.0021212000000
-0.0027780200000
-0.0034183600000
-0.0039118400000
-0.0038378700000
-0.0031573800000
-0.0025393800000
-0.0021377600000
-0.0017067400000
-0.0014064500000
-0.0011491300000
-0.0010708500000
-0.0015402500000
-0.0022962200000
-0.0029187300000
-0.0027471000000
-0.0014420800000
0.0001578590000
0.0014377900000
0.0020819200000
0.0021171500000
0.0018132000000
0.0008517940000
-0.0003670220000
-0.0014373100000
-0.0024518300000
-0.0033263100000
-0.0042966300000
-0.0047414000000
-0.0042224600000
-0.0031758800000
-0.0018902800000
-0.0011906700000
-0.0008183830000
-0.0003074390000
-0.0001885480000
0.0001199190000
0.0008434760000
0.0010274000000
0.0001576570000
-0.0014234500000
-0.0024374300000
-0.0019255400000
-0.0008642390000
-0.0006115320000
-0.0010396500000
-0.0014848500000
-0.0013968800000
-0.0004975810000
0.0004000160000
0.0003237740000
-0.0004352850000
-0.0013276100000
-0.0018437800000
-0.0017097500000
-0.0014608300000
-0.0009345580000
-0.0000377724000
0.0005089930000
0.0003729920000
-0.0004761630000
-0.0013976200000
-0.0016195400000
-0.0014513300000
-0.0016357800000
-0.0016108100000
-0.0004340760000
0.0007804940000
0.0011448300000
0.0016030400000
0.0027451200000
0.0038208700000
0.0037059600000
0.0025227000000
0.0010729500000
-0.0000235924000
-0.0006564770000
-0.0015462400000
-0.0029758400000
-0.0043218100000
-0.0047414400000
-0.0042422500000
-0.0038537900000
-0.0040198700000
-0.0041655700000
-0.0037783300000
-0.0029686100000
-0.0021318000000
-0.0013393200000
-0.0005799520000
0.0002149670000
0.0013124600000
0.0022087900000
0.0022058700000
0.0013719100000
0.0001409770000
-0.0012171200000
-0.0029136500000
-0.0047836900000
-0.0058944500000
-0.0057505400000
-0.0050002300000
-0.0043172200000
-0.0037200200000
-0.0030986500000
-0.0024864200000
-0.0019994100000
-0.0016588400000
-0.0014404300000
-0.0012062400000
-0.0010130000000
-0.0012386200000
-0.0019469100000
-0.0027524400000
-0.0032278400000
-0.0034408600000
-0.0032120400000
-0.0019939100000
-0.0004820330000
0.0000885113000
-0.0004144610000
-0.0010676400000
-0.0009405110000
-0.0002525440000
0.0001380480000
0.0001591520000
0.0002644560000
0.0005524090000
0.0009332240000
0.0009242920000
0.0002211870000
-0.0009569930000
-0.0025188000000
-0.0040366000000
-0.0051966500000
-0.0055399100000
-0.0046816300000
-0.0035462000000
-0.0028666500000
-0.0025915200000
-0.0025400900000
-0.0025458100000
-0.0024286700000
-0.0018193000000
-0.0006370450000
0.0006072610000
0.0015007800000
0.0020516400000
0.0021512600000
0.0021661700000
0.0028316000000
0.0038892200000
0.0047408200000
0.0053194000000
0.0056905400000
0.0058361700000
0.0052900300000
0.0041704300000
0.0030329500000
0.0014057400000
-0.0007229620000
-0.0027106600000
-0.0039858500000
-0.0043390800000
-0.0046340400000
-0.0051327100000
-0.0051473200000
-0.0044018200000
-0.0029076300000
-0.0013060400000
-0.0005325030000
-0.0005598100000
-0.0007784490000
-0.0008287910000
-0.0009128230000
-0.0013845500000
-0.0020806800000
-0.0026620500000
-0.0030698900000
-0.0035632600000
-0.0042870000000
-0.0048340600000
-0.0047586600000
-0.0043260900000
-0.0038724600000
-0.0032090200000
-0.0027168000000
-0.0027114200000
-0.0023695100000
-0.0012953000000
0.0000006606500
0.0008190050000
0.0012890900000
0.0024769200000
0.0039210500000
0.0044147500000
0.0041156700000
0.0033870000000
0.0027119600000
0.0027302900000
0.0030324800000
0.0031313400000
0.0032436600000
0.0030900200000
0.0024871800000
0.0019944600000
0.0021158300000
0.0027444200000
0.0030443000000
0.0028049000000
0.0029024300000
0.0034497800000
0.0039333200000
0.0043298300000
0.0043193700000
0.0035846900000
0.0025307800000
0.0016628700000
0.0011474700000
0.0011593400000
0.0017363500000
0.0023774900000
0.0026459700000
0.0023496400000
0.0016134900000
0.0009698690000
0.0010556500000
0.0021483000000
0.0037225800000
0.0051929700000
0.0062463200000
0.0067957100000
0.0069242800000
0.0068131700000
0.0070632000000
0.0076656600000
0.0075163200000
0.0057838200000
0.0031044700000
0.0007523550000
-0.0007007560000
-0.0011570100000
-0.0008659090000
-0.0003859120000
0.0002629780000
0.0013562600000
0.0022392800000
0.0022869500000
0.0020399300000
0.0023047100000
0.0030033400000
0.0033261300000
0.0030666100000
0.0026055200000
0.0020817400000
0.0014966700000
0.0007756420000
-0.0000954684000
-0.0006114770000
-0.0005762360000
-0.0003581310000
-0.0001780740000
-0.0001228460000
-0.0002324140000
-0.0006016390000
-0.0009911340000
-0.0014062300000
-0.0018837300000
-0.0021067200000
-0.0023498900000
-0.0025223700000
-0.0023251300000
-0.0016821400000
-0.0004458620000
0.0006909390000
0.0012039100000
0.0012730900000
0.0009954270000
0.0006909140000
0.0004608400000
0.0001394250000
-0.0000088684600
0.0003984740000
0.0008817410000
0.0007986200000
0.0004668800000
0.0001677760000
-0.0000206917000
-0.0000923773000
-0.0002932080000
-0.0005820230000
-0.0006356270000
-0.0005783390000
-0.0009317860000
-0.0017530400000
-0.0028062800000
-0.0039707700000
-0.0050252800000
-0.0056555200000
-0.0058451900000
-0.0055213900000
-0.0048770900000
-0.0044827400000
-0.0044779700000
-0.0046457400000
-0.0043697900000
-0.0032503700000
-0.0014835400000
0.0004252060000
0.0018058300000
0.0025341200000
0.0029662200000
0.0029041200000
0.0020443700000
0.0010252600000
0.0003293320000
-0.0003438710000
-0.0010970500000
-0.0016472800000
-0.0018406100000
-0.0018933900000
-0.0020453000000
-0.0022850400000
-0.0022977500000
-0.0019042900000
-0.0015859000000
-0.0019061600000
-0.0029439600000
-0.0039362200000
-0.0039442200000
-0.0034460900000
-0.0029531500000
-0.0026300600000
-0.0021599100000
-0.0017604500000
-0.0010565800000
-0.0008335570000
-0.0008273690000
-0.0006715330000
-0.0007553550000
-0.0009330880000
-0.0011249500000
-0.0009912970000
-0.0006875710000
-0.0008592860000
-0.0010999000000
-0.0011357200000
-0.0012641200000
-0.0014924100000
-0.0015538600000
-0.0016371300000
-0.0019428300000
-0.0019794800000
-0.0015440700000
-0.0006562820000
0.0002517630000
0.0005355100000
0.0000919197000
-0.0014200500000
-0.0032676500000
-0.0040477800000
-0.0039948600000
-0.0036179900000
-0.0033311600000
-0.0036755500000
-0.0041678900000
-0.0040433600000
-0.0033840700000
-0.0029897100000
-0.0030477100000
-0.0029173800000
-0.0029221100000
-0.0036481500000
-0.0042310100000
-0.0039293600000
-0.0031117100000
-0.0024510500000
-0.0024562200000
-0.0026094100000
-0.0020773100000
-0.0012788400000
-0.0011171900000
-0.0015764800000
-0.0021689200000
-0.0025971100000
-0.0028226300000
-0.0030088700000
-0.0029931700000
-0.0026962300000
-0.0021643200000
-0.0015533600000
-0.0010224200000
-0.0007267090000
-0.0009233490000
-0.0010369600000
-0.0009657310000
-0.0008649740000
-0.0007299520000
-0.0008904590000
-0.0006508560000
0.0000047012400
0.0007147970000
0.0016457700000
0.0021525700000
0.0021549700000
0.0022478800000
0.0026156900000
0.0028840400000
0.0025819600000
0.0019434700000
0.0017356100000
0.0023053000000
0.0028338800000
0.0024863600000
0.0016356700000
0.0011869000000
0.0014896100000
0.0018549500000
0.0017110500000
0.0016624300000
0.0022185800000
0.0030543100000
0.0035817600000
0.0035997000000
0.0032545400000
0.0024365100000
0.0013442300000
0.0004306560000
-0.0002158980000
-0.0003425130000
0.0003303910000
0.0013337400000
0.0021383800000
0.0028434300000
0.0033401100000
0.0033890000000
0.0031476900000
0.0027011300000
0.0020844200000
0.0014326400000
0.0008572700000
0.0005185260000
0.0003972240000
0.0006046130000
0.0012053300000
0.0016285800000
0.0018540100000
0.0023403300000
0.0027395600000
0.0027034100000
0.0026930600000
0.0032779400000
0.0042747300000
0.0049948300000
0.0053241100000
0.0057330300000
0.0061930200000
0.0061018700000
0.0056127300000
0.0053068000000
0.0049985300000
0.0044646600000
0.0037338800000
0.0030192000000
0.0025226900000
0.0020324600000
0.0016804900000
0.0014403200000
0.0010296500000
0.0007649370000
0.0006667070000
0.0004664170000
0.0000305309000
-0.0006924640000
-0.0013716400000
-0.0017959600000
-0.0017814700000
-0.0013101600000
-0.0008480260000
-0.0004475760000
0.0000772851000
0.0006308280000
0.0010739300000
0.0012890600000
0.0012787700000
0.0011744500000
0.0010329200000
0.0008589800000
0.0005741220000
0.0001171420000
-0.0002070340000
-0.0003647910000
-0.0006234800000
-0.0007954290000
-0.0008106380000
-0.0008858480000
-0.0008321930000
-0.0005703350000
-0.0004256170000
-0.0003441640000
-0.0002606230000
-0.0001997000000
0.0001141640000
0.0005523170000
0.0007874270000
0.0007838810000
0.0006143810000
0.0004870520000
0.0004164860000
0.0002803590000
0.0002971150000
0.0007003140000
0.0012516000000
0.0016781300000
0.0019871700000
0.0021123500000
0.0019702500000
0.0014506600000
0.0005670810000
-0.0002678500000
-0.0008873740000
-0.0013090500000
-0.0015138700000
-0.0017801200000
-0.0019983600000
-0.0018618500000
-0.0016198900000
-0.0014879200000
-0.0013172200000
-0.0011036100000
-0.0010099400000
-0.0008559650000
-0.0007411300000
-0.0009297000000
-0.0011024300000
-0.0009227160000
-0.0002605010000
0.0005842270000
0.0011946800000
0.0015766400000
0.0017764400000
0.0018670300000
0.0019534800000
0.0019183000000
0.0016934800000
0.0015682800000
0.0016950300000
0.0017873400000
0.0016024800000
0.0013337500000
0.0012166400000
0.0010800400000
0.0007125460000
0.0003220830000
0.0002746340000
0.0005203560000
0.0007861410000
0.0009553280000
0.0010693700000
0.0010696400000
0.0008344460000
0.0006485090000
0.0007254270000
0.0009481660000
0.0012335900000
0.0013995200000
0.0013303900000
0.0012469800000
0.0014234000000
0.0017612900000
0.0020253700000
0.0021718500000
0.0022836900000
0.0024508100000
0.0026185800000
0.0027280600000
0.0027351900000
0.0027070900000
0.0026709100000
0.0025558300000
0.0024647800000
0.0023896300000
0.0023884800000
0.0024643700000
0.0024283500000
0.0022882800000
0.0020538600000
0.0017308100000
0.0013307100000
0.0008801690000
0.0004458680000
0.0000420909000
-0.0001811350000
-0.0001226780000
0.0001575540000
0.0006682370000
0.0012452800000
0.0016202500000
0.0017827400000
0.0017774300000
0.0016041300000
0.0013017200000
0.0009182310000
0.0005455450000
0.0002659420000
0.0000830172000
0.0000508939000
0.0002287170000
0.0004616640000
0.0005512390000
0.0004916290000
0.0003684900000
0.0002612590000
0.0001581270000
-0.0000618467000
-0.0003307650000
-0.0005145380000
-0.0006486300000
-0.0007584340000
-0.0008525150000
-0.0009258730000
-0.0009347550000
-0.0008289930000
-0.0006515910000
-0.0005135550000
-0.0003660770000
-0.0001202730000
0.0001332840000
0.0003130390000
0.0005049450000
0.0007417130000
0.0009626520000
0.0011509700000
0.0013017400000
0.0013825900000
0.0013365100000
0.0011628200000
0.0009266730000
0.0007172260000
0.0006425650000
0.0006956950000
0.0007735770000
0.0008450890000
0.0008999340000
0.0008991050000
0.0008486070000
0.0007861900000
0.0007421030000
0.0006976060000
0.0006222410000
0.0005548830000
0.0004813860000
0.0003729280000
0.0003184010000
0.0003631050000
0.0004603440000
0.0005694170000
0.0006216660000
0.0005843310000
0.0005324360000
0.0005024230000
0.0004613520000
0.0004122310000
0.0003751740000
0.0003585090000
0.0003321600000
0.0002630600000
0.0001909680000
0.0001549940000
0.0001370980000
0.0001003180000
0.0000349455000
-0.0000379474000
-0.0000959486000
-0.0001347730000
-0.0001633910000
-0.0001744140000
-0.0001680820000
-0.0001603570000
-0.0001437840000
-0.0001148620000
-0.0000844128000
-0.0000636143000
-0.0000626066000
-0.0000733246000
-0.0000963025000
-0.0001358440000
-0.0001956540000
-0.0002727320000
-0.0003377840000
-0.0003749230000
-0.0003785700000
-0.0003593030000
-0.0003369820000
-0.0003210400000
-0.0003279740000
-0.0003574200000
-0.0003959830000
-0.0004273720000
-0.0004401260000
-0.0004433770000
-0.0004421540000
-0.0004324080000
-0.0004152910000
-0.0004001100000
-0.0003917020000
-0.0003864770000
-0.0003930000000
-0.0004152410000
-0.0004357440000
-0.0004453400000
-0.0004539080000
-0.0004705210000
-0.0004882570000
-0.0004990860000
-0.0005072810000
-0.0005156170000
-0.0005243410000
-0.0005345630000
-0.0005431430000
-0.0005497530000
-0.0005580780000
-0.0005664160000
-0.0005700510000
-0.0005686310000
-0.0005710530000
-0.0005839930000
-0.0005997990000
-0.0006100860000
-0.0006146310000
-0.0006165940000
-0.0006184190000
-0.0006208840000
-0.0006255990000
-0.0006332780000
-0.0006421340000
-0.0006505670000
-0.0006586140000
-0.0006667830000
-0.0006744690000
-0.0006801760000
-0.0006836480000
-0.0006869680000
-0.0006913250000
-0.0006963760000
-0.0007015010000
-0.0007055100000
-0.0007086380000
-0.0007120990000
-0.0007163520000
-0.0007209590000
-0.0007249300000
-0.0007283480000
-0.0007317460000
-0.0007351200000
-0.0007386370000
-0.0007423000000
-0.0007458290000
-0.0007489880000
-0.0007518420000
-0.0007546990000
-0.0007576210000
-0.0007605490000
-0.0007634310000
-0.0007662270000
-0.0007689740000
-0.0007716130000
-0.0007741020000
-0.0007764720000
-0.0007787290000
-0.0007808760000
-0.0007829020000
-0.0007847910000
-0.0007865460000
-0.0007881760000
-0.0007896880000
-0.0007910770000
-0.0007923370000
-0.0007934660000
-0.0007944640000
-0.0007953290000
-0.0007960590000
-0.0007966520000
-0.0007971080000
-0.0007974260000
0.0000000000000
0.0000000000000
0.0000000000000
0.0000000000000
